<?xml version="1.0"?>
<!DOCTYPE svg PUBLIC '-//W3C//DTD SVG 1.0//EN'
          'http://www.w3.org/TR/2001/REC-SVG-20010904/DTD/svg10.dtd'>
<svg xmlns:xlink="http://www.w3.org/1999/xlink" style="fill-opacity:1; color-rendering:auto; color-interpolation:auto; text-rendering:auto; stroke:black; stroke-linecap:square; stroke-miterlimit:10; shape-rendering:auto; stroke-opacity:1; fill:black; stroke-dasharray:none; font-weight:normal; stroke-width:1; font-family:'Dialog'; font-style:normal; stroke-linejoin:miter; font-size:12px; stroke-dashoffset:0; image-rendering:auto;" width="560" height="420" xmlns="http://www.w3.org/2000/svg"
><!--Generated by the Batik Graphics2D SVG Generator--><defs id="genericDefs"
  /><g
  ><defs id="defs1"
    ><clipPath clipPathUnits="userSpaceOnUse" id="clipPath1"
      ><path d="M0 0 L560 0 L560 420 L0 420 L0 0 Z"
      /></clipPath
    ></defs
    ><g style="fill:white; stroke:white;"
    ><rect x="0" y="0" width="560" style="clip-path:url(#clipPath1); stroke:none;" height="420"
    /></g
    ><g style="fill:white; text-rendering:optimizeSpeed; color-rendering:optimizeSpeed; image-rendering:optimizeSpeed; shape-rendering:crispEdges; stroke:white; color-interpolation:sRGB;"
    ><rect x="0" width="560" height="420" y="0" style="stroke:none;"
      /><path style="stroke:none;" d="M73 374 L507 374 L507 31 L73 31 Z"
    /></g
    ><g style="fill:rgb(38,38,38); text-rendering:geometricPrecision; image-rendering:optimizeQuality; color-rendering:optimizeQuality; stroke-linejoin:round; stroke:rgb(38,38,38); color-interpolation:linearRGB; stroke-width:0.6667;"
    ><line y2="374" style="fill:none;" x1="73" x2="507" y1="374"
      /><line y2="31" style="fill:none;" x1="73" x2="507" y1="31"
      /><line y2="369.66" style="fill:none;" x1="73" x2="73" y1="374"
      /><line y2="369.66" style="fill:none;" x1="116.4" x2="116.4" y1="374"
      /><line y2="369.66" style="fill:none;" x1="159.8" x2="159.8" y1="374"
      /><line y2="369.66" style="fill:none;" x1="203.2" x2="203.2" y1="374"
      /><line y2="369.66" style="fill:none;" x1="246.6" x2="246.6" y1="374"
      /><line y2="369.66" style="fill:none;" x1="290" x2="290" y1="374"
      /><line y2="369.66" style="fill:none;" x1="333.4" x2="333.4" y1="374"
      /><line y2="369.66" style="fill:none;" x1="376.8" x2="376.8" y1="374"
      /><line y2="369.66" style="fill:none;" x1="420.2" x2="420.2" y1="374"
      /><line y2="369.66" style="fill:none;" x1="463.6" x2="463.6" y1="374"
      /><line y2="369.66" style="fill:none;" x1="507" x2="507" y1="374"
      /><line y2="35.34" style="fill:none;" x1="73" x2="73" y1="31"
      /><line y2="35.34" style="fill:none;" x1="116.4" x2="116.4" y1="31"
      /><line y2="35.34" style="fill:none;" x1="159.8" x2="159.8" y1="31"
      /><line y2="35.34" style="fill:none;" x1="203.2" x2="203.2" y1="31"
      /><line y2="35.34" style="fill:none;" x1="246.6" x2="246.6" y1="31"
      /><line y2="35.34" style="fill:none;" x1="290" x2="290" y1="31"
      /><line y2="35.34" style="fill:none;" x1="333.4" x2="333.4" y1="31"
      /><line y2="35.34" style="fill:none;" x1="376.8" x2="376.8" y1="31"
      /><line y2="35.34" style="fill:none;" x1="420.2" x2="420.2" y1="31"
      /><line y2="35.34" style="fill:none;" x1="463.6" x2="463.6" y1="31"
      /><line y2="35.34" style="fill:none;" x1="507" x2="507" y1="31"
    /></g
    ><g transform="translate(73,379.3333)" style="font-size:13.3333px; fill:rgb(38,38,38); text-rendering:geometricPrecision; color-rendering:optimizeQuality; image-rendering:optimizeQuality; stroke:rgb(38,38,38); color-interpolation:linearRGB;"
    ><path style="stroke:none;" d="M-9.5938 11.2031 L-9.5938 10.0625 L-6.0781 10.0625 L-6.0781 11.2031 L-9.5938 11.2031 ZM0.98 12.9062 L0.98 14 L-5.1762 14 Q-5.1918 13.5938 -5.0356 13.2031 Q-4.8012 12.5781 -4.2856 11.9688 Q-3.77 11.3594 -2.7856 10.5625 Q-1.27 9.3125 -0.7387 8.5859 Q-0.2075 7.8594 -0.2075 7.2188 Q-0.2075 6.5312 -0.6918 6.0703 Q-1.1762 5.6094 -1.9575 5.6094 Q-2.7856 5.6094 -3.2778 6.1016 Q-3.77 6.5938 -3.7856 7.4688 L-4.9575 7.3438 Q-4.8325 6.0312 -4.0512 5.3438 Q-3.27 4.6562 -1.9418 4.6562 Q-0.5981 4.6562 0.1832 5.3984 Q0.9644 6.1406 0.9644 7.2344 Q0.9644 7.7969 0.7379 8.3359 Q0.5113 8.875 -0.02 9.4766 Q-0.5512 10.0781 -1.7856 11.1094 Q-2.8168 11.9688 -3.1059 12.2812 Q-3.395 12.5938 -3.5825 12.9062 L0.98 12.9062 ZM2.3838 11.5625 L3.5713 11.4531 Q3.7119 12.3438 4.1963 12.7812 Q4.6807 13.2188 5.3682 13.2188 Q6.1963 13.2188 6.7666 12.5938 Q7.3369 11.9688 7.3369 10.9531 Q7.3369 9.9688 6.7901 9.4062 Q6.2432 8.8438 5.3526 8.8438 Q4.7901 8.8438 4.3448 9.0938 Q3.8994 9.3438 3.6494 9.7344 L2.5869 9.5938 L3.4776 4.8281 L8.1026 4.8281 L8.1026 5.9062 L4.3994 5.9062 L3.8994 8.4062 Q4.7276 7.8281 5.6494 7.8281 Q6.8682 7.8281 7.7041 8.6719 Q8.5401 9.5156 8.5401 10.8438 Q8.5401 12.1094 7.8057 13.0312 Q6.9151 14.1562 5.3682 14.1562 Q4.1026 14.1562 3.2979 13.4453 Q2.4932 12.7344 2.3838 11.5625 Z"
    /></g
    ><g transform="translate(116.4,379.3333)" style="font-size:13.3333px; fill:rgb(38,38,38); text-rendering:geometricPrecision; color-rendering:optimizeQuality; image-rendering:optimizeQuality; stroke:rgb(38,38,38); color-interpolation:linearRGB;"
    ><path style="stroke:none;" d="M-9.5938 11.2031 L-9.5938 10.0625 L-6.0781 10.0625 L-6.0781 11.2031 L-9.5938 11.2031 ZM0.98 12.9062 L0.98 14 L-5.1762 14 Q-5.1918 13.5938 -5.0356 13.2031 Q-4.8012 12.5781 -4.2856 11.9688 Q-3.77 11.3594 -2.7856 10.5625 Q-1.27 9.3125 -0.7387 8.5859 Q-0.2075 7.8594 -0.2075 7.2188 Q-0.2075 6.5312 -0.6918 6.0703 Q-1.1762 5.6094 -1.9575 5.6094 Q-2.7856 5.6094 -3.2778 6.1016 Q-3.77 6.5938 -3.7856 7.4688 L-4.9575 7.3438 Q-4.8325 6.0312 -4.0512 5.3438 Q-3.27 4.6562 -1.9418 4.6562 Q-0.5981 4.6562 0.1832 5.3984 Q0.9644 6.1406 0.9644 7.2344 Q0.9644 7.7969 0.7379 8.3359 Q0.5113 8.875 -0.02 9.4766 Q-0.5512 10.0781 -1.7856 11.1094 Q-2.8168 11.9688 -3.1059 12.2812 Q-3.395 12.5938 -3.5825 12.9062 L0.98 12.9062 ZM6.0401 14 L6.0401 11.7656 L2.0088 11.7656 L2.0088 10.7188 L6.2432 4.6875 L7.1807 4.6875 L7.1807 10.7188 L8.4463 10.7188 L8.4463 11.7656 L7.1807 11.7656 L7.1807 14 L6.0401 14 ZM6.0401 10.7188 L6.0401 6.5312 L3.1182 10.7188 L6.0401 10.7188 Z"
    /></g
    ><g transform="translate(159.8,379.3333)" style="font-size:13.3333px; fill:rgb(38,38,38); text-rendering:geometricPrecision; color-rendering:optimizeQuality; image-rendering:optimizeQuality; stroke:rgb(38,38,38); color-interpolation:linearRGB;"
    ><path style="stroke:none;" d="M-9.5938 11.2031 L-9.5938 10.0625 L-6.0781 10.0625 L-6.0781 11.2031 L-9.5938 11.2031 ZM0.98 12.9062 L0.98 14 L-5.1762 14 Q-5.1918 13.5938 -5.0356 13.2031 Q-4.8012 12.5781 -4.2856 11.9688 Q-3.77 11.3594 -2.7856 10.5625 Q-1.27 9.3125 -0.7387 8.5859 Q-0.2075 7.8594 -0.2075 7.2188 Q-0.2075 6.5312 -0.6918 6.0703 Q-1.1762 5.6094 -1.9575 5.6094 Q-2.7856 5.6094 -3.2778 6.1016 Q-3.77 6.5938 -3.7856 7.4688 L-4.9575 7.3438 Q-4.8325 6.0312 -4.0512 5.3438 Q-3.27 4.6562 -1.9418 4.6562 Q-0.5981 4.6562 0.1832 5.3984 Q0.9644 6.1406 0.9644 7.2344 Q0.9644 7.7969 0.7379 8.3359 Q0.5113 8.875 -0.02 9.4766 Q-0.5512 10.0781 -1.7856 11.1094 Q-2.8168 11.9688 -3.1059 12.2812 Q-3.395 12.5938 -3.5825 12.9062 L0.98 12.9062 ZM2.3838 11.5469 L3.5244 11.3906 Q3.7276 12.3594 4.1963 12.7891 Q4.6651 13.2188 5.3526 13.2188 Q6.1494 13.2188 6.7041 12.6641 Q7.2588 12.1094 7.2588 11.2812 Q7.2588 10.4844 6.751 9.9766 Q6.2432 9.4688 5.4463 9.4688 Q5.1182 9.4688 4.6338 9.5938 L4.7588 8.5938 Q4.8838 8.6094 4.9463 8.6094 Q5.6807 8.6094 6.2666 8.2266 Q6.8526 7.8438 6.8526 7.0469 Q6.8526 6.4219 6.4229 6.0078 Q5.9932 5.5938 5.3213 5.5938 Q4.6494 5.5938 4.2119 6.0156 Q3.7744 6.4375 3.6338 7.2656 L2.4932 7.0625 Q2.7119 5.9219 3.4541 5.2891 Q4.1963 4.6562 5.2901 4.6562 Q6.0557 4.6562 6.6963 4.9844 Q7.3369 5.3125 7.6807 5.875 Q8.0244 6.4375 8.0244 7.0781 Q8.0244 7.6719 7.6963 8.1719 Q7.3682 8.6719 6.7432 8.9531 Q7.5557 9.1562 8.0166 9.75 Q8.4776 10.3438 8.4776 11.25 Q8.4776 12.4688 7.5869 13.3203 Q6.6963 14.1719 5.3369 14.1719 Q4.1182 14.1719 3.3057 13.4375 Q2.4932 12.7031 2.3838 11.5469 Z"
    /></g
    ><g transform="translate(203.2,379.3333)" style="font-size:13.3333px; fill:rgb(38,38,38); text-rendering:geometricPrecision; color-rendering:optimizeQuality; image-rendering:optimizeQuality; stroke:rgb(38,38,38); color-interpolation:linearRGB;"
    ><path style="stroke:none;" d="M-9.5938 11.2031 L-9.5938 10.0625 L-6.0781 10.0625 L-6.0781 11.2031 L-9.5938 11.2031 ZM0.98 12.9062 L0.98 14 L-5.1762 14 Q-5.1918 13.5938 -5.0356 13.2031 Q-4.8012 12.5781 -4.2856 11.9688 Q-3.77 11.3594 -2.7856 10.5625 Q-1.27 9.3125 -0.7387 8.5859 Q-0.2075 7.8594 -0.2075 7.2188 Q-0.2075 6.5312 -0.6918 6.0703 Q-1.1762 5.6094 -1.9575 5.6094 Q-2.7856 5.6094 -3.2778 6.1016 Q-3.77 6.5938 -3.7856 7.4688 L-4.9575 7.3438 Q-4.8325 6.0312 -4.0512 5.3438 Q-3.27 4.6562 -1.9418 4.6562 Q-0.5981 4.6562 0.1832 5.3984 Q0.9644 6.1406 0.9644 7.2344 Q0.9644 7.7969 0.7379 8.3359 Q0.5113 8.875 -0.02 9.4766 Q-0.5512 10.0781 -1.7856 11.1094 Q-2.8168 11.9688 -3.1059 12.2812 Q-3.395 12.5938 -3.5825 12.9062 L0.98 12.9062 ZM8.3838 12.9062 L8.3838 14 L2.2276 14 Q2.2119 13.5938 2.3682 13.2031 Q2.6026 12.5781 3.1182 11.9688 Q3.6338 11.3594 4.6182 10.5625 Q6.1338 9.3125 6.6651 8.5859 Q7.1963 7.8594 7.1963 7.2188 Q7.1963 6.5312 6.7119 6.0703 Q6.2276 5.6094 5.4463 5.6094 Q4.6182 5.6094 4.126 6.1016 Q3.6338 6.5938 3.6182 7.4688 L2.4463 7.3438 Q2.5713 6.0312 3.3526 5.3438 Q4.1338 4.6562 5.4619 4.6562 Q6.8057 4.6562 7.5869 5.3984 Q8.3682 6.1406 8.3682 7.2344 Q8.3682 7.7969 8.1416 8.3359 Q7.9151 8.875 7.3838 9.4766 Q6.8526 10.0781 5.6182 11.1094 Q4.5869 11.9688 4.2979 12.2812 Q4.0088 12.5938 3.8213 12.9062 L8.3838 12.9062 Z"
    /></g
    ><g transform="translate(246.6,379.3333)" style="font-size:13.3333px; fill:rgb(38,38,38); text-rendering:geometricPrecision; color-rendering:optimizeQuality; image-rendering:optimizeQuality; stroke:rgb(38,38,38); color-interpolation:linearRGB;"
    ><path style="stroke:none;" d="M-9.5938 11.2031 L-9.5938 10.0625 L-6.0781 10.0625 L-6.0781 11.2031 L-9.5938 11.2031 ZM0.98 12.9062 L0.98 14 L-5.1762 14 Q-5.1918 13.5938 -5.0356 13.2031 Q-4.8012 12.5781 -4.2856 11.9688 Q-3.77 11.3594 -2.7856 10.5625 Q-1.27 9.3125 -0.7387 8.5859 Q-0.2075 7.8594 -0.2075 7.2188 Q-0.2075 6.5312 -0.6918 6.0703 Q-1.1762 5.6094 -1.9575 5.6094 Q-2.7856 5.6094 -3.2778 6.1016 Q-3.77 6.5938 -3.7856 7.4688 L-4.9575 7.3438 Q-4.8325 6.0312 -4.0512 5.3438 Q-3.27 4.6562 -1.9418 4.6562 Q-0.5981 4.6562 0.1832 5.3984 Q0.9644 6.1406 0.9644 7.2344 Q0.9644 7.7969 0.7379 8.3359 Q0.5113 8.875 -0.02 9.4766 Q-0.5512 10.0781 -1.7856 11.1094 Q-2.8168 11.9688 -3.1059 12.2812 Q-3.395 12.5938 -3.5825 12.9062 L0.98 12.9062 ZM6.6807 14 L5.5401 14 L5.5401 6.7188 Q5.1182 7.1094 4.4541 7.5078 Q3.7901 7.9062 3.2588 8.0938 L3.2588 6.9844 Q4.2119 6.5469 4.9307 5.9062 Q5.6494 5.2656 5.9463 4.6562 L6.6807 4.6562 L6.6807 14 Z"
    /></g
    ><g transform="translate(290,379.3333)" style="font-size:13.3333px; fill:rgb(38,38,38); text-rendering:geometricPrecision; color-rendering:optimizeQuality; image-rendering:optimizeQuality; stroke:rgb(38,38,38); color-interpolation:linearRGB;"
    ><path style="stroke:none;" d="M-9.5938 11.2031 L-9.5938 10.0625 L-6.0781 10.0625 L-6.0781 11.2031 L-9.5938 11.2031 ZM0.98 12.9062 L0.98 14 L-5.1762 14 Q-5.1918 13.5938 -5.0356 13.2031 Q-4.8012 12.5781 -4.2856 11.9688 Q-3.77 11.3594 -2.7856 10.5625 Q-1.27 9.3125 -0.7387 8.5859 Q-0.2075 7.8594 -0.2075 7.2188 Q-0.2075 6.5312 -0.6918 6.0703 Q-1.1762 5.6094 -1.9575 5.6094 Q-2.7856 5.6094 -3.2778 6.1016 Q-3.77 6.5938 -3.7856 7.4688 L-4.9575 7.3438 Q-4.8325 6.0312 -4.0512 5.3438 Q-3.27 4.6562 -1.9418 4.6562 Q-0.5981 4.6562 0.1832 5.3984 Q0.9644 6.1406 0.9644 7.2344 Q0.9644 7.7969 0.7379 8.3359 Q0.5113 8.875 -0.02 9.4766 Q-0.5512 10.0781 -1.7856 11.1094 Q-2.8168 11.9688 -3.1059 12.2812 Q-3.395 12.5938 -3.5825 12.9062 L0.98 12.9062 ZM2.3838 9.4062 Q2.3838 7.7656 2.7198 6.7578 Q3.0557 5.75 3.7276 5.2031 Q4.3994 4.6562 5.4151 4.6562 Q6.1651 4.6562 6.7276 4.9609 Q7.2901 5.2656 7.6573 5.8281 Q8.0244 6.3906 8.2354 7.2109 Q8.4463 8.0312 8.4463 9.4062 Q8.4463 11.0469 8.1104 12.0547 Q7.7744 13.0625 7.1026 13.6094 Q6.4307 14.1562 5.4151 14.1562 Q4.0713 14.1562 3.2901 13.1875 Q2.3838 12.0312 2.3838 9.4062 ZM3.5557 9.4062 Q3.5557 11.7031 4.0869 12.4609 Q4.6182 13.2188 5.4151 13.2188 Q6.1963 13.2188 6.7354 12.4609 Q7.2744 11.7031 7.2744 9.4062 Q7.2744 7.1094 6.7354 6.3594 Q6.1963 5.6094 5.3994 5.6094 Q4.6182 5.6094 4.1338 6.2656 Q3.5557 7.125 3.5557 9.4062 Z"
    /></g
    ><g transform="translate(333.4,379.3333)" style="font-size:13.3333px; fill:rgb(38,38,38); text-rendering:geometricPrecision; color-rendering:optimizeQuality; image-rendering:optimizeQuality; stroke:rgb(38,38,38); color-interpolation:linearRGB;"
    ><path style="stroke:none;" d="M-9.5938 11.2031 L-9.5938 10.0625 L-6.0781 10.0625 L-6.0781 11.2031 L-9.5938 11.2031 ZM-0.7231 14 L-1.8637 14 L-1.8637 6.7188 Q-2.2856 7.1094 -2.9496 7.5078 Q-3.6137 7.9062 -4.145 8.0938 L-4.145 6.9844 Q-3.1918 6.5469 -2.4731 5.9062 Q-1.7543 5.2656 -1.4575 4.6562 L-0.7231 4.6562 L-0.7231 14 ZM2.5557 11.8438 L3.6494 11.75 Q3.7901 12.5156 4.1807 12.8672 Q4.5713 13.2188 5.1963 13.2188 Q5.7119 13.2188 6.1104 12.9766 Q6.5088 12.7344 6.7666 12.3359 Q7.0244 11.9375 7.1885 11.25 Q7.3526 10.5625 7.3526 9.8438 Q7.3526 9.7656 7.3526 9.625 Q7.0088 10.1719 6.4151 10.5078 Q5.8213 10.8438 5.1338 10.8438 Q3.9776 10.8438 3.1807 10.0078 Q2.3838 9.1719 2.3838 7.7969 Q2.3838 6.375 3.2119 5.5156 Q4.0401 4.6562 5.3057 4.6562 Q6.2119 4.6562 6.9619 5.1484 Q7.7119 5.6406 8.1026 6.5391 Q8.4932 7.4375 8.4932 9.1562 Q8.4932 10.9375 8.1104 11.9922 Q7.7276 13.0469 6.9619 13.6016 Q6.1963 14.1562 5.1651 14.1562 Q4.0713 14.1562 3.376 13.5547 Q2.6807 12.9531 2.5557 11.8438 ZM7.2276 7.7344 Q7.2276 6.75 6.7041 6.1797 Q6.1807 5.6094 5.4463 5.6094 Q4.6807 5.6094 4.1182 6.2266 Q3.5557 6.8438 3.5557 7.8438 Q3.5557 8.7188 4.0869 9.2734 Q4.6182 9.8281 5.4151 9.8281 Q6.2119 9.8281 6.7198 9.2734 Q7.2276 8.7188 7.2276 7.7344 Z"
    /></g
    ><g transform="translate(376.8,379.3333)" style="font-size:13.3333px; fill:rgb(38,38,38); text-rendering:geometricPrecision; color-rendering:optimizeQuality; image-rendering:optimizeQuality; stroke:rgb(38,38,38); color-interpolation:linearRGB;"
    ><path style="stroke:none;" d="M-9.5938 11.2031 L-9.5938 10.0625 L-6.0781 10.0625 L-6.0781 11.2031 L-9.5938 11.2031 ZM-0.7231 14 L-1.8637 14 L-1.8637 6.7188 Q-2.2856 7.1094 -2.9496 7.5078 Q-3.6137 7.9062 -4.145 8.0938 L-4.145 6.9844 Q-3.1918 6.5469 -2.4731 5.9062 Q-1.7543 5.2656 -1.4575 4.6562 L-0.7231 4.6562 L-0.7231 14 ZM4.1338 8.9531 Q3.4307 8.6875 3.0869 8.2109 Q2.7432 7.7344 2.7432 7.0625 Q2.7432 6.0469 3.4698 5.3516 Q4.1963 4.6562 5.4151 4.6562 Q6.6338 4.6562 7.376 5.3672 Q8.1182 6.0781 8.1182 7.0938 Q8.1182 7.7344 7.7744 8.2109 Q7.4307 8.6875 6.7432 8.9531 Q7.6026 9.2344 8.0479 9.8594 Q8.4932 10.4844 8.4932 11.3438 Q8.4932 12.5312 7.6494 13.3438 Q6.8057 14.1562 5.4307 14.1562 Q4.0557 14.1562 3.2119 13.3438 Q2.3682 12.5312 2.3682 11.3125 Q2.3682 10.4062 2.8291 9.7891 Q3.2901 9.1719 4.1338 8.9531 ZM3.8994 7.0156 Q3.8994 7.6719 4.3291 8.0938 Q4.7588 8.5156 5.4307 8.5156 Q6.1026 8.5156 6.5244 8.1016 Q6.9463 7.6875 6.9463 7.0781 Q6.9463 6.4531 6.5088 6.0234 Q6.0713 5.5938 5.4307 5.5938 Q4.7744 5.5938 4.3369 6.0156 Q3.8994 6.4375 3.8994 7.0156 ZM3.5401 11.3125 Q3.5401 11.7969 3.7744 12.2578 Q4.0088 12.7188 4.4619 12.9688 Q4.9151 13.2188 5.4463 13.2188 Q6.2588 13.2188 6.7901 12.6953 Q7.3213 12.1719 7.3213 11.3594 Q7.3213 10.5312 6.7744 9.9922 Q6.2276 9.4531 5.3994 9.4531 Q4.6026 9.4531 4.0713 9.9844 Q3.5401 10.5156 3.5401 11.3125 Z"
    /></g
    ><g transform="translate(420.2,379.3333)" style="font-size:13.3333px; fill:rgb(38,38,38); text-rendering:geometricPrecision; color-rendering:optimizeQuality; image-rendering:optimizeQuality; stroke:rgb(38,38,38); color-interpolation:linearRGB;"
    ><path style="stroke:none;" d="M-9.5938 11.2031 L-9.5938 10.0625 L-6.0781 10.0625 L-6.0781 11.2031 L-9.5938 11.2031 ZM-0.7231 14 L-1.8637 14 L-1.8637 6.7188 Q-2.2856 7.1094 -2.9496 7.5078 Q-3.6137 7.9062 -4.145 8.0938 L-4.145 6.9844 Q-3.1918 6.5469 -2.4731 5.9062 Q-1.7543 5.2656 -1.4575 4.6562 L-0.7231 4.6562 L-0.7231 14 ZM2.4463 5.9062 L2.4463 4.8125 L8.4776 4.8125 L8.4776 5.7031 Q7.5869 6.6562 6.7119 8.2188 Q5.8369 9.7812 5.3682 11.4375 Q5.0244 12.6094 4.9307 14 L3.7588 14 Q3.7744 12.9062 4.1885 11.3516 Q4.6026 9.7969 5.3682 8.3516 Q6.1338 6.9062 7.0088 5.9062 L2.4463 5.9062 Z"
    /></g
    ><g transform="translate(463.6,379.3333)" style="font-size:13.3333px; fill:rgb(38,38,38); text-rendering:geometricPrecision; color-rendering:optimizeQuality; image-rendering:optimizeQuality; stroke:rgb(38,38,38); color-interpolation:linearRGB;"
    ><path style="stroke:none;" d="M-9.5938 11.2031 L-9.5938 10.0625 L-6.0781 10.0625 L-6.0781 11.2031 L-9.5938 11.2031 ZM-0.7231 14 L-1.8637 14 L-1.8637 6.7188 Q-2.2856 7.1094 -2.9496 7.5078 Q-3.6137 7.9062 -4.145 8.0938 L-4.145 6.9844 Q-3.1918 6.5469 -2.4731 5.9062 Q-1.7543 5.2656 -1.4575 4.6562 L-0.7231 4.6562 L-0.7231 14 ZM8.3057 6.9688 L7.1651 7.0625 Q7.0244 6.3906 6.7432 6.0781 Q6.2744 5.5938 5.6026 5.5938 Q5.0557 5.5938 4.6338 5.9062 Q4.1026 6.2969 3.7901 7.0469 Q3.4776 7.7969 3.4619 9.2031 Q3.8682 8.5781 4.4698 8.2734 Q5.0713 7.9688 5.7276 7.9688 Q6.8682 7.9688 7.6729 8.8047 Q8.4776 9.6406 8.4776 10.9844 Q8.4776 11.8594 8.0948 12.6094 Q7.7119 13.3594 7.0557 13.7578 Q6.3994 14.1562 5.5557 14.1562 Q4.1338 14.1562 3.2276 13.1094 Q2.3213 12.0625 2.3213 9.6406 Q2.3213 6.9531 3.3213 5.7188 Q4.1963 4.6562 5.6651 4.6562 Q6.7588 4.6562 7.4619 5.2734 Q8.1651 5.8906 8.3057 6.9688 ZM3.6338 10.9844 Q3.6338 11.5781 3.8838 12.1172 Q4.1338 12.6562 4.5869 12.9375 Q5.0401 13.2188 5.5401 13.2188 Q6.2588 13.2188 6.7823 12.6328 Q7.3057 12.0469 7.3057 11.0469 Q7.3057 10.0781 6.7901 9.5234 Q6.2744 8.9688 5.4932 8.9688 Q4.7119 8.9688 4.1729 9.5234 Q3.6338 10.0781 3.6338 10.9844 Z"
    /></g
    ><g transform="translate(507,379.3333)" style="font-size:13.3333px; fill:rgb(38,38,38); text-rendering:geometricPrecision; color-rendering:optimizeQuality; image-rendering:optimizeQuality; stroke:rgb(38,38,38); color-interpolation:linearRGB;"
    ><path style="stroke:none;" d="M-9.5938 11.2031 L-9.5938 10.0625 L-6.0781 10.0625 L-6.0781 11.2031 L-9.5938 11.2031 ZM-0.7231 14 L-1.8637 14 L-1.8637 6.7188 Q-2.2856 7.1094 -2.9496 7.5078 Q-3.6137 7.9062 -4.145 8.0938 L-4.145 6.9844 Q-3.1918 6.5469 -2.4731 5.9062 Q-1.7543 5.2656 -1.4575 4.6562 L-0.7231 4.6562 L-0.7231 14 ZM2.3838 11.5625 L3.5713 11.4531 Q3.7119 12.3438 4.1963 12.7812 Q4.6807 13.2188 5.3682 13.2188 Q6.1963 13.2188 6.7666 12.5938 Q7.3369 11.9688 7.3369 10.9531 Q7.3369 9.9688 6.7901 9.4062 Q6.2432 8.8438 5.3526 8.8438 Q4.7901 8.8438 4.3448 9.0938 Q3.8994 9.3438 3.6494 9.7344 L2.5869 9.5938 L3.4776 4.8281 L8.1026 4.8281 L8.1026 5.9062 L4.3994 5.9062 L3.8994 8.4062 Q4.7276 7.8281 5.6494 7.8281 Q6.8682 7.8281 7.7041 8.6719 Q8.5401 9.5156 8.5401 10.8438 Q8.5401 12.1094 7.8057 13.0312 Q6.9151 14.1562 5.3682 14.1562 Q4.1026 14.1562 3.2979 13.4453 Q2.4932 12.7344 2.3838 11.5625 Z"
    /></g
    ><g transform="translate(265,413)" style="font-size:14.6667px; fill:rgb(38,38,38); text-rendering:geometricPrecision; color-rendering:optimizeQuality; image-rendering:optimizeQuality; stroke:rgb(38,38,38); color-interpolation:linearRGB;"
    ><path style="stroke:none;" d="M3.8906 0 L3.8906 -9.4688 L0.3594 -9.4688 L0.3594 -10.7344 L8.8594 -10.7344 L8.8594 -9.4688 L5.3125 -9.4688 L5.3125 0 L3.8906 0 ZM9.9526 -9.2188 L9.9526 -10.7344 L11.2651 -10.7344 L11.2651 -9.2188 L9.9526 -9.2188 ZM9.9526 0 L9.9526 -7.7812 L11.2651 -7.7812 L11.2651 0 L9.9526 0 ZM13.1931 0 L13.1931 -7.7812 L14.3806 -7.7812 L14.3806 -6.6875 Q14.74 -7.2656 15.3494 -7.6094 Q15.9588 -7.9531 16.74 -7.9531 Q17.5994 -7.9531 18.1541 -7.5938 Q18.7088 -7.2344 18.9275 -6.5938 Q19.8494 -7.9531 21.3338 -7.9531 Q22.49 -7.9531 23.115 -7.3125 Q23.74 -6.6719 23.74 -5.3438 L23.74 0 L22.4275 0 L22.4275 -4.9062 Q22.4275 -5.6875 22.3025 -6.0391 Q22.1775 -6.3906 21.8338 -6.6016 Q21.49 -6.8125 21.0369 -6.8125 Q20.2244 -6.8125 19.6775 -6.2656 Q19.1306 -5.7188 19.1306 -4.5156 L19.1306 0 L17.8181 0 L17.8181 -5.0469 Q17.8181 -5.9375 17.4978 -6.375 Q17.1775 -6.8125 16.4431 -6.8125 Q15.8806 -6.8125 15.4119 -6.5156 Q14.9431 -6.2188 14.7322 -5.6562 Q14.5213 -5.0938 14.5213 -4.0312 L14.5213 0 L13.1931 0 ZM30.73 -2.5 L32.0894 -2.3438 Q31.7769 -1.1406 30.9019 -0.4844 Q30.0269 0.1719 28.6675 0.1719 Q26.9644 0.1719 25.9644 -0.875 Q24.9644 -1.9219 24.9644 -3.8281 Q24.9644 -5.7812 25.98 -6.8672 Q26.9957 -7.9531 28.605 -7.9531 Q30.1675 -7.9531 31.1519 -6.8906 Q32.1363 -5.8281 32.1363 -3.9062 Q32.1363 -3.7812 32.1363 -3.5469 L26.3238 -3.5469 Q26.4019 -2.2656 27.0504 -1.5859 Q27.6988 -0.9062 28.6832 -0.9062 Q29.4019 -0.9062 29.9175 -1.2891 Q30.4332 -1.6719 30.73 -2.5 ZM26.4019 -4.6406 L30.7457 -4.6406 Q30.6519 -5.625 30.2457 -6.1094 Q29.6207 -6.875 28.6207 -6.875 Q27.6988 -6.875 27.0816 -6.2656 Q26.4644 -5.6562 26.4019 -4.6406 ZM37.1094 -3.2188 L37.1094 -4.5469 L41.1719 -4.5469 L41.1719 -3.2188 L37.1094 -3.2188 Z"
    /></g
    ><g transform="translate(307,413)" style="font-size:14.6667px; fill:rgb(38,38,38); text-rendering:geometricPrecision; image-rendering:optimizeQuality; color-rendering:optimizeQuality; font-family:'mwb_cmmi10'; stroke:rgb(38,38,38); color-interpolation:linearRGB;"
    ><path style="stroke:none;" d="M2.3438 -0.2344 Q2.3438 -0.3281 2.3594 -0.3906 L3.9375 -5.5312 L2.5781 -5.5312 Q2.0312 -5.5312 1.5547 -5.1875 Q1.0781 -4.8438 0.7656 -4.3281 Q0.7344 -4.2656 0.6719 -4.2656 L0.5 -4.2656 Q0.3594 -4.2656 0.3594 -4.4062 Q0.3594 -4.4375 0.3906 -4.5 Q0.875 -5.3281 1.4375 -5.8984 Q2 -6.4688 2.7031 -6.4688 L7.2969 -6.4688 Q7.4688 -6.4688 7.5781 -6.3594 Q7.6875 -6.25 7.6875 -6.0938 Q7.6875 -5.8594 7.5312 -5.6953 Q7.375 -5.5312 7.1406 -5.5312 L4.4219 -5.5312 L3.4219 -0.3594 Q3.3594 -0.125 3.2031 0.0391 Q3.0469 0.2031 2.7969 0.2031 Q2.5938 0.2031 2.4688 0.0781 Q2.3438 -0.0469 2.3438 -0.2344 Z"
    /></g
    ><g style="fill:rgb(38,38,38); text-rendering:geometricPrecision; image-rendering:optimizeQuality; color-rendering:optimizeQuality; stroke-linejoin:round; stroke:rgb(38,38,38); color-interpolation:linearRGB; stroke-width:0.6667;"
    ><line y2="31" style="fill:none;" x1="73" x2="73" y1="374"
      /><line y2="31" style="fill:none;" x1="507" x2="507" y1="374"
      /><line y2="374" style="fill:none;" x1="73" x2="77.34" y1="374"
      /><line y2="316.8333" style="fill:none;" x1="73" x2="77.34" y1="316.8333"
      /><line y2="259.6667" style="fill:none;" x1="73" x2="77.34" y1="259.6667"
      /><line y2="202.5" style="fill:none;" x1="73" x2="77.34" y1="202.5"
      /><line y2="145.3333" style="fill:none;" x1="73" x2="77.34" y1="145.3333"
      /><line y2="88.1667" style="fill:none;" x1="73" x2="77.34" y1="88.1667"
      /><line y2="31" style="fill:none;" x1="73" x2="77.34" y1="31"
      /><line y2="374" style="fill:none;" x1="507" x2="502.66" y1="374"
      /><line y2="316.8333" style="fill:none;" x1="507" x2="502.66" y1="316.8333"
      /><line y2="259.6667" style="fill:none;" x1="507" x2="502.66" y1="259.6667"
      /><line y2="202.5" style="fill:none;" x1="507" x2="502.66" y1="202.5"
      /><line y2="145.3333" style="fill:none;" x1="507" x2="502.66" y1="145.3333"
      /><line y2="88.1667" style="fill:none;" x1="507" x2="502.66" y1="88.1667"
      /><line y2="31" style="fill:none;" x1="507" x2="502.66" y1="31"
    /></g
    ><g transform="translate(67.6666,374)" style="font-size:13.3333px; fill:rgb(38,38,38); text-rendering:geometricPrecision; color-rendering:optimizeQuality; image-rendering:optimizeQuality; stroke:rgb(38,38,38); color-interpolation:linearRGB;"
    ><path style="stroke:none;" d="M-26.5938 2.7031 L-26.5938 1.5625 L-23.0781 1.5625 L-23.0781 2.7031 L-26.5938 2.7031 ZM-22.02 3.0625 L-20.8325 2.9531 Q-20.6918 3.8438 -20.2075 4.2812 Q-19.7231 4.7188 -19.0356 4.7188 Q-18.2075 4.7188 -17.6371 4.0938 Q-17.0668 3.4688 -17.0668 2.4531 Q-17.0668 1.4688 -17.6137 0.9062 Q-18.1606 0.3438 -19.0512 0.3438 Q-19.6137 0.3438 -20.059 0.5938 Q-20.5043 0.8438 -20.7543 1.2344 L-21.8168 1.0938 L-20.9262 -3.6719 L-16.3012 -3.6719 L-16.3012 -2.5938 L-20.0043 -2.5938 L-20.5043 -0.0938 Q-19.6762 -0.6719 -18.7543 -0.6719 Q-17.5356 -0.6719 -16.6996 0.1719 Q-15.8637 1.0156 -15.8637 2.3438 Q-15.8637 3.6094 -16.5981 4.5312 Q-17.4887 5.6562 -19.0356 5.6562 Q-20.3012 5.6562 -21.1059 4.9453 Q-21.9106 4.2344 -22.02 3.0625 ZM-14.6162 0.9062 Q-14.6162 -0.7344 -14.2802 -1.7422 Q-13.9443 -2.75 -13.2724 -3.2969 Q-12.6006 -3.8438 -11.5849 -3.8438 Q-10.8349 -3.8438 -10.2724 -3.5391 Q-9.7099 -3.2344 -9.3427 -2.6719 Q-8.9756 -2.1094 -8.7646 -1.2891 Q-8.5537 -0.4688 -8.5537 0.9062 Q-8.5537 2.5469 -8.8896 3.5547 Q-9.2256 4.5625 -9.8974 5.1094 Q-10.5693 5.6562 -11.5849 5.6562 Q-12.9287 5.6562 -13.7099 4.6875 Q-14.6162 3.5312 -14.6162 0.9062 ZM-13.4443 0.9062 Q-13.4443 3.2031 -12.9131 3.9609 Q-12.3818 4.7188 -11.5849 4.7188 Q-10.8037 4.7188 -10.2646 3.9609 Q-9.7256 3.2031 -9.7256 0.9062 Q-9.7256 -1.3906 -10.2646 -2.1406 Q-10.8037 -2.8906 -11.6006 -2.8906 Q-12.3818 -2.8906 -12.8662 -2.2344 Q-13.4443 -1.375 -13.4443 0.9062 ZM-7.2124 0.9062 Q-7.2124 -0.7344 -6.8765 -1.7422 Q-6.5405 -2.75 -5.8687 -3.2969 Q-5.1968 -3.8438 -4.1812 -3.8438 Q-3.4312 -3.8438 -2.8687 -3.5391 Q-2.3062 -3.2344 -1.939 -2.6719 Q-1.5718 -2.1094 -1.3608 -1.2891 Q-1.1499 -0.4688 -1.1499 0.9062 Q-1.1499 2.5469 -1.4858 3.5547 Q-1.8218 4.5625 -2.4937 5.1094 Q-3.1655 5.6562 -4.1812 5.6562 Q-5.5249 5.6562 -6.3062 4.6875 Q-7.2124 3.5312 -7.2124 0.9062 ZM-6.0405 0.9062 Q-6.0405 3.2031 -5.5093 3.9609 Q-4.978 4.7188 -4.1812 4.7188 Q-3.3999 4.7188 -2.8608 3.9609 Q-2.3218 3.2031 -2.3218 0.9062 Q-2.3218 -1.3906 -2.8608 -2.1406 Q-3.3999 -2.8906 -4.1968 -2.8906 Q-4.978 -2.8906 -5.4624 -2.2344 Q-6.0405 -1.375 -6.0405 0.9062 Z"
    /></g
    ><g transform="translate(67.6666,316.8333)" style="font-size:13.3333px; fill:rgb(38,38,38); text-rendering:geometricPrecision; color-rendering:optimizeQuality; image-rendering:optimizeQuality; stroke:rgb(38,38,38); color-interpolation:linearRGB;"
    ><path style="stroke:none;" d="M-26.5938 2.7031 L-26.5938 1.5625 L-23.0781 1.5625 L-23.0781 2.7031 L-26.5938 2.7031 ZM-18.3637 5.5 L-18.3637 3.2656 L-22.395 3.2656 L-22.395 2.2188 L-18.1606 -3.8125 L-17.2231 -3.8125 L-17.2231 2.2188 L-15.9575 2.2188 L-15.9575 3.2656 L-17.2231 3.2656 L-17.2231 5.5 L-18.3637 5.5 ZM-18.3637 2.2188 L-18.3637 -1.9688 L-21.2856 2.2188 L-18.3637 2.2188 ZM-14.6162 0.9062 Q-14.6162 -0.7344 -14.2802 -1.7422 Q-13.9443 -2.75 -13.2724 -3.2969 Q-12.6006 -3.8438 -11.5849 -3.8438 Q-10.8349 -3.8438 -10.2724 -3.5391 Q-9.7099 -3.2344 -9.3427 -2.6719 Q-8.9756 -2.1094 -8.7646 -1.2891 Q-8.5537 -0.4688 -8.5537 0.9062 Q-8.5537 2.5469 -8.8896 3.5547 Q-9.2256 4.5625 -9.8974 5.1094 Q-10.5693 5.6562 -11.5849 5.6562 Q-12.9287 5.6562 -13.7099 4.6875 Q-14.6162 3.5312 -14.6162 0.9062 ZM-13.4443 0.9062 Q-13.4443 3.2031 -12.9131 3.9609 Q-12.3818 4.7188 -11.5849 4.7188 Q-10.8037 4.7188 -10.2646 3.9609 Q-9.7256 3.2031 -9.7256 0.9062 Q-9.7256 -1.3906 -10.2646 -2.1406 Q-10.8037 -2.8906 -11.6006 -2.8906 Q-12.3818 -2.8906 -12.8662 -2.2344 Q-13.4443 -1.375 -13.4443 0.9062 ZM-7.2124 0.9062 Q-7.2124 -0.7344 -6.8765 -1.7422 Q-6.5405 -2.75 -5.8687 -3.2969 Q-5.1968 -3.8438 -4.1812 -3.8438 Q-3.4312 -3.8438 -2.8687 -3.5391 Q-2.3062 -3.2344 -1.939 -2.6719 Q-1.5718 -2.1094 -1.3608 -1.2891 Q-1.1499 -0.4688 -1.1499 0.9062 Q-1.1499 2.5469 -1.4858 3.5547 Q-1.8218 4.5625 -2.4937 5.1094 Q-3.1655 5.6562 -4.1812 5.6562 Q-5.5249 5.6562 -6.3062 4.6875 Q-7.2124 3.5312 -7.2124 0.9062 ZM-6.0405 0.9062 Q-6.0405 3.2031 -5.5093 3.9609 Q-4.978 4.7188 -4.1812 4.7188 Q-3.3999 4.7188 -2.8608 3.9609 Q-2.3218 3.2031 -2.3218 0.9062 Q-2.3218 -1.3906 -2.8608 -2.1406 Q-3.3999 -2.8906 -4.1968 -2.8906 Q-4.978 -2.8906 -5.4624 -2.2344 Q-6.0405 -1.375 -6.0405 0.9062 Z"
    /></g
    ><g transform="translate(67.6666,259.6667)" style="font-size:13.3333px; fill:rgb(38,38,38); text-rendering:geometricPrecision; color-rendering:optimizeQuality; image-rendering:optimizeQuality; stroke:rgb(38,38,38); color-interpolation:linearRGB;"
    ><path style="stroke:none;" d="M-26.5938 2.7031 L-26.5938 1.5625 L-23.0781 1.5625 L-23.0781 2.7031 L-26.5938 2.7031 ZM-22.02 3.0469 L-20.8793 2.8906 Q-20.6762 3.8594 -20.2075 4.2891 Q-19.7387 4.7188 -19.0512 4.7188 Q-18.2543 4.7188 -17.6996 4.1641 Q-17.145 3.6094 -17.145 2.7812 Q-17.145 1.9844 -17.6528 1.4766 Q-18.1606 0.9688 -18.9575 0.9688 Q-19.2856 0.9688 -19.77 1.0938 L-19.645 0.0938 Q-19.52 0.1094 -19.4575 0.1094 Q-18.7231 0.1094 -18.1371 -0.2734 Q-17.5512 -0.6562 -17.5512 -1.4531 Q-17.5512 -2.0781 -17.9809 -2.4922 Q-18.4106 -2.9062 -19.0825 -2.9062 Q-19.7543 -2.9062 -20.1918 -2.4844 Q-20.6293 -2.0625 -20.77 -1.2344 L-21.9106 -1.4375 Q-21.6918 -2.5781 -20.9496 -3.2109 Q-20.2075 -3.8438 -19.1137 -3.8438 Q-18.3481 -3.8438 -17.7075 -3.5156 Q-17.0668 -3.1875 -16.7231 -2.625 Q-16.3793 -2.0625 -16.3793 -1.4219 Q-16.3793 -0.8281 -16.7075 -0.3281 Q-17.0356 0.1719 -17.6606 0.4531 Q-16.8481 0.6562 -16.3871 1.25 Q-15.9262 1.8438 -15.9262 2.75 Q-15.9262 3.9688 -16.8168 4.8203 Q-17.7075 5.6719 -19.0668 5.6719 Q-20.2856 5.6719 -21.0981 4.9375 Q-21.9106 4.2031 -22.02 3.0469 ZM-14.6162 0.9062 Q-14.6162 -0.7344 -14.2802 -1.7422 Q-13.9443 -2.75 -13.2724 -3.2969 Q-12.6006 -3.8438 -11.5849 -3.8438 Q-10.8349 -3.8438 -10.2724 -3.5391 Q-9.7099 -3.2344 -9.3427 -2.6719 Q-8.9756 -2.1094 -8.7646 -1.2891 Q-8.5537 -0.4688 -8.5537 0.9062 Q-8.5537 2.5469 -8.8896 3.5547 Q-9.2256 4.5625 -9.8974 5.1094 Q-10.5693 5.6562 -11.5849 5.6562 Q-12.9287 5.6562 -13.7099 4.6875 Q-14.6162 3.5312 -14.6162 0.9062 ZM-13.4443 0.9062 Q-13.4443 3.2031 -12.9131 3.9609 Q-12.3818 4.7188 -11.5849 4.7188 Q-10.8037 4.7188 -10.2646 3.9609 Q-9.7256 3.2031 -9.7256 0.9062 Q-9.7256 -1.3906 -10.2646 -2.1406 Q-10.8037 -2.8906 -11.6006 -2.8906 Q-12.3818 -2.8906 -12.8662 -2.2344 Q-13.4443 -1.375 -13.4443 0.9062 ZM-7.2124 0.9062 Q-7.2124 -0.7344 -6.8765 -1.7422 Q-6.5405 -2.75 -5.8687 -3.2969 Q-5.1968 -3.8438 -4.1812 -3.8438 Q-3.4312 -3.8438 -2.8687 -3.5391 Q-2.3062 -3.2344 -1.939 -2.6719 Q-1.5718 -2.1094 -1.3608 -1.2891 Q-1.1499 -0.4688 -1.1499 0.9062 Q-1.1499 2.5469 -1.4858 3.5547 Q-1.8218 4.5625 -2.4937 5.1094 Q-3.1655 5.6562 -4.1812 5.6562 Q-5.5249 5.6562 -6.3062 4.6875 Q-7.2124 3.5312 -7.2124 0.9062 ZM-6.0405 0.9062 Q-6.0405 3.2031 -5.5093 3.9609 Q-4.978 4.7188 -4.1812 4.7188 Q-3.3999 4.7188 -2.8608 3.9609 Q-2.3218 3.2031 -2.3218 0.9062 Q-2.3218 -1.3906 -2.8608 -2.1406 Q-3.3999 -2.8906 -4.1968 -2.8906 Q-4.978 -2.8906 -5.4624 -2.2344 Q-6.0405 -1.375 -6.0405 0.9062 Z"
    /></g
    ><g transform="translate(67.6666,202.5)" style="font-size:13.3333px; fill:rgb(38,38,38); text-rendering:geometricPrecision; color-rendering:optimizeQuality; image-rendering:optimizeQuality; stroke:rgb(38,38,38); color-interpolation:linearRGB;"
    ><path style="stroke:none;" d="M-26.5938 2.7031 L-26.5938 1.5625 L-23.0781 1.5625 L-23.0781 2.7031 L-26.5938 2.7031 ZM-16.02 4.4062 L-16.02 5.5 L-22.1762 5.5 Q-22.1918 5.0938 -22.0356 4.7031 Q-21.8012 4.0781 -21.2856 3.4688 Q-20.77 2.8594 -19.7856 2.0625 Q-18.27 0.8125 -17.7387 0.0859 Q-17.2075 -0.6406 -17.2075 -1.2812 Q-17.2075 -1.9688 -17.6918 -2.4297 Q-18.1762 -2.8906 -18.9575 -2.8906 Q-19.7856 -2.8906 -20.2778 -2.3984 Q-20.77 -1.9062 -20.7856 -1.0312 L-21.9575 -1.1562 Q-21.8325 -2.4688 -21.0512 -3.1562 Q-20.27 -3.8438 -18.9418 -3.8438 Q-17.5981 -3.8438 -16.8168 -3.1016 Q-16.0356 -2.3594 -16.0356 -1.2656 Q-16.0356 -0.7031 -16.2621 -0.1641 Q-16.4887 0.375 -17.02 0.9766 Q-17.5512 1.5781 -18.7856 2.6094 Q-19.8168 3.4688 -20.1059 3.7812 Q-20.395 4.0938 -20.5825 4.4062 L-16.02 4.4062 ZM-14.6162 0.9062 Q-14.6162 -0.7344 -14.2802 -1.7422 Q-13.9443 -2.75 -13.2724 -3.2969 Q-12.6006 -3.8438 -11.5849 -3.8438 Q-10.8349 -3.8438 -10.2724 -3.5391 Q-9.7099 -3.2344 -9.3427 -2.6719 Q-8.9756 -2.1094 -8.7646 -1.2891 Q-8.5537 -0.4688 -8.5537 0.9062 Q-8.5537 2.5469 -8.8896 3.5547 Q-9.2256 4.5625 -9.8974 5.1094 Q-10.5693 5.6562 -11.5849 5.6562 Q-12.9287 5.6562 -13.7099 4.6875 Q-14.6162 3.5312 -14.6162 0.9062 ZM-13.4443 0.9062 Q-13.4443 3.2031 -12.9131 3.9609 Q-12.3818 4.7188 -11.5849 4.7188 Q-10.8037 4.7188 -10.2646 3.9609 Q-9.7256 3.2031 -9.7256 0.9062 Q-9.7256 -1.3906 -10.2646 -2.1406 Q-10.8037 -2.8906 -11.6006 -2.8906 Q-12.3818 -2.8906 -12.8662 -2.2344 Q-13.4443 -1.375 -13.4443 0.9062 ZM-7.2124 0.9062 Q-7.2124 -0.7344 -6.8765 -1.7422 Q-6.5405 -2.75 -5.8687 -3.2969 Q-5.1968 -3.8438 -4.1812 -3.8438 Q-3.4312 -3.8438 -2.8687 -3.5391 Q-2.3062 -3.2344 -1.939 -2.6719 Q-1.5718 -2.1094 -1.3608 -1.2891 Q-1.1499 -0.4688 -1.1499 0.9062 Q-1.1499 2.5469 -1.4858 3.5547 Q-1.8218 4.5625 -2.4937 5.1094 Q-3.1655 5.6562 -4.1812 5.6562 Q-5.5249 5.6562 -6.3062 4.6875 Q-7.2124 3.5312 -7.2124 0.9062 ZM-6.0405 0.9062 Q-6.0405 3.2031 -5.5093 3.9609 Q-4.978 4.7188 -4.1812 4.7188 Q-3.3999 4.7188 -2.8608 3.9609 Q-2.3218 3.2031 -2.3218 0.9062 Q-2.3218 -1.3906 -2.8608 -2.1406 Q-3.3999 -2.8906 -4.1968 -2.8906 Q-4.978 -2.8906 -5.4624 -2.2344 Q-6.0405 -1.375 -6.0405 0.9062 Z"
    /></g
    ><g transform="translate(67.6666,145.3333)" style="font-size:13.3333px; fill:rgb(38,38,38); text-rendering:geometricPrecision; color-rendering:optimizeQuality; image-rendering:optimizeQuality; stroke:rgb(38,38,38); color-interpolation:linearRGB;"
    ><path style="stroke:none;" d="M-26.5938 2.7031 L-26.5938 1.5625 L-23.0781 1.5625 L-23.0781 2.7031 L-26.5938 2.7031 ZM-17.7231 5.5 L-18.8637 5.5 L-18.8637 -1.7812 Q-19.2856 -1.3906 -19.9496 -0.9922 Q-20.6137 -0.5938 -21.145 -0.4062 L-21.145 -1.5156 Q-20.1918 -1.9531 -19.4731 -2.5938 Q-18.7543 -3.2344 -18.4575 -3.8438 L-17.7231 -3.8438 L-17.7231 5.5 ZM-14.6162 0.9062 Q-14.6162 -0.7344 -14.2802 -1.7422 Q-13.9443 -2.75 -13.2724 -3.2969 Q-12.6006 -3.8438 -11.5849 -3.8438 Q-10.8349 -3.8438 -10.2724 -3.5391 Q-9.7099 -3.2344 -9.3427 -2.6719 Q-8.9756 -2.1094 -8.7646 -1.2891 Q-8.5537 -0.4688 -8.5537 0.9062 Q-8.5537 2.5469 -8.8896 3.5547 Q-9.2256 4.5625 -9.8974 5.1094 Q-10.5693 5.6562 -11.5849 5.6562 Q-12.9287 5.6562 -13.7099 4.6875 Q-14.6162 3.5312 -14.6162 0.9062 ZM-13.4443 0.9062 Q-13.4443 3.2031 -12.9131 3.9609 Q-12.3818 4.7188 -11.5849 4.7188 Q-10.8037 4.7188 -10.2646 3.9609 Q-9.7256 3.2031 -9.7256 0.9062 Q-9.7256 -1.3906 -10.2646 -2.1406 Q-10.8037 -2.8906 -11.6006 -2.8906 Q-12.3818 -2.8906 -12.8662 -2.2344 Q-13.4443 -1.375 -13.4443 0.9062 ZM-7.2124 0.9062 Q-7.2124 -0.7344 -6.8765 -1.7422 Q-6.5405 -2.75 -5.8687 -3.2969 Q-5.1968 -3.8438 -4.1812 -3.8438 Q-3.4312 -3.8438 -2.8687 -3.5391 Q-2.3062 -3.2344 -1.939 -2.6719 Q-1.5718 -2.1094 -1.3608 -1.2891 Q-1.1499 -0.4688 -1.1499 0.9062 Q-1.1499 2.5469 -1.4858 3.5547 Q-1.8218 4.5625 -2.4937 5.1094 Q-3.1655 5.6562 -4.1812 5.6562 Q-5.5249 5.6562 -6.3062 4.6875 Q-7.2124 3.5312 -7.2124 0.9062 ZM-6.0405 0.9062 Q-6.0405 3.2031 -5.5093 3.9609 Q-4.978 4.7188 -4.1812 4.7188 Q-3.3999 4.7188 -2.8608 3.9609 Q-2.3218 3.2031 -2.3218 0.9062 Q-2.3218 -1.3906 -2.8608 -2.1406 Q-3.3999 -2.8906 -4.1968 -2.8906 Q-4.978 -2.8906 -5.4624 -2.2344 Q-6.0405 -1.375 -6.0405 0.9062 Z"
    /></g
    ><g transform="translate(67.6666,88.1667)" style="font-size:13.3333px; fill:rgb(38,38,38); text-rendering:geometricPrecision; color-rendering:optimizeQuality; image-rendering:optimizeQuality; stroke:rgb(38,38,38); color-interpolation:linearRGB;"
    ><path style="stroke:none;" d="M-7.4531 0.9062 Q-7.4531 -0.7344 -7.1172 -1.7422 Q-6.7812 -2.75 -6.1094 -3.2969 Q-5.4375 -3.8438 -4.4219 -3.8438 Q-3.6719 -3.8438 -3.1094 -3.5391 Q-2.5469 -3.2344 -2.1797 -2.6719 Q-1.8125 -2.1094 -1.6016 -1.2891 Q-1.3906 -0.4688 -1.3906 0.9062 Q-1.3906 2.5469 -1.7266 3.5547 Q-2.0625 4.5625 -2.7344 5.1094 Q-3.4062 5.6562 -4.4219 5.6562 Q-5.7656 5.6562 -6.5469 4.6875 Q-7.4531 3.5312 -7.4531 0.9062 ZM-6.2812 0.9062 Q-6.2812 3.2031 -5.75 3.9609 Q-5.2188 4.7188 -4.4219 4.7188 Q-3.6406 4.7188 -3.1016 3.9609 Q-2.5625 3.2031 -2.5625 0.9062 Q-2.5625 -1.3906 -3.1016 -2.1406 Q-3.6406 -2.8906 -4.4375 -2.8906 Q-5.2188 -2.8906 -5.7031 -2.2344 Q-6.2812 -1.375 -6.2812 0.9062 Z"
    /></g
    ><g transform="translate(67.6666,31)" style="font-size:13.3333px; fill:rgb(38,38,38); text-rendering:geometricPrecision; color-rendering:optimizeQuality; image-rendering:optimizeQuality; stroke:rgb(38,38,38); color-interpolation:linearRGB;"
    ><path style="stroke:none;" d="M-18.1562 5.5 L-19.2969 5.5 L-19.2969 -1.7812 Q-19.7188 -1.3906 -20.3828 -0.9922 Q-21.0469 -0.5938 -21.5781 -0.4062 L-21.5781 -1.5156 Q-20.625 -1.9531 -19.9062 -2.5938 Q-19.1875 -3.2344 -18.8906 -3.8438 L-18.1562 -3.8438 L-18.1562 5.5 ZM-15.0493 0.9062 Q-15.0493 -0.7344 -14.7134 -1.7422 Q-14.3775 -2.75 -13.7056 -3.2969 Q-13.0337 -3.8438 -12.0181 -3.8438 Q-11.2681 -3.8438 -10.7056 -3.5391 Q-10.1431 -3.2344 -9.7759 -2.6719 Q-9.4087 -2.1094 -9.1978 -1.2891 Q-8.9868 -0.4688 -8.9868 0.9062 Q-8.9868 2.5469 -9.3228 3.5547 Q-9.6587 4.5625 -10.3306 5.1094 Q-11.0025 5.6562 -12.0181 5.6562 Q-13.3618 5.6562 -14.1431 4.6875 Q-15.0493 3.5312 -15.0493 0.9062 ZM-13.8775 0.9062 Q-13.8775 3.2031 -13.3462 3.9609 Q-12.815 4.7188 -12.0181 4.7188 Q-11.2368 4.7188 -10.6978 3.9609 Q-10.1587 3.2031 -10.1587 0.9062 Q-10.1587 -1.3906 -10.6978 -2.1406 Q-11.2368 -2.8906 -12.0337 -2.8906 Q-12.815 -2.8906 -13.2993 -2.2344 Q-13.8775 -1.375 -13.8775 0.9062 ZM-7.6456 0.9062 Q-7.6456 -0.7344 -7.3096 -1.7422 Q-6.9737 -2.75 -6.3018 -3.2969 Q-5.6299 -3.8438 -4.6143 -3.8438 Q-3.8643 -3.8438 -3.3018 -3.5391 Q-2.7393 -3.2344 -2.3721 -2.6719 Q-2.0049 -2.1094 -1.794 -1.2891 Q-1.5831 -0.4688 -1.5831 0.9062 Q-1.5831 2.5469 -1.919 3.5547 Q-2.2549 4.5625 -2.9268 5.1094 Q-3.5987 5.6562 -4.6143 5.6562 Q-5.9581 5.6562 -6.7393 4.6875 Q-7.6456 3.5312 -7.6456 0.9062 ZM-6.4737 0.9062 Q-6.4737 3.2031 -5.9424 3.9609 Q-5.4112 4.7188 -4.6143 4.7188 Q-3.8331 4.7188 -3.294 3.9609 Q-2.7549 3.2031 -2.7549 0.9062 Q-2.7549 -1.3906 -3.294 -2.1406 Q-3.8331 -2.8906 -4.6299 -2.8906 Q-5.4112 -2.8906 -5.8956 -2.2344 Q-6.4737 -1.375 -6.4737 0.9062 Z"
    /></g
    ><g transform="translate(36.6667,202.4998) rotate(-90)" style="font-size:14.6667px; fill:rgb(38,38,38); text-rendering:geometricPrecision; color-rendering:optimizeQuality; image-rendering:optimizeQuality; stroke:rgb(38,38,38); color-interpolation:linearRGB;"
    ><path style="stroke:none;" d="M-139.0156 -4 L-139.0156 -14.7344 L-137.6875 -14.7344 L-137.6875 -10.8906 Q-136.7656 -11.9531 -135.3594 -11.9531 Q-134.5 -11.9531 -133.8594 -11.6094 Q-133.2188 -11.2656 -132.9453 -10.6719 Q-132.6719 -10.0781 -132.6719 -8.9219 L-132.6719 -4 L-134 -4 L-134 -8.9219 Q-134 -9.9219 -134.4219 -10.3672 Q-134.8438 -10.8125 -135.6406 -10.8125 Q-136.2188 -10.8125 -136.7344 -10.5156 Q-137.25 -10.2188 -137.4688 -9.6953 Q-137.6875 -9.1719 -137.6875 -8.25 L-137.6875 -4 L-139.0156 -4 ZM-124.2613 -0.8438 Q-125.355 -2.2188 -126.1129 -4.0625 Q-126.8707 -5.9062 -126.8707 -7.8906 Q-126.8707 -9.625 -126.3082 -11.2344 Q-125.6519 -13.0781 -124.2613 -14.9219 L-123.3238 -14.9219 Q-124.2144 -13.3906 -124.4957 -12.75 Q-124.9488 -11.7344 -125.1988 -10.6406 Q-125.5113 -9.2656 -125.5113 -7.875 Q-125.5113 -4.3594 -123.3238 -0.8438 L-124.2613 -0.8438 ZM-121.7244 -4 L-121.7244 -14.7344 L-116.9588 -14.7344 Q-115.5213 -14.7344 -114.7713 -14.4453 Q-114.0213 -14.1562 -113.576 -13.4219 Q-113.1306 -12.6875 -113.1306 -11.8125 Q-113.1306 -10.6719 -113.8728 -9.8828 Q-114.615 -9.0938 -116.1619 -8.8906 Q-115.5994 -8.6094 -115.3025 -8.3438 Q-114.6775 -7.7812 -114.115 -6.9219 L-112.2556 -4 L-114.0369 -4 L-115.4588 -6.2344 Q-116.0838 -7.2031 -116.49 -7.7109 Q-116.8963 -8.2188 -117.2088 -8.4297 Q-117.5213 -8.6406 -117.8494 -8.7188 Q-118.0994 -8.7656 -118.6463 -8.7656 L-120.3025 -8.7656 L-120.3025 -4 L-121.7244 -4 ZM-120.3025 -10 L-117.24 -10 Q-116.2713 -10 -115.7166 -10.2031 Q-115.1619 -10.4062 -114.8806 -10.8438 Q-114.5994 -11.2812 -114.5994 -11.8125 Q-114.5994 -12.5625 -115.1541 -13.0547 Q-115.7088 -13.5469 -116.8963 -13.5469 L-120.3025 -13.5469 L-120.3025 -10 ZM-105.9995 -6.5 L-104.6401 -6.3438 Q-104.9526 -5.1406 -105.8276 -4.4844 Q-106.7026 -3.8281 -108.062 -3.8281 Q-109.7651 -3.8281 -110.7651 -4.875 Q-111.7651 -5.9219 -111.7651 -7.8281 Q-111.7651 -9.7812 -110.7495 -10.8672 Q-109.7339 -11.9531 -108.1245 -11.9531 Q-106.562 -11.9531 -105.5776 -10.8906 Q-104.5932 -9.8281 -104.5932 -7.9062 Q-104.5932 -7.7812 -104.5932 -7.5469 L-110.4057 -7.5469 Q-110.3276 -6.2656 -109.6792 -5.5859 Q-109.0307 -4.9062 -108.0464 -4.9062 Q-107.3276 -4.9062 -106.812 -5.2891 Q-106.2964 -5.6719 -105.9995 -6.5 ZM-110.3276 -8.6406 L-105.9839 -8.6406 Q-106.0776 -9.625 -106.4839 -10.1094 Q-107.1089 -10.875 -108.1089 -10.875 Q-109.0307 -10.875 -109.6479 -10.2656 Q-110.2651 -9.6562 -110.3276 -8.6406 ZM-103.2078 -4 L-103.2078 -14.7344 L-101.8796 -14.7344 L-101.8796 -4 L-103.2078 -4 ZM-94.8422 -4.9531 Q-95.5766 -4.3438 -96.2485 -4.0859 Q-96.9204 -3.8281 -97.7016 -3.8281 Q-98.9829 -3.8281 -99.6704 -4.4531 Q-100.3579 -5.0781 -100.3579 -6.0469 Q-100.3579 -6.625 -100.1001 -7.0938 Q-99.8422 -7.5625 -99.4204 -7.8516 Q-98.9985 -8.1406 -98.4672 -8.2812 Q-98.0922 -8.3906 -97.2954 -8.4844 Q-95.7016 -8.6719 -94.9516 -8.9375 Q-94.936 -9.2031 -94.936 -9.2812 Q-94.936 -10.0938 -95.311 -10.4219 Q-95.8266 -10.8594 -96.811 -10.8594 Q-97.7485 -10.8594 -98.1938 -10.5391 Q-98.6391 -10.2188 -98.8422 -9.3906 L-100.1391 -9.5625 Q-99.9672 -10.3906 -99.561 -10.8984 Q-99.1547 -11.4062 -98.3891 -11.6797 Q-97.6235 -11.9531 -96.6235 -11.9531 Q-95.6235 -11.9531 -95.0063 -11.7188 Q-94.3891 -11.4844 -94.0922 -11.1328 Q-93.7954 -10.7812 -93.686 -10.2344 Q-93.6235 -9.8906 -93.6235 -9.0156 L-93.6235 -7.2656 Q-93.6235 -5.4219 -93.5376 -4.9375 Q-93.4516 -4.4531 -93.2016 -4 L-94.5766 -4 Q-94.7797 -4.4062 -94.8422 -4.9531 ZM-94.9516 -7.9062 Q-95.6704 -7.6094 -97.1079 -7.4062 Q-97.9204 -7.2812 -98.2563 -7.1406 Q-98.5922 -7 -98.7719 -6.7188 Q-98.9516 -6.4375 -98.9516 -6.0938 Q-98.9516 -5.5625 -98.5532 -5.2109 Q-98.1547 -4.8594 -97.3891 -4.8594 Q-96.6235 -4.8594 -96.0297 -5.1953 Q-95.436 -5.5312 -95.1547 -6.1094 Q-94.9516 -6.5469 -94.9516 -7.4219 L-94.9516 -7.9062 ZM-88.8786 -5.1719 L-88.6911 -4.0156 Q-89.2536 -3.8906 -89.6911 -3.8906 Q-90.4099 -3.8906 -90.8083 -4.125 Q-91.2068 -4.3594 -91.363 -4.7266 Q-91.5193 -5.0938 -91.5193 -6.2812 L-91.5193 -10.75 L-92.488 -10.75 L-92.488 -11.7812 L-91.5193 -11.7812 L-91.5193 -13.7031 L-90.2068 -14.5 L-90.2068 -11.7812 L-88.8786 -11.7812 L-88.8786 -10.75 L-90.2068 -10.75 L-90.2068 -6.2031 Q-90.2068 -5.6406 -90.1364 -5.4766 Q-90.0661 -5.3125 -89.9099 -5.2188 Q-89.7536 -5.125 -89.4724 -5.125 Q-89.238 -5.125 -88.8786 -5.1719 ZM-87.6817 -13.2188 L-87.6817 -14.7344 L-86.3692 -14.7344 L-86.3692 -13.2188 L-87.6817 -13.2188 ZM-87.6817 -4 L-87.6817 -11.7812 L-86.3692 -11.7812 L-86.3692 -4 L-87.6817 -4 ZM-82.2693 -4 L-85.238 -11.7812 L-83.8474 -11.7812 L-82.1755 -7.125 Q-81.9099 -6.3594 -81.6755 -5.5469 Q-81.5036 -6.1719 -81.1911 -7.0312 L-79.4568 -11.7812 L-78.0974 -11.7812 L-81.0505 -4 L-82.2693 -4 ZM-71.7849 -6.5 L-70.4255 -6.3438 Q-70.738 -5.1406 -71.613 -4.4844 Q-72.488 -3.8281 -73.8474 -3.8281 Q-75.5505 -3.8281 -76.5505 -4.875 Q-77.5505 -5.9219 -77.5505 -7.8281 Q-77.5505 -9.7812 -76.5349 -10.8672 Q-75.5193 -11.9531 -73.9099 -11.9531 Q-72.3474 -11.9531 -71.363 -10.8906 Q-70.3786 -9.8281 -70.3786 -7.9062 Q-70.3786 -7.7812 -70.3786 -7.5469 L-76.1911 -7.5469 Q-76.113 -6.2656 -75.4646 -5.5859 Q-74.8161 -4.9062 -73.8318 -4.9062 Q-73.113 -4.9062 -72.5974 -5.2891 Q-72.0818 -5.6719 -71.7849 -6.5 ZM-76.113 -8.6406 L-71.7693 -8.6406 Q-71.863 -9.625 -72.2693 -10.1094 Q-72.8943 -10.875 -73.8943 -10.875 Q-74.8161 -10.875 -75.4333 -10.2656 Q-76.0505 -9.6562 -76.113 -8.6406 ZM-64.718 -4 L-64.718 -14.7344 L-60.6712 -14.7344 Q-59.593 -14.7344 -59.0305 -14.6406 Q-58.2493 -14.5 -57.7102 -14.1328 Q-57.1712 -13.7656 -56.843 -13.1016 Q-56.5149 -12.4375 -56.5149 -11.625 Q-56.5149 -10.2656 -57.3899 -9.3125 Q-58.2649 -8.3594 -60.5462 -8.3594 L-63.2962 -8.3594 L-63.2962 -4 L-64.718 -4 ZM-63.2962 -9.625 L-60.5149 -9.625 Q-59.1399 -9.625 -58.5618 -10.1406 Q-57.9837 -10.6562 -57.9837 -11.5938 Q-57.9837 -12.2656 -58.3274 -12.7422 Q-58.6712 -13.2188 -59.218 -13.375 Q-59.5774 -13.4688 -60.5462 -13.4688 L-63.2962 -13.4688 L-63.2962 -9.625 ZM-55.5987 -7.8906 Q-55.5987 -10.0469 -54.3956 -11.0938 Q-53.3956 -11.9531 -51.9581 -11.9531 Q-50.3487 -11.9531 -49.3331 -10.9062 Q-48.3174 -9.8594 -48.3174 -8 Q-48.3174 -6.5 -48.7628 -5.6406 Q-49.2081 -4.7812 -50.0753 -4.3047 Q-50.9424 -3.8281 -51.9581 -3.8281 Q-53.5831 -3.8281 -54.5909 -4.875 Q-55.5987 -5.9219 -55.5987 -7.8906 ZM-54.2393 -7.8906 Q-54.2393 -6.3906 -53.5909 -5.6484 Q-52.9424 -4.9062 -51.9581 -4.9062 Q-50.9737 -4.9062 -50.3174 -5.6562 Q-49.6612 -6.4062 -49.6612 -7.9375 Q-49.6612 -9.375 -50.3174 -10.1172 Q-50.9737 -10.8594 -51.9581 -10.8594 Q-52.9424 -10.8594 -53.5909 -10.125 Q-54.2393 -9.3906 -54.2393 -7.8906 ZM-47.4788 -6.3281 L-46.182 -6.5312 Q-46.0726 -5.75 -45.5726 -5.3281 Q-45.0726 -4.9062 -44.1663 -4.9062 Q-43.2601 -4.9062 -42.8226 -5.2734 Q-42.3851 -5.6406 -42.3851 -6.1406 Q-42.3851 -6.5938 -42.7757 -6.8438 Q-43.0413 -7.0312 -44.1195 -7.2969 Q-45.5726 -7.6562 -46.1273 -7.9297 Q-46.682 -8.2031 -46.971 -8.6719 Q-47.2601 -9.1406 -47.2601 -9.7188 Q-47.2601 -10.2344 -47.0257 -10.6797 Q-46.7913 -11.125 -46.3851 -11.4062 Q-46.0726 -11.6406 -45.5413 -11.7969 Q-45.0101 -11.9531 -44.4007 -11.9531 Q-43.4945 -11.9531 -42.7991 -11.6875 Q-42.1038 -11.4219 -41.7757 -10.9766 Q-41.4476 -10.5312 -41.3226 -9.7656 L-42.6038 -9.5938 Q-42.6976 -10.2031 -43.1195 -10.5391 Q-43.5413 -10.875 -44.307 -10.875 Q-45.2132 -10.875 -45.6038 -10.5703 Q-45.9945 -10.2656 -45.9945 -9.8594 Q-45.9945 -9.6094 -45.8382 -9.4062 Q-45.6663 -9.1875 -45.3226 -9.0469 Q-45.1351 -8.9844 -44.1663 -8.7188 Q-42.7601 -8.3438 -42.2054 -8.1094 Q-41.6507 -7.875 -41.3382 -7.4141 Q-41.0257 -6.9531 -41.0257 -6.2812 Q-41.0257 -5.625 -41.4085 -5.0469 Q-41.7913 -4.4688 -42.5179 -4.1484 Q-43.2445 -3.8281 -44.1663 -3.8281 Q-45.682 -3.8281 -46.471 -4.4531 Q-47.2601 -5.0781 -47.4788 -6.3281 ZM-39.6195 -13.2188 L-39.6195 -14.7344 L-38.307 -14.7344 L-38.307 -13.2188 L-39.6195 -13.2188 ZM-39.6195 -4 L-39.6195 -11.7812 L-38.307 -11.7812 L-38.307 -4 L-39.6195 -4 ZM-33.4883 -5.1719 L-33.3008 -4.0156 Q-33.8633 -3.8906 -34.3008 -3.8906 Q-35.0196 -3.8906 -35.418 -4.125 Q-35.8164 -4.3594 -35.9727 -4.7266 Q-36.1289 -5.0938 -36.1289 -6.2812 L-36.1289 -10.75 L-37.0977 -10.75 L-37.0977 -11.7812 L-36.1289 -11.7812 L-36.1289 -13.7031 L-34.8164 -14.5 L-34.8164 -11.7812 L-33.4883 -11.7812 L-33.4883 -10.75 L-34.8164 -10.75 L-34.8164 -6.2031 Q-34.8164 -5.6406 -34.7461 -5.4766 Q-34.6758 -5.3125 -34.5196 -5.2188 Q-34.3633 -5.125 -34.0821 -5.125 Q-33.8477 -5.125 -33.4883 -5.1719 ZM-32.2913 -13.2188 L-32.2913 -14.7344 L-30.9788 -14.7344 L-30.9788 -13.2188 L-32.2913 -13.2188 ZM-32.2913 -4 L-32.2913 -11.7812 L-30.9788 -11.7812 L-30.9788 -4 L-32.2913 -4 ZM-29.5352 -7.8906 Q-29.5352 -10.0469 -28.3321 -11.0938 Q-27.3321 -11.9531 -25.8946 -11.9531 Q-24.2852 -11.9531 -23.2696 -10.9062 Q-22.2539 -9.8594 -22.2539 -8 Q-22.2539 -6.5 -22.6992 -5.6406 Q-23.1446 -4.7812 -24.0117 -4.3047 Q-24.8789 -3.8281 -25.8946 -3.8281 Q-27.5196 -3.8281 -28.5274 -4.875 Q-29.5352 -5.9219 -29.5352 -7.8906 ZM-28.1758 -7.8906 Q-28.1758 -6.3906 -27.5274 -5.6484 Q-26.8789 -4.9062 -25.8946 -4.9062 Q-24.9102 -4.9062 -24.2539 -5.6562 Q-23.5977 -6.4062 -23.5977 -7.9375 Q-23.5977 -9.375 -24.2539 -10.1172 Q-24.9102 -10.8594 -25.8946 -10.8594 Q-26.8789 -10.8594 -27.5274 -10.125 Q-28.1758 -9.3906 -28.1758 -7.8906 ZM-20.8997 -4 L-20.8997 -11.7812 L-19.7122 -11.7812 L-19.7122 -10.6719 Q-18.8528 -11.9531 -17.2278 -11.9531 Q-16.5247 -11.9531 -15.9388 -11.7031 Q-15.3528 -11.4531 -15.056 -11.0391 Q-14.7591 -10.625 -14.6497 -10.0625 Q-14.5716 -9.7031 -14.5716 -8.7812 L-14.5716 -4 L-15.8997 -4 L-15.8997 -8.7344 Q-15.8997 -9.5312 -16.0481 -9.9297 Q-16.1966 -10.3281 -16.5872 -10.5703 Q-16.9778 -10.8125 -17.5091 -10.8125 Q-18.3528 -10.8125 -18.9622 -10.2812 Q-19.5716 -9.75 -19.5716 -8.25 L-19.5716 -4 L-20.8997 -4 ZM-9.161 -7.8906 Q-9.161 -10.0469 -7.9579 -11.0938 Q-6.9579 -11.9531 -5.5204 -11.9531 Q-3.911 -11.9531 -2.8954 -10.9062 Q-1.8797 -9.8594 -1.8797 -8 Q-1.8797 -6.5 -2.3251 -5.6406 Q-2.7704 -4.7812 -3.6376 -4.3047 Q-4.5047 -3.8281 -5.5204 -3.8281 Q-7.1454 -3.8281 -8.1532 -4.875 Q-9.161 -5.9219 -9.161 -7.8906 ZM-7.8016 -7.8906 Q-7.8016 -6.3906 -7.1532 -5.6484 Q-6.5047 -4.9062 -5.5204 -4.9062 Q-4.536 -4.9062 -3.8797 -5.6562 Q-3.2235 -6.4062 -3.2235 -7.9375 Q-3.2235 -9.375 -3.8797 -10.1172 Q-4.536 -10.8594 -5.5204 -10.8594 Q-6.5047 -10.8594 -7.1532 -10.125 Q-7.8016 -9.3906 -7.8016 -7.8906 ZM-0.213 -4 L-0.213 -10.75 L-1.3693 -10.75 L-1.3693 -11.7812 L-0.213 -11.7812 L-0.213 -12.6094 Q-0.213 -13.3906 -0.0724 -13.7656 Q0.1307 -14.2812 0.6073 -14.6016 Q1.0839 -14.9219 1.9432 -14.9219 Q2.5057 -14.9219 3.1776 -14.7812 L2.9745 -13.6406 Q2.5682 -13.7188 2.2089 -13.7188 Q1.5995 -13.7188 1.3495 -13.4609 Q1.0995 -13.2031 1.0995 -12.5 L1.0995 -11.7812 L2.6151 -11.7812 L2.6151 -10.75 L1.0995 -10.75 L1.0995 -4 L-0.213 -4 ZM8.0403 -4 L8.0403 -14.7344 L9.4466 -14.7344 L9.4466 -4 L8.0403 -4 ZM11.6904 -4 L11.6904 -11.7812 L12.8779 -11.7812 L12.8779 -10.6719 Q13.7373 -11.9531 15.3623 -11.9531 Q16.0654 -11.9531 16.6514 -11.7031 Q17.2373 -11.4531 17.5342 -11.0391 Q17.831 -10.625 17.9404 -10.0625 Q18.0185 -9.7031 18.0185 -8.7812 L18.0185 -4 L16.6904 -4 L16.6904 -8.7344 Q16.6904 -9.5312 16.542 -9.9297 Q16.3935 -10.3281 16.0029 -10.5703 Q15.6123 -10.8125 15.081 -10.8125 Q14.2373 -10.8125 13.6279 -10.2812 Q13.0185 -9.75 13.0185 -8.25 L13.0185 -4 L11.6904 -4 ZM22.7321 -5.1719 L22.9196 -4.0156 Q22.3571 -3.8906 21.9196 -3.8906 Q21.2009 -3.8906 20.8025 -4.125 Q20.404 -4.3594 20.2478 -4.7266 Q20.0915 -5.0938 20.0915 -6.2812 L20.0915 -10.75 L19.1228 -10.75 L19.1228 -11.7812 L20.0915 -11.7812 L20.0915 -13.7031 L21.404 -14.5 L21.404 -11.7812 L22.7321 -11.7812 L22.7321 -10.75 L21.404 -10.75 L21.404 -6.2031 Q21.404 -5.6406 21.4743 -5.4766 Q21.5446 -5.3125 21.7009 -5.2188 Q21.8571 -5.125 22.1384 -5.125 Q22.3728 -5.125 22.7321 -5.1719 ZM23.8979 -4 L23.8979 -11.7812 L25.0854 -11.7812 L25.0854 -10.5938 Q25.5385 -11.4219 25.9291 -11.6875 Q26.3197 -11.9531 26.7729 -11.9531 Q27.4447 -11.9531 28.1322 -11.5312 L27.6791 -10.3125 Q27.1947 -10.5938 26.7104 -10.5938 Q26.2729 -10.5938 25.9291 -10.3359 Q25.5854 -10.0781 25.4447 -9.6094 Q25.226 -8.9062 25.226 -8.0781 L25.226 -4 L23.8979 -4 ZM33.9035 -4 L33.9035 -5.1406 Q32.9816 -3.8281 31.4348 -3.8281 Q30.7473 -3.8281 30.1457 -4.0938 Q29.5441 -4.3594 29.2551 -4.7578 Q28.966 -5.1562 28.8566 -5.7344 Q28.7629 -6.1094 28.7629 -6.9531 L28.7629 -11.7812 L30.091 -11.7812 L30.091 -7.4688 Q30.091 -6.4375 30.1691 -6.0781 Q30.2941 -5.5469 30.6926 -5.25 Q31.091 -4.9531 31.6848 -4.9531 Q32.2785 -4.9531 32.802 -5.2578 Q33.3254 -5.5625 33.5441 -6.0859 Q33.7629 -6.6094 33.7629 -7.6094 L33.7629 -11.7812 L35.0754 -11.7812 L35.0754 -4 L33.9035 -4 ZM41.9921 -4 L41.9921 -4.9844 Q41.2578 -3.8281 39.8203 -3.8281 Q38.8984 -3.8281 38.1171 -4.3359 Q37.3359 -4.8438 36.9062 -5.7656 Q36.4765 -6.6875 36.4765 -7.875 Q36.4765 -9.0469 36.8671 -9.9922 Q37.2578 -10.9375 38.0312 -11.4453 Q38.8046 -11.9531 39.7578 -11.9531 Q40.4609 -11.9531 41.0156 -11.6562 Q41.5703 -11.3594 41.914 -10.8906 L41.914 -14.7344 L43.2265 -14.7344 L43.2265 -4 L41.9921 -4 ZM37.8359 -7.875 Q37.8359 -6.3906 38.4609 -5.6484 Q39.0859 -4.9062 39.9453 -4.9062 Q40.8046 -4.9062 41.414 -5.6172 Q42.0234 -6.3281 42.0234 -7.7656 Q42.0234 -9.375 41.4062 -10.1172 Q40.789 -10.8594 39.8828 -10.8594 Q39.0078 -10.8594 38.4218 -10.1406 Q37.8359 -9.4219 37.8359 -7.875 ZM50.4245 -6.5 L51.7839 -6.3438 Q51.4714 -5.1406 50.5964 -4.4844 Q49.7214 -3.8281 48.362 -3.8281 Q46.6589 -3.8281 45.6589 -4.875 Q44.6589 -5.9219 44.6589 -7.8281 Q44.6589 -9.7812 45.6745 -10.8672 Q46.6901 -11.9531 48.2995 -11.9531 Q49.862 -11.9531 50.8464 -10.8906 Q51.8307 -9.8281 51.8307 -7.9062 Q51.8307 -7.7812 51.8307 -7.5469 L46.0182 -7.5469 Q46.0964 -6.2656 46.7448 -5.5859 Q47.3932 -4.9062 48.3776 -4.9062 Q49.0964 -4.9062 49.612 -5.2891 Q50.1276 -5.6719 50.4245 -6.5 ZM46.0964 -8.6406 L50.4401 -8.6406 Q50.3464 -9.625 49.9401 -10.1094 Q49.3151 -10.875 48.3151 -10.875 Q47.3932 -10.875 46.776 -10.2656 Q46.1589 -9.6562 46.0964 -8.6406 ZM53.2318 -4 L53.2318 -11.7812 L54.4193 -11.7812 L54.4193 -10.5938 Q54.8725 -11.4219 55.2631 -11.6875 Q55.6537 -11.9531 56.1068 -11.9531 Q56.7787 -11.9531 57.4662 -11.5312 L57.0131 -10.3125 Q56.5287 -10.5938 56.0443 -10.5938 Q55.6068 -10.5938 55.2631 -10.3359 Q54.9193 -10.0781 54.7787 -9.6094 Q54.56 -8.9062 54.56 -8.0781 L54.56 -4 L53.2318 -4 ZM65.0907 -5.1719 L65.2782 -4.0156 Q64.7157 -3.8906 64.2782 -3.8906 Q63.5595 -3.8906 63.161 -4.125 Q62.7626 -4.3594 62.6063 -4.7266 Q62.4501 -5.0938 62.4501 -6.2812 L62.4501 -10.75 L61.4813 -10.75 L61.4813 -11.7812 L62.4501 -11.7812 L62.4501 -13.7031 L63.7626 -14.5 L63.7626 -11.7812 L65.0907 -11.7812 L65.0907 -10.75 L63.7626 -10.75 L63.7626 -6.2031 Q63.7626 -5.6406 63.8329 -5.4766 Q63.9032 -5.3125 64.0595 -5.2188 Q64.2157 -5.125 64.497 -5.125 Q64.7313 -5.125 65.0907 -5.1719 ZM65.7877 -7.8906 Q65.7877 -10.0469 66.9908 -11.0938 Q67.9908 -11.9531 69.4283 -11.9531 Q71.0377 -11.9531 72.0533 -10.9062 Q73.0689 -9.8594 73.0689 -8 Q73.0689 -6.5 72.6236 -5.6406 Q72.1783 -4.7812 71.3111 -4.3047 Q70.4439 -3.8281 69.4283 -3.8281 Q67.8033 -3.8281 66.7955 -4.875 Q65.7877 -5.9219 65.7877 -7.8906 ZM67.1471 -7.8906 Q67.1471 -6.3906 67.7955 -5.6484 Q68.4439 -4.9062 69.4283 -4.9062 Q70.4127 -4.9062 71.0689 -5.6562 Q71.7252 -6.4062 71.7252 -7.9375 Q71.7252 -9.375 71.0689 -10.1172 Q70.4127 -10.8594 69.4283 -10.8594 Q68.4439 -10.8594 67.7955 -10.125 Q67.1471 -9.3906 67.1471 -7.8906 ZM78.2295 -9.2344 Q78.2295 -11.9062 79.667 -13.4141 Q81.1045 -14.9219 83.3701 -14.9219 Q84.8701 -14.9219 86.0576 -14.2109 Q87.2451 -13.5 87.878 -12.2344 Q88.5108 -10.9688 88.5108 -9.3594 Q88.5108 -7.7188 87.8467 -6.4297 Q87.1826 -5.1406 85.9795 -4.4766 Q84.7764 -3.8125 83.3701 -3.8125 Q81.8545 -3.8125 80.6592 -4.5469 Q79.4639 -5.2812 78.8467 -6.5469 Q78.2295 -7.8125 78.2295 -9.2344 ZM79.6983 -9.2031 Q79.6983 -7.2656 80.7451 -6.1484 Q81.792 -5.0312 83.3701 -5.0312 Q84.9639 -5.0312 86.003 -6.1562 Q87.042 -7.2812 87.042 -9.3594 Q87.042 -10.6719 86.5967 -11.6484 Q86.1514 -12.625 85.2998 -13.1641 Q84.4483 -13.7031 83.3858 -13.7031 Q81.8701 -13.7031 80.7842 -12.6641 Q79.6983 -11.625 79.6983 -9.2031 ZM91.3327 -4 L88.9577 -11.7812 L90.3171 -11.7812 L91.5515 -7.2812 L92.0202 -5.625 Q92.0515 -5.75 92.4265 -7.2188 L93.6609 -11.7812 L95.0046 -11.7812 L96.1765 -7.2656 L96.5671 -5.7812 L97.0046 -7.2812 L98.3484 -11.7812 L99.6296 -11.7812 L97.1921 -4 L95.8327 -4 L94.5827 -8.6562 L94.2859 -9.9844 L92.7077 -4 L91.3327 -4 ZM100.4795 -4 L100.4795 -11.7812 L101.667 -11.7812 L101.667 -10.6719 Q102.5264 -11.9531 104.1514 -11.9531 Q104.8545 -11.9531 105.4405 -11.7031 Q106.0264 -11.4531 106.3233 -11.0391 Q106.6201 -10.625 106.7295 -10.0625 Q106.8076 -9.7031 106.8076 -8.7812 L106.8076 -4 L105.4795 -4 L105.4795 -8.7344 Q105.4795 -9.5312 105.3311 -9.9297 Q105.1826 -10.3281 104.792 -10.5703 Q104.4014 -10.8125 103.8701 -10.8125 Q103.0264 -10.8125 102.417 -10.2812 Q101.8076 -9.75 101.8076 -8.25 L101.8076 -4 L100.4795 -4 ZM108.115 -6.3281 L109.4119 -6.5312 Q109.5213 -5.75 110.0213 -5.3281 Q110.5213 -4.9062 111.4275 -4.9062 Q112.3338 -4.9062 112.7713 -5.2734 Q113.2088 -5.6406 113.2088 -6.1406 Q113.2088 -6.5938 112.8181 -6.8438 Q112.5525 -7.0312 111.4744 -7.2969 Q110.0213 -7.6562 109.4666 -7.9297 Q108.9119 -8.2031 108.6228 -8.6719 Q108.3338 -9.1406 108.3338 -9.7188 Q108.3338 -10.2344 108.5681 -10.6797 Q108.8025 -11.125 109.2088 -11.4062 Q109.5213 -11.6406 110.0525 -11.7969 Q110.5838 -11.9531 111.1931 -11.9531 Q112.0994 -11.9531 112.7947 -11.6875 Q113.49 -11.4219 113.8181 -10.9766 Q114.1463 -10.5312 114.2713 -9.7656 L112.99 -9.5938 Q112.8963 -10.2031 112.4744 -10.5391 Q112.0525 -10.875 111.2869 -10.875 Q110.3806 -10.875 109.99 -10.5703 Q109.5994 -10.2656 109.5994 -9.8594 Q109.5994 -9.6094 109.7556 -9.4062 Q109.9275 -9.1875 110.2713 -9.0469 Q110.4588 -8.9844 111.4275 -8.7188 Q112.8338 -8.3438 113.3884 -8.1094 Q113.9431 -7.875 114.2556 -7.4141 Q114.5681 -6.9531 114.5681 -6.2812 Q114.5681 -5.625 114.1853 -5.0469 Q113.8025 -4.4688 113.0759 -4.1484 Q112.3494 -3.8281 111.4275 -3.8281 Q109.9119 -3.8281 109.1228 -4.4531 Q108.3338 -5.0781 108.115 -6.3281 ZM115.9588 -4 L115.9588 -14.7344 L117.2869 -14.7344 L117.2869 -10.8906 Q118.2088 -11.9531 119.615 -11.9531 Q120.4744 -11.9531 121.115 -11.6094 Q121.7556 -11.2656 122.0291 -10.6719 Q122.3025 -10.0781 122.3025 -8.9219 L122.3025 -4 L120.9744 -4 L120.9744 -8.9219 Q120.9744 -9.9219 120.5525 -10.3672 Q120.1306 -10.8125 119.3338 -10.8125 Q118.7556 -10.8125 118.24 -10.5156 Q117.7244 -10.2188 117.5056 -9.6953 Q117.2869 -9.1719 117.2869 -8.25 L117.2869 -4 L115.9588 -4 ZM124.1255 -13.2188 L124.1255 -14.7344 L125.438 -14.7344 L125.438 -13.2188 L124.1255 -13.2188 ZM124.1255 -4 L124.1255 -11.7812 L125.438 -11.7812 L125.438 -4 L124.1255 -4 ZM127.366 -1.0156 L127.366 -11.7812 L128.5692 -11.7812 L128.5692 -10.7656 Q128.991 -11.3594 129.5301 -11.6562 Q130.0692 -11.9531 130.8348 -11.9531 Q131.8192 -11.9531 132.5848 -11.4375 Q133.3504 -10.9219 133.7332 -9.9922 Q134.116 -9.0625 134.116 -7.9531 Q134.116 -6.75 133.6942 -5.7969 Q133.2723 -4.8438 132.452 -4.3359 Q131.6317 -3.8281 130.7254 -3.8281 Q130.0692 -3.8281 129.5457 -4.1016 Q129.0223 -4.375 128.6942 -4.8125 L128.6942 -1.0156 L127.366 -1.0156 ZM128.5692 -7.8438 Q128.5692 -6.3438 129.1785 -5.625 Q129.7879 -4.9062 130.6473 -4.9062 Q131.5223 -4.9062 132.1473 -5.6484 Q132.7723 -6.3906 132.7723 -7.9531 Q132.7723 -9.4375 132.1629 -10.1797 Q131.5535 -10.9219 130.7098 -10.9219 Q129.866 -10.9219 129.2176 -10.1328 Q128.5692 -9.3438 128.5692 -7.8438 ZM136.3922 -0.8438 L135.439 -0.8438 Q137.6265 -4.3594 137.6265 -7.875 Q137.6265 -9.2656 137.314 -10.6094 Q137.064 -11.7188 136.6265 -12.7188 Q136.3297 -13.375 135.439 -14.9219 L136.3922 -14.9219 Q137.7672 -13.0781 138.4234 -11.2344 Q138.9859 -9.625 138.9859 -7.8906 Q138.9859 -5.9062 138.2281 -4.0625 Q137.4703 -2.2188 136.3922 -0.8438 Z"
    /></g
    ><g style="fill-opacity:0.502; fill:rgb(204,0,0); text-rendering:optimizeSpeed; image-rendering:optimizeSpeed; color-rendering:optimizeSpeed; shape-rendering:crispEdges; stroke:rgb(204,0,0); color-interpolation:sRGB; stroke-opacity:0.502;"
    ><path style="stroke:none;" d="M73 31 L73 145.3333 L507 145.3333 L507 31 Z"
    /></g
    ><g style="fill:rgb(204,0,0); text-rendering:geometricPrecision; color-rendering:optimizeQuality; image-rendering:optimizeQuality; stroke:rgb(204,0,0); color-interpolation:linearRGB; stroke-width:0.6667;"
    ><path d="M73 145.3333 L507 145.3333 L507 31 L73 31 L73 145.3333 L73 145.3333" style="fill:none; fill-rule:evenodd;"
      /><circle transform="translate(73,164.0112)" style="fill:black; stroke:none;" r="1.3333" cx="0" cy="0"
    /></g
    ><g transform="translate(73,163.8112)" style="text-rendering:geometricPrecision; stroke-width:0.6667; color-interpolation:linearRGB; color-rendering:optimizeQuality; image-rendering:optimizeQuality;"
    ><circle r="1.3333" style="stroke:none;" cx="0" cy="0"
    /></g
    ><g transform="translate(73,163.1344)" style="text-rendering:geometricPrecision; stroke-width:0.6667; color-interpolation:linearRGB; color-rendering:optimizeQuality; image-rendering:optimizeQuality;"
    ><circle r="1.3333" style="stroke:none;" cx="0" cy="0"
    /></g
    ><g transform="translate(73,162.4059)" style="text-rendering:geometricPrecision; stroke-width:0.6667; color-interpolation:linearRGB; color-rendering:optimizeQuality; image-rendering:optimizeQuality;"
    ><circle r="1.3333" style="stroke:none;" cx="0" cy="0"
    /></g
    ><g transform="translate(73,162.5338)" style="text-rendering:geometricPrecision; stroke-width:0.6667; color-interpolation:linearRGB; color-rendering:optimizeQuality; image-rendering:optimizeQuality;"
    ><circle r="1.3333" style="stroke:none;" cx="0" cy="0"
    /></g
    ><g transform="translate(73,162.0869)" style="text-rendering:geometricPrecision; stroke-width:0.6667; color-interpolation:linearRGB; color-rendering:optimizeQuality; image-rendering:optimizeQuality;"
    ><circle r="1.3333" style="stroke:none;" cx="0" cy="0"
    /></g
    ><g transform="translate(73,162.8127)" style="text-rendering:geometricPrecision; stroke-width:0.6667; color-interpolation:linearRGB; color-rendering:optimizeQuality; image-rendering:optimizeQuality;"
    ><circle r="1.3333" style="stroke:none;" cx="0" cy="0"
    /></g
    ><g transform="translate(73,164.1698)" style="text-rendering:geometricPrecision; stroke-width:0.6667; color-interpolation:linearRGB; color-rendering:optimizeQuality; image-rendering:optimizeQuality;"
    ><circle r="1.3333" style="stroke:none;" cx="0" cy="0"
    /></g
    ><g transform="translate(73,163.1888)" style="text-rendering:geometricPrecision; stroke-width:0.6667; color-interpolation:linearRGB; color-rendering:optimizeQuality; image-rendering:optimizeQuality;"
    ><circle r="1.3333" style="stroke:none;" cx="0" cy="0"
    /></g
    ><g transform="translate(73,162.9515)" style="text-rendering:geometricPrecision; stroke-width:0.6667; color-interpolation:linearRGB; color-rendering:optimizeQuality; image-rendering:optimizeQuality;"
    ><circle r="1.3333" style="stroke:none;" cx="0" cy="0"
    /></g
    ><g transform="translate(116.4,151.0173)" style="text-rendering:geometricPrecision; stroke-width:0.6667; color-interpolation:linearRGB; color-rendering:optimizeQuality; image-rendering:optimizeQuality;"
    ><circle r="1.3333" style="stroke:none;" cx="0" cy="0"
    /></g
    ><g transform="translate(116.4,154.9743)" style="text-rendering:geometricPrecision; stroke-width:0.6667; color-interpolation:linearRGB; color-rendering:optimizeQuality; image-rendering:optimizeQuality;"
    ><circle r="1.3333" style="stroke:none;" cx="0" cy="0"
    /></g
    ><g transform="translate(116.4,149.8297)" style="text-rendering:geometricPrecision; stroke-width:0.6667; color-interpolation:linearRGB; color-rendering:optimizeQuality; image-rendering:optimizeQuality;"
    ><circle r="1.3333" style="stroke:none;" cx="0" cy="0"
    /></g
    ><g transform="translate(116.4,151.6438)" style="text-rendering:geometricPrecision; stroke-width:0.6667; color-interpolation:linearRGB; color-rendering:optimizeQuality; image-rendering:optimizeQuality;"
    ><circle r="1.3333" style="stroke:none;" cx="0" cy="0"
    /></g
    ><g transform="translate(116.4,152.8136)" style="text-rendering:geometricPrecision; stroke-width:0.6667; color-interpolation:linearRGB; color-rendering:optimizeQuality; image-rendering:optimizeQuality;"
    ><circle r="1.3333" style="stroke:none;" cx="0" cy="0"
    /></g
    ><g transform="translate(116.4,152.5097)" style="text-rendering:geometricPrecision; stroke-width:0.6667; color-interpolation:linearRGB; color-rendering:optimizeQuality; image-rendering:optimizeQuality;"
    ><circle r="1.3333" style="stroke:none;" cx="0" cy="0"
    /></g
    ><g transform="translate(116.4,153.3319)" style="text-rendering:geometricPrecision; stroke-width:0.6667; color-interpolation:linearRGB; color-rendering:optimizeQuality; image-rendering:optimizeQuality;"
    ><circle r="1.3333" style="stroke:none;" cx="0" cy="0"
    /></g
    ><g transform="translate(116.4,151.136)" style="text-rendering:geometricPrecision; stroke-width:0.6667; color-interpolation:linearRGB; color-rendering:optimizeQuality; image-rendering:optimizeQuality;"
    ><circle r="1.3333" style="stroke:none;" cx="0" cy="0"
    /></g
    ><g transform="translate(116.4,153.5074)" style="text-rendering:geometricPrecision; stroke-width:0.6667; color-interpolation:linearRGB; color-rendering:optimizeQuality; image-rendering:optimizeQuality;"
    ><circle r="1.3333" style="stroke:none;" cx="0" cy="0"
    /></g
    ><g transform="translate(116.4,150.6892)" style="text-rendering:geometricPrecision; stroke-width:0.6667; color-interpolation:linearRGB; color-rendering:optimizeQuality; image-rendering:optimizeQuality;"
    ><circle r="1.3333" style="stroke:none;" cx="0" cy="0"
    /></g
    ><g transform="translate(159.8,143.3923)" style="text-rendering:geometricPrecision; stroke-width:0.6667; color-interpolation:linearRGB; color-rendering:optimizeQuality; image-rendering:optimizeQuality;"
    ><circle r="1.3333" style="stroke:none;" cx="0" cy="0"
    /></g
    ><g transform="translate(159.8,151.5062)" style="text-rendering:geometricPrecision; stroke-width:0.6667; color-interpolation:linearRGB; color-rendering:optimizeQuality; image-rendering:optimizeQuality;"
    ><circle r="1.3333" style="stroke:none;" cx="0" cy="0"
    /></g
    ><g transform="translate(159.8,141.8939)" style="text-rendering:geometricPrecision; stroke-width:0.6667; color-interpolation:linearRGB; color-rendering:optimizeQuality; image-rendering:optimizeQuality;"
    ><circle r="1.3333" style="stroke:none;" cx="0" cy="0"
    /></g
    ><g transform="translate(159.8,146.2507)" style="text-rendering:geometricPrecision; stroke-width:0.6667; color-interpolation:linearRGB; color-rendering:optimizeQuality; image-rendering:optimizeQuality;"
    ><circle r="1.3333" style="stroke:none;" cx="0" cy="0"
    /></g
    ><g transform="translate(159.8,148.4624)" style="text-rendering:geometricPrecision; stroke-width:0.6667; color-interpolation:linearRGB; color-rendering:optimizeQuality; image-rendering:optimizeQuality;"
    ><circle r="1.3333" style="stroke:none;" cx="0" cy="0"
    /></g
    ><g transform="translate(159.8,148.3013)" style="text-rendering:geometricPrecision; stroke-width:0.6667; color-interpolation:linearRGB; color-rendering:optimizeQuality; image-rendering:optimizeQuality;"
    ><circle r="1.3333" style="stroke:none;" cx="0" cy="0"
    /></g
    ><g transform="translate(159.8,149.22)" style="text-rendering:geometricPrecision; stroke-width:0.6667; color-interpolation:linearRGB; color-rendering:optimizeQuality; image-rendering:optimizeQuality;"
    ><circle r="1.3333" style="stroke:none;" cx="0" cy="0"
    /></g
    ><g transform="translate(159.8,143.471)" style="text-rendering:geometricPrecision; stroke-width:0.6667; color-interpolation:linearRGB; color-rendering:optimizeQuality; image-rendering:optimizeQuality;"
    ><circle r="1.3333" style="stroke:none;" cx="0" cy="0"
    /></g
    ><g transform="translate(159.8,149.1949)" style="text-rendering:geometricPrecision; stroke-width:0.6667; color-interpolation:linearRGB; color-rendering:optimizeQuality; image-rendering:optimizeQuality;"
    ><circle r="1.3333" style="stroke:none;" cx="0" cy="0"
    /></g
    ><g transform="translate(159.8,143.7958)" style="text-rendering:geometricPrecision; stroke-width:0.6667; color-interpolation:linearRGB; color-rendering:optimizeQuality; image-rendering:optimizeQuality;"
    ><circle r="1.3333" style="stroke:none;" cx="0" cy="0"
    /></g
    ><g transform="translate(203.2,141.1362)" style="text-rendering:geometricPrecision; stroke-width:0.6667; color-interpolation:linearRGB; color-rendering:optimizeQuality; image-rendering:optimizeQuality;"
    ><circle r="1.3333" style="stroke:none;" cx="0" cy="0"
    /></g
    ><g transform="translate(203.2,153.407)" style="text-rendering:geometricPrecision; stroke-width:0.6667; color-interpolation:linearRGB; color-rendering:optimizeQuality; image-rendering:optimizeQuality;"
    ><circle r="1.3333" style="stroke:none;" cx="0" cy="0"
    /></g
    ><g transform="translate(203.2,139.327)" style="text-rendering:geometricPrecision; stroke-width:0.6667; color-interpolation:linearRGB; color-rendering:optimizeQuality; image-rendering:optimizeQuality;"
    ><circle r="1.3333" style="stroke:none;" cx="0" cy="0"
    /></g
    ><g transform="translate(203.2,146.2264)" style="text-rendering:geometricPrecision; stroke-width:0.6667; color-interpolation:linearRGB; color-rendering:optimizeQuality; image-rendering:optimizeQuality;"
    ><circle r="1.3333" style="stroke:none;" cx="0" cy="0"
    /></g
    ><g transform="translate(203.2,149.48)" style="text-rendering:geometricPrecision; stroke-width:0.6667; color-interpolation:linearRGB; color-rendering:optimizeQuality; image-rendering:optimizeQuality;"
    ><circle r="1.3333" style="stroke:none;" cx="0" cy="0"
    /></g
    ><g transform="translate(203.2,149.4619)" style="text-rendering:geometricPrecision; stroke-width:0.6667; color-interpolation:linearRGB; color-rendering:optimizeQuality; image-rendering:optimizeQuality;"
    ><circle r="1.3333" style="stroke:none;" cx="0" cy="0"
    /></g
    ><g transform="translate(203.2,150.4769)" style="text-rendering:geometricPrecision; stroke-width:0.6667; color-interpolation:linearRGB; color-rendering:optimizeQuality; image-rendering:optimizeQuality;"
    ><circle r="1.3333" style="stroke:none;" cx="0" cy="0"
    /></g
    ><g transform="translate(203.2,141.1749)" style="text-rendering:geometricPrecision; stroke-width:0.6667; color-interpolation:linearRGB; color-rendering:optimizeQuality; image-rendering:optimizeQuality;"
    ><circle r="1.3333" style="stroke:none;" cx="0" cy="0"
    /></g
    ><g transform="translate(203.2,150.2513)" style="text-rendering:geometricPrecision; stroke-width:0.6667; color-interpolation:linearRGB; color-rendering:optimizeQuality; image-rendering:optimizeQuality;"
    ><circle r="1.3333" style="stroke:none;" cx="0" cy="0"
    /></g
    ><g transform="translate(203.2,142.2712)" style="text-rendering:geometricPrecision; stroke-width:0.6667; color-interpolation:linearRGB; color-rendering:optimizeQuality; image-rendering:optimizeQuality;"
    ><circle r="1.3333" style="stroke:none;" cx="0" cy="0"
    /></g
    ><g transform="translate(246.6,144.2491)" style="text-rendering:geometricPrecision; stroke-width:0.6667; color-interpolation:linearRGB; color-rendering:optimizeQuality; image-rendering:optimizeQuality;"
    ><circle r="1.3333" style="stroke:none;" cx="0" cy="0"
    /></g
    ><g transform="translate(246.6,160.6768)" style="text-rendering:geometricPrecision; stroke-width:0.6667; color-interpolation:linearRGB; color-rendering:optimizeQuality; image-rendering:optimizeQuality;"
    ><circle r="1.3333" style="stroke:none;" cx="0" cy="0"
    /></g
    ><g transform="translate(246.6,142.129)" style="text-rendering:geometricPrecision; stroke-width:0.6667; color-interpolation:linearRGB; color-rendering:optimizeQuality; image-rendering:optimizeQuality;"
    ><circle r="1.3333" style="stroke:none;" cx="0" cy="0"
    /></g
    ><g transform="translate(246.6,151.571)" style="text-rendering:geometricPrecision; stroke-width:0.6667; color-interpolation:linearRGB; color-rendering:optimizeQuality; image-rendering:optimizeQuality;"
    ><circle r="1.3333" style="stroke:none;" cx="0" cy="0"
    /></g
    ><g transform="translate(246.6,155.8665)" style="text-rendering:geometricPrecision; stroke-width:0.6667; color-interpolation:linearRGB; color-rendering:optimizeQuality; image-rendering:optimizeQuality;"
    ><circle r="1.3333" style="stroke:none;" cx="0" cy="0"
    /></g
    ><g transform="translate(246.6,155.9913)" style="text-rendering:geometricPrecision; stroke-width:0.6667; color-interpolation:linearRGB; color-rendering:optimizeQuality; image-rendering:optimizeQuality;"
    ><circle r="1.3333" style="stroke:none;" cx="0" cy="0"
    /></g
    ><g transform="translate(246.6,157.1028)" style="text-rendering:geometricPrecision; stroke-width:0.6667; color-interpolation:linearRGB; color-rendering:optimizeQuality; image-rendering:optimizeQuality;"
    ><circle r="1.3333" style="stroke:none;" cx="0" cy="0"
    /></g
    ><g transform="translate(246.6,144.2478)" style="text-rendering:geometricPrecision; stroke-width:0.6667; color-interpolation:linearRGB; color-rendering:optimizeQuality; image-rendering:optimizeQuality;"
    ><circle r="1.3333" style="stroke:none;" cx="0" cy="0"
    /></g
    ><g transform="translate(246.6,156.6766)" style="text-rendering:geometricPrecision; stroke-width:0.6667; color-interpolation:linearRGB; color-rendering:optimizeQuality; image-rendering:optimizeQuality;"
    ><circle r="1.3333" style="stroke:none;" cx="0" cy="0"
    /></g
    ><g transform="translate(246.6,146.1156)" style="text-rendering:geometricPrecision; stroke-width:0.6667; color-interpolation:linearRGB; color-rendering:optimizeQuality; image-rendering:optimizeQuality;"
    ><circle r="1.3333" style="stroke:none;" cx="0" cy="0"
    /></g
    ><g transform="translate(290,152.7308)" style="text-rendering:geometricPrecision; stroke-width:0.6667; color-interpolation:linearRGB; color-rendering:optimizeQuality; image-rendering:optimizeQuality;"
    ><circle r="1.3333" style="stroke:none;" cx="0" cy="0"
    /></g
    ><g transform="translate(290,173.3154)" style="text-rendering:geometricPrecision; stroke-width:0.6667; color-interpolation:linearRGB; color-rendering:optimizeQuality; image-rendering:optimizeQuality;"
    ><circle r="1.3333" style="stroke:none;" cx="0" cy="0"
    /></g
    ><g transform="translate(290,150.2999)" style="text-rendering:geometricPrecision; stroke-width:0.6667; color-interpolation:linearRGB; color-rendering:optimizeQuality; image-rendering:optimizeQuality;"
    ><circle r="1.3333" style="stroke:none;" cx="0" cy="0"
    /></g
    ><g transform="translate(290,162.2845)" style="text-rendering:geometricPrecision; stroke-width:0.6667; color-interpolation:linearRGB; color-rendering:optimizeQuality; image-rendering:optimizeQuality;"
    ><circle r="1.3333" style="stroke:none;" cx="0" cy="0"
    /></g
    ><g transform="translate(290,167.622)" style="text-rendering:geometricPrecision; stroke-width:0.6667; color-interpolation:linearRGB; color-rendering:optimizeQuality; image-rendering:optimizeQuality;"
    ><circle r="1.3333" style="stroke:none;" cx="0" cy="0"
    /></g
    ><g transform="translate(290,167.8896)" style="text-rendering:geometricPrecision; stroke-width:0.6667; color-interpolation:linearRGB; color-rendering:optimizeQuality; image-rendering:optimizeQuality;"
    ><circle r="1.3333" style="stroke:none;" cx="0" cy="0"
    /></g
    ><g transform="translate(290,169.0976)" style="text-rendering:geometricPrecision; stroke-width:0.6667; color-interpolation:linearRGB; color-rendering:optimizeQuality; image-rendering:optimizeQuality;"
    ><circle r="1.3333" style="stroke:none;" cx="0" cy="0"
    /></g
    ><g transform="translate(290,152.6895)" style="text-rendering:geometricPrecision; stroke-width:0.6667; color-interpolation:linearRGB; color-rendering:optimizeQuality; image-rendering:optimizeQuality;"
    ><circle r="1.3333" style="stroke:none;" cx="0" cy="0"
    /></g
    ><g transform="translate(290,168.4708)" style="text-rendering:geometricPrecision; stroke-width:0.6667; color-interpolation:linearRGB; color-rendering:optimizeQuality; image-rendering:optimizeQuality;"
    ><circle r="1.3333" style="stroke:none;" cx="0" cy="0"
    /></g
    ><g transform="translate(290,155.3289)" style="text-rendering:geometricPrecision; stroke-width:0.6667; color-interpolation:linearRGB; color-rendering:optimizeQuality; image-rendering:optimizeQuality;"
    ><circle r="1.3333" style="stroke:none;" cx="0" cy="0"
    /></g
    ><g transform="translate(333.4,166.5814)" style="text-rendering:geometricPrecision; stroke-width:0.6667; color-interpolation:linearRGB; color-rendering:optimizeQuality; image-rendering:optimizeQuality;"
    ><circle r="1.3333" style="stroke:none;" cx="0" cy="0"
    /></g
    ><g transform="translate(333.4,191.3229)" style="text-rendering:geometricPrecision; stroke-width:0.6667; color-interpolation:linearRGB; color-rendering:optimizeQuality; image-rendering:optimizeQuality;"
    ><circle r="1.3333" style="stroke:none;" cx="0" cy="0"
    /></g
    ><g transform="translate(333.4,163.8398)" style="text-rendering:geometricPrecision; stroke-width:0.6667; color-interpolation:linearRGB; color-rendering:optimizeQuality; image-rendering:optimizeQuality;"
    ><circle r="1.3333" style="stroke:none;" cx="0" cy="0"
    /></g
    ><g transform="translate(333.4,178.3669)" style="text-rendering:geometricPrecision; stroke-width:0.6667; color-interpolation:linearRGB; color-rendering:optimizeQuality; image-rendering:optimizeQuality;"
    ><circle r="1.3333" style="stroke:none;" cx="0" cy="0"
    /></g
    ><g transform="translate(333.4,184.7463)" style="text-rendering:geometricPrecision; stroke-width:0.6667; color-interpolation:linearRGB; color-rendering:optimizeQuality; image-rendering:optimizeQuality;"
    ><circle r="1.3333" style="stroke:none;" cx="0" cy="0"
    /></g
    ><g transform="translate(333.4,185.1569)" style="text-rendering:geometricPrecision; stroke-width:0.6667; color-interpolation:linearRGB; color-rendering:optimizeQuality; image-rendering:optimizeQuality;"
    ><circle r="1.3333" style="stroke:none;" cx="0" cy="0"
    /></g
    ><g transform="translate(333.4,186.4613)" style="text-rendering:geometricPrecision; stroke-width:0.6667; color-interpolation:linearRGB; color-rendering:optimizeQuality; image-rendering:optimizeQuality;"
    ><circle r="1.3333" style="stroke:none;" cx="0" cy="0"
    /></g
    ><g transform="translate(333.4,166.5001)" style="text-rendering:geometricPrecision; stroke-width:0.6667; color-interpolation:linearRGB; color-rendering:optimizeQuality; image-rendering:optimizeQuality;"
    ><circle r="1.3333" style="stroke:none;" cx="0" cy="0"
    /></g
    ><g transform="translate(333.4,185.6339)" style="text-rendering:geometricPrecision; stroke-width:0.6667; color-interpolation:linearRGB; color-rendering:optimizeQuality; image-rendering:optimizeQuality;"
    ><circle r="1.3333" style="stroke:none;" cx="0" cy="0"
    /></g
    ><g transform="translate(333.4,169.9111)" style="text-rendering:geometricPrecision; stroke-width:0.6667; color-interpolation:linearRGB; color-rendering:optimizeQuality; image-rendering:optimizeQuality;"
    ><circle r="1.3333" style="stroke:none;" cx="0" cy="0"
    /></g
    ><g transform="translate(376.8,185.801)" style="text-rendering:geometricPrecision; stroke-width:0.6667; color-interpolation:linearRGB; color-rendering:optimizeQuality; image-rendering:optimizeQuality;"
    ><circle r="1.3333" style="stroke:none;" cx="0" cy="0"
    /></g
    ><g transform="translate(376.8,214.6994)" style="text-rendering:geometricPrecision; stroke-width:0.6667; color-interpolation:linearRGB; color-rendering:optimizeQuality; image-rendering:optimizeQuality;"
    ><circle r="1.3333" style="stroke:none;" cx="0" cy="0"
    /></g
    ><g transform="translate(376.8,182.7485)" style="text-rendering:geometricPrecision; stroke-width:0.6667; color-interpolation:linearRGB; color-rendering:optimizeQuality; image-rendering:optimizeQuality;"
    ><circle r="1.3333" style="stroke:none;" cx="0" cy="0"
    /></g
    ><g transform="translate(376.8,199.8182)" style="text-rendering:geometricPrecision; stroke-width:0.6667; color-interpolation:linearRGB; color-rendering:optimizeQuality; image-rendering:optimizeQuality;"
    ><circle r="1.3333" style="stroke:none;" cx="0" cy="0"
    /></g
    ><g transform="translate(376.8,207.2396)" style="text-rendering:geometricPrecision; stroke-width:0.6667; color-interpolation:linearRGB; color-rendering:optimizeQuality; image-rendering:optimizeQuality;"
    ><circle r="1.3333" style="stroke:none;" cx="0" cy="0"
    /></g
    ><g transform="translate(376.8,207.7931)" style="text-rendering:geometricPrecision; stroke-width:0.6667; color-interpolation:linearRGB; color-rendering:optimizeQuality; image-rendering:optimizeQuality;"
    ><circle r="1.3333" style="stroke:none;" cx="0" cy="0"
    /></g
    ><g transform="translate(376.8,209.1939)" style="text-rendering:geometricPrecision; stroke-width:0.6667; color-interpolation:linearRGB; color-rendering:optimizeQuality; image-rendering:optimizeQuality;"
    ><circle r="1.3333" style="stroke:none;" cx="0" cy="0"
    /></g
    ><g transform="translate(376.8,185.6797)" style="text-rendering:geometricPrecision; stroke-width:0.6667; color-interpolation:linearRGB; color-rendering:optimizeQuality; image-rendering:optimizeQuality;"
    ><circle r="1.3333" style="stroke:none;" cx="0" cy="0"
    /></g
    ><g transform="translate(376.8,208.166)" style="text-rendering:geometricPrecision; stroke-width:0.6667; color-interpolation:linearRGB; color-rendering:optimizeQuality; image-rendering:optimizeQuality;"
    ><circle r="1.3333" style="stroke:none;" cx="0" cy="0"
    /></g
    ><g transform="translate(376.8,189.8622)" style="text-rendering:geometricPrecision; stroke-width:0.6667; color-interpolation:linearRGB; color-rendering:optimizeQuality; image-rendering:optimizeQuality;"
    ><circle r="1.3333" style="stroke:none;" cx="0" cy="0"
    /></g
    ><g transform="translate(420.2,210.3894)" style="text-rendering:geometricPrecision; stroke-width:0.6667; color-interpolation:linearRGB; color-rendering:optimizeQuality; image-rendering:optimizeQuality;"
    ><circle r="1.3333" style="stroke:none;" cx="0" cy="0"
    /></g
    ><g transform="translate(420.2,243.4447)" style="text-rendering:geometricPrecision; stroke-width:0.6667; color-interpolation:linearRGB; color-rendering:optimizeQuality; image-rendering:optimizeQuality;"
    ><circle r="1.3333" style="stroke:none;" cx="0" cy="0"
    /></g
    ><g transform="translate(420.2,207.0261)" style="text-rendering:geometricPrecision; stroke-width:0.6667; color-interpolation:linearRGB; color-rendering:optimizeQuality; image-rendering:optimizeQuality;"
    ><circle r="1.3333" style="stroke:none;" cx="0" cy="0"
    /></g
    ><g transform="translate(420.2,226.6384)" style="text-rendering:geometricPrecision; stroke-width:0.6667; color-interpolation:linearRGB; color-rendering:optimizeQuality; image-rendering:optimizeQuality;"
    ><circle r="1.3333" style="stroke:none;" cx="0" cy="0"
    /></g
    ><g transform="translate(420.2,235.1017)" style="text-rendering:geometricPrecision; stroke-width:0.6667; color-interpolation:linearRGB; color-rendering:optimizeQuality; image-rendering:optimizeQuality;"
    ><circle r="1.3333" style="stroke:none;" cx="0" cy="0"
    /></g
    ><g transform="translate(420.2,235.7981)" style="text-rendering:geometricPrecision; stroke-width:0.6667; color-interpolation:linearRGB; color-rendering:optimizeQuality; image-rendering:optimizeQuality;"
    ><circle r="1.3333" style="stroke:none;" cx="0" cy="0"
    /></g
    ><g transform="translate(420.2,237.2954)" style="text-rendering:geometricPrecision; stroke-width:0.6667; color-interpolation:linearRGB; color-rendering:optimizeQuality; image-rendering:optimizeQuality;"
    ><circle r="1.3333" style="stroke:none;" cx="0" cy="0"
    /></g
    ><g transform="translate(420.2,210.2281)" style="text-rendering:geometricPrecision; stroke-width:0.6667; color-interpolation:linearRGB; color-rendering:optimizeQuality; image-rendering:optimizeQuality;"
    ><circle r="1.3333" style="stroke:none;" cx="0" cy="0"
    /></g
    ><g transform="translate(420.2,236.0669)" style="text-rendering:geometricPrecision; stroke-width:0.6667; color-interpolation:linearRGB; color-rendering:optimizeQuality; image-rendering:optimizeQuality;"
    ><circle r="1.3333" style="stroke:none;" cx="0" cy="0"
    /></g
    ><g transform="translate(420.2,215.1821)" style="text-rendering:geometricPrecision; stroke-width:0.6667; color-interpolation:linearRGB; color-rendering:optimizeQuality; image-rendering:optimizeQuality;"
    ><circle r="1.3333" style="stroke:none;" cx="0" cy="0"
    /></g
    ><g transform="translate(463.6,240.3467)" style="text-rendering:geometricPrecision; stroke-width:0.6667; color-interpolation:linearRGB; color-rendering:optimizeQuality; image-rendering:optimizeQuality;"
    ><circle r="1.3333" style="stroke:none;" cx="0" cy="0"
    /></g
    ><g transform="translate(463.6,277.559)" style="text-rendering:geometricPrecision; stroke-width:0.6667; color-interpolation:linearRGB; color-rendering:optimizeQuality; image-rendering:optimizeQuality;"
    ><circle r="1.3333" style="stroke:none;" cx="0" cy="0"
    /></g
    ><g transform="translate(463.6,236.6726)" style="text-rendering:geometricPrecision; stroke-width:0.6667; color-interpolation:linearRGB; color-rendering:optimizeQuality; image-rendering:optimizeQuality;"
    ><circle r="1.3333" style="stroke:none;" cx="0" cy="0"
    /></g
    ><g transform="translate(463.6,258.8275)" style="text-rendering:geometricPrecision; stroke-width:0.6667; color-interpolation:linearRGB; color-rendering:optimizeQuality; image-rendering:optimizeQuality;"
    ><circle r="1.3333" style="stroke:none;" cx="0" cy="0"
    /></g
    ><g transform="translate(463.6,268.3328)" style="text-rendering:geometricPrecision; stroke-width:0.6667; color-interpolation:linearRGB; color-rendering:optimizeQuality; image-rendering:optimizeQuality;"
    ><circle r="1.3333" style="stroke:none;" cx="0" cy="0"
    /></g
    ><g transform="translate(463.6,269.1721)" style="text-rendering:geometricPrecision; stroke-width:0.6667; color-interpolation:linearRGB; color-rendering:optimizeQuality; image-rendering:optimizeQuality;"
    ><circle r="1.3333" style="stroke:none;" cx="0" cy="0"
    /></g
    ><g transform="translate(463.6,270.7658)" style="text-rendering:geometricPrecision; stroke-width:0.6667; color-interpolation:linearRGB; color-rendering:optimizeQuality; image-rendering:optimizeQuality;"
    ><circle r="1.3333" style="stroke:none;" cx="0" cy="0"
    /></g
    ><g transform="translate(463.6,240.1455)" style="text-rendering:geometricPrecision; stroke-width:0.6667; color-interpolation:linearRGB; color-rendering:optimizeQuality; image-rendering:optimizeQuality;"
    ><circle r="1.3333" style="stroke:none;" cx="0" cy="0"
    /></g
    ><g transform="translate(463.6,269.3367)" style="text-rendering:geometricPrecision; stroke-width:0.6667; color-interpolation:linearRGB; color-rendering:optimizeQuality; image-rendering:optimizeQuality;"
    ><circle r="1.3333" style="stroke:none;" cx="0" cy="0"
    /></g
    ><g transform="translate(463.6,245.871)" style="text-rendering:geometricPrecision; stroke-width:0.6667; color-interpolation:linearRGB; color-rendering:optimizeQuality; image-rendering:optimizeQuality;"
    ><circle r="1.3333" style="stroke:none;" cx="0" cy="0"
    /></g
    ><g transform="translate(507,275.673)" style="text-rendering:geometricPrecision; stroke-width:0.6667; color-interpolation:linearRGB; color-rendering:optimizeQuality; image-rendering:optimizeQuality;"
    ><circle r="1.3333" style="stroke:none;" cx="0" cy="0"
    /></g
    ><g transform="translate(507,317.0421)" style="text-rendering:geometricPrecision; stroke-width:0.6667; color-interpolation:linearRGB; color-rendering:optimizeQuality; image-rendering:optimizeQuality;"
    ><circle r="1.3333" style="stroke:none;" cx="0" cy="0"
    /></g
    ><g transform="translate(507,271.6881)" style="text-rendering:geometricPrecision; stroke-width:0.6667; color-interpolation:linearRGB; color-rendering:optimizeQuality; image-rendering:optimizeQuality;"
    ><circle r="1.3333" style="stroke:none;" cx="0" cy="0"
    /></g
    ><g transform="translate(507,296.3856)" style="text-rendering:geometricPrecision; stroke-width:0.6667; color-interpolation:linearRGB; color-rendering:optimizeQuality; image-rendering:optimizeQuality;"
    ><circle r="1.3333" style="stroke:none;" cx="0" cy="0"
    /></g
    ><g transform="translate(507,306.9327)" style="text-rendering:geometricPrecision; stroke-width:0.6667; color-interpolation:linearRGB; color-rendering:optimizeQuality; image-rendering:optimizeQuality;"
    ><circle r="1.3333" style="stroke:none;" cx="0" cy="0"
    /></g
    ><g transform="translate(507,307.9149)" style="text-rendering:geometricPrecision; stroke-width:0.6667; color-interpolation:linearRGB; color-rendering:optimizeQuality; image-rendering:optimizeQuality;"
    ><circle r="1.3333" style="stroke:none;" cx="0" cy="0"
    /></g
    ><g transform="translate(507,309.6052)" style="text-rendering:geometricPrecision; stroke-width:0.6667; color-interpolation:linearRGB; color-rendering:optimizeQuality; image-rendering:optimizeQuality;"
    ><circle r="1.3333" style="stroke:none;" cx="0" cy="0"
    /></g
    ><g transform="translate(507,275.4317)" style="text-rendering:geometricPrecision; stroke-width:0.6667; color-interpolation:linearRGB; color-rendering:optimizeQuality; image-rendering:optimizeQuality;"
    ><circle r="1.3333" style="stroke:none;" cx="0" cy="0"
    /></g
    ><g transform="translate(507,307.9754)" style="text-rendering:geometricPrecision; stroke-width:0.6667; color-interpolation:linearRGB; color-rendering:optimizeQuality; image-rendering:optimizeQuality;"
    ><circle r="1.3333" style="stroke:none;" cx="0" cy="0"
    /></g
    ><g transform="translate(507,281.9288)" style="text-rendering:geometricPrecision; stroke-width:0.6667; color-interpolation:linearRGB; color-rendering:optimizeQuality; image-rendering:optimizeQuality;"
    ><circle r="1.3333" style="stroke:none;" cx="0" cy="0"
    /></g
    ><g style="fill:white; text-rendering:optimizeSpeed; color-rendering:optimizeSpeed; image-rendering:optimizeSpeed; shape-rendering:crispEdges; stroke:white; color-interpolation:sRGB;"
    ><path style="stroke:none;" d="M496 78 L496 42 L382 42 L382 78 Z"
    /></g
    ><g style="text-rendering:geometricPrecision; color-rendering:optimizeQuality; color-interpolation:linearRGB; image-rendering:optimizeQuality;" transform="translate(429,51.863)"
    ><path style="stroke:none;" d="M0.9219 5 L0.9219 -3.5938 L2.0781 -3.5938 L6.5938 3.1562 L6.5938 -3.5938 L7.6875 -3.5938 L7.6875 5 L6.5156 5 L2 -1.75 L2 5 L0.9219 5 ZM9.5566 5 L9.5566 -3.5938 L11.2754 -3.5938 L13.3066 2.4844 Q13.5879 3.3438 13.7129 3.7656 Q13.8535 3.2969 14.166 2.3906 L16.2285 -3.5938 L17.7598 -3.5938 L17.7598 5 L16.666 5 L16.666 -2.1875 L14.166 5 L13.1348 5 L10.6504 -2.3125 L10.6504 5 L9.5566 5 ZM18.6465 5 L21.9434 -3.5938 L23.1621 -3.5938 L26.6777 5 L25.3965 5 L24.3809 2.3906 L20.8027 2.3906 L19.8496 5 L18.6465 5 ZM21.1309 1.4688 L24.0371 1.4688 L23.1465 -0.9062 Q22.7246 -1.9844 22.5371 -2.6875 Q22.3652 -1.8594 22.0684 -1.0469 L21.1309 1.4688 ZM33.7285 1.9844 L34.8535 2.2812 Q34.4941 3.6719 33.5723 4.4062 Q32.6504 5.1406 31.3066 5.1406 Q29.916 5.1406 29.041 4.5781 Q28.166 4.0156 27.7129 2.9453 Q27.2598 1.875 27.2598 0.6406 Q27.2598 -0.7031 27.7754 -1.7031 Q28.291 -2.7031 29.2363 -3.2188 Q30.1816 -3.7344 31.3223 -3.7344 Q32.6035 -3.7344 33.4863 -3.0781 Q34.3691 -2.4219 34.7129 -1.2344 L33.5879 -0.9688 Q33.291 -1.9062 32.7207 -2.3359 Q32.1504 -2.7656 31.291 -2.7656 Q30.3066 -2.7656 29.6426 -2.2891 Q28.9785 -1.8125 28.7051 -1.0156 Q28.4316 -0.2188 28.4316 0.6406 Q28.4316 1.7344 28.752 2.5469 Q29.0723 3.3594 29.7441 3.7656 Q30.416 4.1719 31.2129 4.1719 Q32.166 4.1719 32.8301 3.625 Q33.4941 3.0781 33.7285 1.9844 Z"
    /></g
    ><g style="fill-opacity:0.502; fill:rgb(204,0,0); text-rendering:optimizeSpeed; image-rendering:optimizeSpeed; color-rendering:optimizeSpeed; shape-rendering:crispEdges; stroke:rgb(204,0,0); color-interpolation:sRGB; stroke-opacity:0.502;"
    ><path style="stroke:none;" d="M426 57.7808 L426 45.9452 L386 45.9452 L386 57.7808 Z"
    /></g
    ><g style="stroke-linecap:butt; fill:rgb(204,0,0); text-rendering:geometricPrecision; color-rendering:optimizeQuality; image-rendering:optimizeQuality; stroke:rgb(204,0,0); color-interpolation:linearRGB; stroke-width:0.6667;"
    ><path d="M386 57.7808 L386 45.9452 L426 45.9452 L426 57.7808 Z" style="fill:none; fill-rule:evenodd;"
    /></g
    ><g style="text-rendering:geometricPrecision; color-rendering:optimizeQuality; color-interpolation:linearRGB; image-rendering:optimizeQuality;" transform="translate(429,68.137)"
    ><path style="stroke:none;" d="M0.5469 2.2344 L1.6094 2.1406 Q1.6875 2.7969 1.9688 3.2031 Q2.25 3.6094 2.8359 3.8672 Q3.4219 4.125 4.1562 4.125 Q4.7969 4.125 5.2969 3.9297 Q5.7969 3.7344 6.0391 3.3984 Q6.2812 3.0625 6.2812 2.6719 Q6.2812 2.2656 6.0469 1.9609 Q5.8125 1.6562 5.2812 1.4531 Q4.9219 1.3125 3.7422 1.0312 Q2.5625 0.75 2.0938 0.5 Q1.4688 0.1719 1.1719 -0.3047 Q0.875 -0.7812 0.875 -1.375 Q0.875 -2.0156 1.2422 -2.5859 Q1.6094 -3.1562 2.3203 -3.4453 Q3.0312 -3.7344 3.8906 -3.7344 Q4.8438 -3.7344 5.5781 -3.4297 Q6.3125 -3.125 6.7031 -2.5234 Q7.0938 -1.9219 7.125 -1.1719 L6.0312 -1.0938 Q5.9375 -1.9062 5.4297 -2.3203 Q4.9219 -2.7344 3.9375 -2.7344 Q2.9062 -2.7344 2.4375 -2.3594 Q1.9688 -1.9844 1.9688 -1.4531 Q1.9688 -0.9844 2.2969 -0.6875 Q2.625 -0.3906 4.0078 -0.0781 Q5.3906 0.2344 5.9062 0.4688 Q6.6562 0.8281 7.0156 1.3516 Q7.375 1.875 7.375 2.5781 Q7.375 3.2656 6.9844 3.8672 Q6.5938 4.4688 5.8594 4.8047 Q5.125 5.1406 4.2031 5.1406 Q3.0312 5.1406 2.2422 4.8047 Q1.4531 4.4688 1.0078 3.7812 Q0.5625 3.0938 0.5469 2.2344 ZM8.8008 -2.375 L8.8008 -3.5938 L9.8633 -3.5938 L9.8633 -2.375 L8.8008 -2.375 ZM8.8008 5 L8.8008 -1.2188 L9.8633 -1.2188 L9.8633 5 L8.8008 5 ZM11.4668 5 L11.4668 -1.2188 L12.4043 -1.2188 L12.4043 -0.3438 Q12.7012 -0.8125 13.1855 -1.0859 Q13.6699 -1.3594 14.2949 -1.3594 Q14.9824 -1.3594 15.4277 -1.0781 Q15.873 -0.7969 16.0449 -0.2812 Q16.7949 -1.3594 17.9668 -1.3594 Q18.9043 -1.3594 19.3965 -0.8516 Q19.8887 -0.3438 19.8887 0.7344 L19.8887 5 L18.8418 5 L18.8418 1.0781 Q18.8418 0.4531 18.7402 0.1719 Q18.6387 -0.1094 18.373 -0.2812 Q18.1074 -0.4531 17.7324 -0.4531 Q17.0762 -0.4531 16.6465 -0.0156 Q16.2168 0.4219 16.2168 1.3906 L16.2168 5 L15.1543 5 L15.1543 0.9531 Q15.1543 0.25 14.8965 -0.1016 Q14.6387 -0.4531 14.0605 -0.4531 Q13.6074 -0.4531 13.2324 -0.2188 Q12.8574 0.0156 12.6855 0.4688 Q12.5137 0.9219 12.5137 1.7656 L12.5137 5 L11.4668 5 ZM25.541 5 L25.541 4.0781 Q24.8066 5.1406 23.5566 5.1406 Q23.0098 5.1406 22.5332 4.9297 Q22.0566 4.7188 21.8223 4.3984 Q21.5879 4.0781 21.4941 3.6094 Q21.4316 3.3125 21.4316 2.625 L21.4316 -1.2188 L22.4941 -1.2188 L22.4941 2.2344 Q22.4941 3.0469 22.5566 3.3438 Q22.6504 3.75 22.9707 3.9922 Q23.291 4.2344 23.7754 4.2344 Q24.2441 4.2344 24.6582 3.9922 Q25.0723 3.75 25.252 3.3281 Q25.4316 2.9062 25.4316 2.1094 L25.4316 -1.2188 L26.4785 -1.2188 L26.4785 5 L25.541 5 ZM28.1055 5 L28.1055 -3.5938 L29.168 -3.5938 L29.168 5 L28.1055 5 ZM34.8652 4.2344 Q34.2715 4.7344 33.7324 4.9375 Q33.1934 5.1406 32.5684 5.1406 Q31.5371 5.1406 30.9902 4.6406 Q30.4434 4.1406 30.4434 3.3594 Q30.4434 2.9062 30.6465 2.5234 Q30.8496 2.1406 31.1934 1.9141 Q31.5371 1.6875 31.959 1.5781 Q32.2559 1.4844 32.8965 1.4062 Q34.1621 1.2656 34.7715 1.0469 Q34.7715 0.8281 34.7715 0.7812 Q34.7715 0.125 34.4746 -0.1406 Q34.0684 -0.4844 33.2715 -0.4844 Q32.5371 -0.4844 32.1777 -0.2266 Q31.8184 0.0312 31.6465 0.6875 L30.6152 0.5469 Q30.7559 -0.1094 31.084 -0.5156 Q31.4121 -0.9219 32.0215 -1.1406 Q32.6309 -1.3594 33.4277 -1.3594 Q34.2246 -1.3594 34.7246 -1.1719 Q35.2246 -0.9844 35.459 -0.7031 Q35.6934 -0.4219 35.7871 0.0156 Q35.834 0.2812 35.834 0.9844 L35.834 2.3906 Q35.834 3.8594 35.9043 4.25 Q35.9746 4.6406 36.1777 5 L35.0684 5 Q34.9121 4.6719 34.8652 4.2344 ZM34.7715 1.875 Q34.1934 2.1094 33.0527 2.2812 Q32.3965 2.375 32.1309 2.4922 Q31.8652 2.6094 31.7168 2.8281 Q31.5684 3.0469 31.5684 3.3281 Q31.5684 3.75 31.8887 4.0312 Q32.209 4.3125 32.8184 4.3125 Q33.4277 4.3125 33.9043 4.0469 Q34.3809 3.7812 34.5996 3.3125 Q34.7715 2.9531 34.7715 2.2656 L34.7715 1.875 ZM39.7734 4.0625 L39.9297 4.9844 Q39.4766 5.0781 39.1328 5.0781 Q38.5547 5.0781 38.2422 4.8984 Q37.9297 4.7188 37.7969 4.4219 Q37.6641 4.125 37.6641 3.1719 L37.6641 -0.4062 L36.8984 -0.4062 L36.8984 -1.2188 L37.6641 -1.2188 L37.6641 -2.7656 L38.7109 -3.3906 L38.7109 -1.2188 L39.7734 -1.2188 L39.7734 -0.4062 L38.7109 -0.4062 L38.7109 3.2344 Q38.7109 3.6875 38.7656 3.8125 Q38.8203 3.9375 38.9453 4.0156 Q39.0703 4.0938 39.3047 4.0938 Q39.4922 4.0938 39.7734 4.0625 ZM40.8105 -2.375 L40.8105 -3.5938 L41.873 -3.5938 L41.873 -2.375 L40.8105 -2.375 ZM40.8105 5 L40.8105 -1.2188 L41.873 -1.2188 L41.873 5 L40.8105 5 ZM43.0859 1.8906 Q43.0859 0.1562 44.0391 -0.6719 Q44.8359 -1.3594 45.9922 -1.3594 Q47.2734 -1.3594 48.0938 -0.5234 Q48.9141 0.3125 48.9141 1.7969 Q48.9141 3 48.5547 3.6875 Q48.1953 4.375 47.5 4.7578 Q46.8047 5.1406 45.9922 5.1406 Q44.6953 5.1406 43.8906 4.3047 Q43.0859 3.4688 43.0859 1.8906 ZM44.1641 1.8906 Q44.1641 3.0781 44.6875 3.6719 Q45.2109 4.2656 45.9922 4.2656 Q46.7891 4.2656 47.3047 3.6719 Q47.8203 3.0781 47.8203 1.8594 Q47.8203 0.7031 47.2969 0.1094 Q46.7734 -0.4844 45.9922 -0.4844 Q45.2109 -0.4844 44.6875 0.1016 Q44.1641 0.6875 44.1641 1.8906 ZM50.1504 5 L50.1504 -1.2188 L51.0879 -1.2188 L51.0879 -0.3438 Q51.7754 -1.3594 53.0723 -1.3594 Q53.6348 -1.3594 54.1113 -1.1562 Q54.5879 -0.9531 54.8223 -0.625 Q55.0566 -0.2969 55.1504 0.1406 Q55.1973 0.4375 55.1973 1.1719 L55.1973 5 L54.1504 5 L54.1504 1.2188 Q54.1504 0.5625 54.0254 0.25 Q53.9004 -0.0625 53.5879 -0.2578 Q53.2754 -0.4531 52.8535 -0.4531 Q52.1816 -0.4531 51.6895 -0.0234 Q51.1973 0.4062 51.1973 1.5938 L51.1973 5 L50.1504 5 ZM56.4023 3.1406 L57.4336 2.9844 Q57.5273 3.6094 57.9258 3.9375 Q58.3242 4.2656 59.0586 4.2656 Q59.7773 4.2656 60.1289 3.9766 Q60.4805 3.6875 60.4805 3.2812 Q60.4805 2.9219 60.168 2.7188 Q59.9492 2.5781 59.0898 2.3594 Q57.9336 2.0625 57.4883 1.8516 Q57.043 1.6406 56.8086 1.2656 Q56.5742 0.8906 56.5742 0.4219 Q56.5742 0.0156 56.7617 -0.3438 Q56.9492 -0.7031 57.2773 -0.9375 Q57.5273 -1.1094 57.9492 -1.2344 Q58.3711 -1.3594 58.8711 -1.3594 Q59.5898 -1.3594 60.1445 -1.1484 Q60.6992 -0.9375 60.9648 -0.5781 Q61.2305 -0.2188 61.3242 0.375 L60.293 0.5156 Q60.2305 0.0469 59.8945 -0.2266 Q59.5586 -0.5 58.9336 -0.5 Q58.2148 -0.5 57.9023 -0.2578 Q57.5898 -0.0156 57.5898 0.3125 Q57.5898 0.5156 57.7148 0.6719 Q57.8555 0.8438 58.1211 0.9531 Q58.2773 1.0156 59.0586 1.2188 Q60.1836 1.5312 60.6211 1.7188 Q61.0586 1.9062 61.3086 2.2656 Q61.5586 2.625 61.5586 3.1719 Q61.5586 3.7031 61.2539 4.1641 Q60.9492 4.625 60.3711 4.8828 Q59.793 5.1406 59.0586 5.1406 Q57.8398 5.1406 57.207 4.6328 Q56.5742 4.125 56.4023 3.1406 Z"
    /></g
    ><g transform="translate(406,68.137)" style="stroke-linecap:butt; text-rendering:geometricPrecision; color-rendering:optimizeQuality; image-rendering:optimizeQuality; color-interpolation:linearRGB; stroke-width:0.6667;"
    ><circle r="1.3333" style="stroke:none;" cx="0" cy="0"
    /></g
    ><g style="stroke-linecap:butt; fill:rgb(38,38,38); text-rendering:geometricPrecision; color-rendering:optimizeQuality; image-rendering:optimizeQuality; stroke:rgb(38,38,38); color-interpolation:linearRGB; stroke-width:0.6667;"
    ><path d="M382 78 L382 42 L496 42 L496 78 Z" style="fill:none; fill-rule:evenodd;"
    /></g
  ></g
></svg
>
