model,property,algorithm,seed,simulations,time,robustness,falsified,control points,exploration ratio,budget
Autotrans_shift,"□_[0.0, 20.0] (speed < 120.0)",adaptive,0,29.0,41.0,-0.21327149261522038,yes,"2 2 3 3 3 4",0.25,300
Autotrans_shift,"□_[0.0, 20.0] (speed < 120.0)",adaptive,-6046014611969325073,4.0,0.0,-0.21327149261522038,yes,"2 2 3 3 3 4",0.25,300
Autotrans_shift,"□_[0.0, 20.0] (speed < 120.0)",adaptive,-9078758710300016934,16.0,3.0,-0.21327149261522038,yes,"2 2 3 3 3 4",0.25,300
Autotrans_shift,"□_[0.0, 20.0] (speed < 120.0)",adaptive,-2482467755781151081,12.0,2.0,-0.21327149261522038,yes,"2 2 3 3 3 4",0.25,300
Autotrans_shift,"□_[0.0, 20.0] (speed < 120.0)",adaptive,-197462888932718759,11.0,2.0,-0.21327149261522038,yes,"2 2 3 3 3 4",0.25,300
Autotrans_shift,"□_[0.0, 20.0] (speed < 120.0)",adaptive,5559593279071604640,4.0,0.0,-0.21327149261522038,yes,"2 2 3 3 3 4",0.25,300
Autotrans_shift,"□_[0.0, 20.0] (speed < 120.0)",adaptive,-5192759679700157581,21.0,4.0,-0.21327149261522038,yes,"2 2 3 3 3 4",0.25,300
Autotrans_shift,"□_[0.0, 20.0] (speed < 120.0)",adaptive,-3025916379029310055,79.0,16.0,-0.21327149261522038,yes,"2 2 3 3 3 4",0.25,300
Autotrans_shift,"□_[0.0, 20.0] (speed < 120.0)",adaptive,-2069846965613319797,60.0,12.0,-0.21327149261522038,yes,"2 2 3 3 3 4",0.25,300
Autotrans_shift,"□_[0.0, 20.0] (speed < 120.0)",adaptive,992788443752001958,26.0,5.0,-0.21327149261522038,yes,"2 2 3 3 3 4",0.25,300
Autotrans_shift,"□_[0.0, 20.0] (speed < 120.0)",adaptive,-3449361682836016161,54.0,11.0,-0.21327149261522038,yes,"2 2 3 3 3 4",0.25,300
Autotrans_shift,"□_[0.0, 20.0] (speed < 120.0)",adaptive,5361864221729929429,30.0,6.0,-0.21327149261522038,yes,"2 2 3 3 3 4",0.25,300
Autotrans_shift,"□_[0.0, 20.0] (speed < 120.0)",adaptive,-8148577010231174355,72.0,14.0,-0.21327149261522038,yes,"2 2 3 3 3 4",0.25,300
Autotrans_shift,"□_[0.0, 20.0] (speed < 120.0)",adaptive,8701397636680042118,65.0,13.0,-0.21327149261522038,yes,"2 2 3 3 3 4",0.25,300
Autotrans_shift,"□_[0.0, 20.0] (speed < 120.0)",adaptive,7389485913191450272,4.0,0.0,-0.21327149261522038,yes,"2 2 3 3 3 4",0.25,300
Autotrans_shift,"□_[0.0, 20.0] (speed < 120.0)",adaptive,7006346025570557767,35.0,8.0,-0.21327149261522038,yes,"2 2 3 3 3 4",0.25,300
Autotrans_shift,"□_[0.0, 20.0] (speed < 120.0)",adaptive,6716203364041858801,34.0,7.0,-0.21327149261522038,yes,"2 2 3 3 3 4",0.25,300
Autotrans_shift,"□_[0.0, 20.0] (speed < 120.0)",adaptive,8820477676737418022,7.0,1.0,-0.21327149261522038,yes,"2 2 3 3 3 4",0.25,300
Autotrans_shift,"□_[0.0, 20.0] (speed < 120.0)",adaptive,7098420300395192962,24.0,4.0,-0.21327149261522038,yes,"2 2 3 3 3 4",0.25,300
Autotrans_shift,"□_[0.0, 20.0] (speed < 120.0)",adaptive,6379330701530282081,4.0,0.0,-0.21327149261522038,yes,"2 2 3 3 3 4",0.25,300
Autotrans_shift,"□_[0.0, 20.0] (speed < 120.0)",adaptive,1298007760136440863,45.0,9.0,-0.21327149261522038,yes,"2 2 3 3 3 4",0.25,300
Autotrans_shift,"□_[0.0, 20.0] (speed < 120.0)",adaptive,1601215376691316353,28.0,5.0,-0.21327149261522038,yes,"2 2 3 3 3 4",0.25,300
Autotrans_shift,"□_[0.0, 20.0] (speed < 120.0)",adaptive,-5070012556854419496,33.0,6.0,-0.21327149261522038,yes,"2 2 3 3 3 4",0.25,300
Autotrans_shift,"□_[0.0, 20.0] (speed < 120.0)",adaptive,-834209753598042341,11.0,2.0,-0.21327149261522038,yes,"2 2 3 3 3 4",0.25,300
Autotrans_shift,"□_[0.0, 20.0] (speed < 120.0)",adaptive,-3971387621194655382,69.0,14.0,-0.21327149261522038,yes,"2 2 3 3 3 4",0.25,300
Autotrans_shift,"□_[0.0, 20.0] (speed < 120.0)",adaptive,2222723153042206546,28.0,5.0,-0.21327149261522038,yes,"2 2 3 3 3 4",0.25,300
Autotrans_shift,"□_[0.0, 20.0] (speed < 120.0)",adaptive,-4105928735576297165,4.0,0.0,-0.21327149261522038,yes,"2 2 3 3 3 4",0.25,300
Autotrans_shift,"□_[0.0, 20.0] (speed < 120.0)",adaptive,-9165308527115359381,62.0,13.0,-0.21327149261522038,yes,"2 2 3 3 3 4",0.25,300
Autotrans_shift,"□_[0.0, 20.0] (speed < 120.0)",adaptive,-6407712618341057477,13.0,2.0,-0.21327149261522038,yes,"2 2 3 3 3 4",0.25,300
Autotrans_shift,"□_[0.0, 20.0] (speed < 120.0)",adaptive,8454134109028695742,86.0,18.0,-0.21327149261522038,yes,"2 2 3 3 3 4",0.25,300
Autotrans_shift,"□_[0.0, 20.0] (speed < 120.0)",adaptive,3309526021164321867,30.0,6.0,-0.21327149261522038,yes,"2 2 3 3 3 4",0.25,300
Autotrans_shift,"□_[0.0, 20.0] (speed < 120.0)",adaptive,29954653427925881,75.0,21.0,-0.21327149261522038,yes,"2 2 3 3 3 4",0.25,300
Autotrans_shift,"□_[0.0, 20.0] (speed < 120.0)",adaptive,6451900898964861015,10.0,2.0,-0.21327149261522038,yes,"2 2 3 3 3 4",0.25,300
Autotrans_shift,"□_[0.0, 20.0] (speed < 120.0)",adaptive,-846514891834749793,3.0,0.0,-0.21327149261522038,yes,"2 2 3 3 3 4",0.25,300
Autotrans_shift,"□_[0.0, 20.0] (speed < 120.0)",adaptive,3174269809289396291,42.0,8.0,-0.21327149261522038,yes,"2 2 3 3 3 4",0.25,300
Autotrans_shift,"□_[0.0, 20.0] (speed < 120.0)",adaptive,-8856398533530285256,44.0,9.0,-0.21327149261522038,yes,"2 2 3 3 3 4",0.25,300
Autotrans_shift,"□_[0.0, 20.0] (speed < 120.0)",adaptive,-2134572631849323509,39.0,8.0,-0.21327149261522038,yes,"2 2 3 3 3 4",0.25,300
Autotrans_shift,"□_[0.0, 20.0] (speed < 120.0)",adaptive,2223882151210254426,31.0,6.0,-0.21327149261522038,yes,"2 2 3 3 3 4",0.25,300
Autotrans_shift,"□_[0.0, 20.0] (speed < 120.0)",adaptive,-7834156141774022744,48.0,10.0,-0.21327149261522038,yes,"2 2 3 3 3 4",0.25,300
Autotrans_shift,"□_[0.0, 20.0] (speed < 120.0)",adaptive,-5606788627798156790,10.0,2.0,-0.21327149261522038,yes,"2 2 3 3 3 4",0.25,300
Autotrans_shift,"□_[0.0, 20.0] (speed < 120.0)",adaptive,3552888248565866803,30.0,6.0,-0.21327149261522038,yes,"2 2 3 3 3 4",0.25,300
Autotrans_shift,"□_[0.0, 20.0] (speed < 120.0)",adaptive,2295397844300157309,39.0,8.0,-0.21327149261522038,yes,"2 2 3 3 3 4",0.25,300
Autotrans_shift,"□_[0.0, 20.0] (speed < 120.0)",adaptive,-1850266163211647659,4.0,0.0,-0.21327149261522038,yes,"2 2 3 3 3 4",0.25,300
Autotrans_shift,"□_[0.0, 20.0] (speed < 120.0)",adaptive,6889501112806684259,38.0,8.0,-0.21327149261522038,yes,"2 2 3 3 3 4",0.25,300
Autotrans_shift,"□_[0.0, 20.0] (speed < 120.0)",adaptive,3353849576788238783,32.0,6.0,-0.21327149261522038,yes,"2 2 3 3 3 4",0.25,300
Autotrans_shift,"□_[0.0, 20.0] (speed < 120.0)",adaptive,-5144538977978705977,18.0,3.0,-0.21327149261522038,yes,"2 2 3 3 3 4",0.25,300
Autotrans_shift,"□_[0.0, 20.0] (speed < 120.0)",adaptive,6535119281885713251,98.0,21.0,-0.21327149261522038,yes,"2 2 3 3 3 4",0.25,300
Autotrans_shift,"□_[0.0, 20.0] (speed < 120.0)",adaptive,1430362321975834256,13.0,2.0,-0.21327149261522038,yes,"2 2 3 3 3 4",0.25,300
Autotrans_shift,"□_[0.0, 20.0] (speed < 120.0)",adaptive,6984572496763951278,26.0,5.0,-0.21327149261522038,yes,"2 2 3 3 3 4",0.25,300
Autotrans_shift,"□_[0.0, 20.0] (speed < 120.0)",adaptive,-4016855349912212854,52.0,11.0,-0.21327149261522038,yes,"2 2 3 3 3 4",0.25,300
Autotrans_shift,"□_[0.0, 10.0] (RPM < 4750.0)",adaptive,0,1.0,0.0,-15.718428920079532,yes,"2 2 3 3 3 4",0.25,300
Autotrans_shift,"□_[0.0, 10.0] (RPM < 4750.0)",adaptive,6146794652083548235,1.0,0.0,-10.749508392743337,yes,"2 2 3 3 3 4",0.25,300
Autotrans_shift,"□_[0.0, 10.0] (RPM < 4750.0)",adaptive,-6733301439666538246,2.0,0.0,-15.718428920079532,yes,"2 2 3 3 3 4",0.25,300
Autotrans_shift,"□_[0.0, 10.0] (RPM < 4750.0)",adaptive,-6465841399621858491,2.0,0.0,-10.604781730522518,yes,"2 2 3 3 3 4",0.25,300
Autotrans_shift,"□_[0.0, 10.0] (RPM < 4750.0)",adaptive,4521366494727036541,11.0,2.0,-15.426391290000538,yes,"2 2 3 3 3 4",0.25,300
Autotrans_shift,"□_[0.0, 10.0] (RPM < 4750.0)",adaptive,6674616915846646353,4.0,0.0,-19.326735391085094,yes,"2 2 3 3 3 4",0.25,300
Autotrans_shift,"□_[0.0, 10.0] (RPM < 4750.0)",adaptive,606546020596227951,2.0,0.0,-13.297048615178937,yes,"2 2 3 3 3 4",0.25,300
Autotrans_shift,"□_[0.0, 10.0] (RPM < 4750.0)",adaptive,-5483491411071698541,1.0,0.0,-8.893349068970565,yes,"2 2 3 3 3 4",0.25,300
Autotrans_shift,"□_[0.0, 10.0] (RPM < 4750.0)",adaptive,-2299708616424295051,7.0,1.0,-10.604781730522518,yes,"2 2 3 3 3 4",0.25,300
Autotrans_shift,"□_[0.0, 10.0] (RPM < 4750.0)",adaptive,2732020142026709309,4.0,0.0,-17.239987214948087,yes,"2 2 3 3 3 4",0.25,300
Autotrans_shift,"□_[0.0, 10.0] (RPM < 4750.0)",adaptive,-7585825967035260782,10.0,2.0,-13.297048615178937,yes,"2 2 3 3 3 4",0.25,300
Autotrans_shift,"□_[0.0, 10.0] (RPM < 4750.0)",adaptive,-8152524646005591550,5.0,1.0,-18.277187862124265,yes,"2 2 3 3 3 4",0.25,300
Autotrans_shift,"□_[0.0, 10.0] (RPM < 4750.0)",adaptive,-7473932317940458374,7.0,1.0,-15.718428920079532,yes,"2 2 3 3 3 4",0.25,300
Autotrans_shift,"□_[0.0, 10.0] (RPM < 4750.0)",adaptive,-8793211094798789738,9.0,2.0,-8.368134344407736,yes,"2 2 3 3 3 4",0.25,300
Autotrans_shift,"□_[0.0, 10.0] (RPM < 4750.0)",adaptive,4481125598403488482,1.0,0.0,-8.912635125370798,yes,"2 2 3 3 3 4",0.25,300
Autotrans_shift,"□_[0.0, 10.0] (RPM < 4750.0)",adaptive,-3039404197633946580,4.0,1.0,-10.604781730522518,yes,"2 2 3 3 3 4",0.25,300
Autotrans_shift,"□_[0.0, 10.0] (RPM < 4750.0)",adaptive,-2325187553427475229,6.0,1.0,-19.220544555336346,yes,"2 2 3 3 3 4",0.25,300
Autotrans_shift,"□_[0.0, 10.0] (RPM < 4750.0)",adaptive,-8516506028031191203,5.0,1.0,-16.472046138934274,yes,"2 2 3 3 3 4",0.25,300
Autotrans_shift,"□_[0.0, 10.0] (RPM < 4750.0)",adaptive,8670479499528893883,5.0,1.0,-18.32258573724812,yes,"2 2 3 3 3 4",0.25,300
Autotrans_shift,"□_[0.0, 10.0] (RPM < 4750.0)",adaptive,-9190068360249649601,12.0,2.0,-15.333196188931652,yes,"2 2 3 3 3 4",0.25,300
Autotrans_shift,"□_[0.0, 10.0] (RPM < 4750.0)",adaptive,-6886338436543555858,1.0,0.0,-8.368134344407736,yes,"2 2 3 3 3 4",0.25,300
Autotrans_shift,"□_[0.0, 10.0] (RPM < 4750.0)",adaptive,3437793778393116717,3.0,0.0,-10.951234211292103,yes,"2 2 3 3 3 4",0.25,300
Autotrans_shift,"□_[0.0, 10.0] (RPM < 4750.0)",adaptive,8696555611170583047,5.0,1.0,-24.281267396941985,yes,"2 2 3 3 3 4",0.25,300
Autotrans_shift,"□_[0.0, 10.0] (RPM < 4750.0)",adaptive,-6271018395032473536,1.0,0.0,-16.726307815886685,yes,"2 2 3 3 3 4",0.25,300
Autotrans_shift,"□_[0.0, 10.0] (RPM < 4750.0)",adaptive,8933432547861858941,1.0,0.0,-18.277187862124265,yes,"2 2 3 3 3 4",0.25,300
Autotrans_shift,"□_[0.0, 10.0] (RPM < 4750.0)",adaptive,-4766123727623951376,3.0,0.0,-13.539604307255104,yes,"2 2 3 3 3 4",0.25,300
Autotrans_shift,"□_[0.0, 10.0] (RPM < 4750.0)",adaptive,-2413570125873934068,2.0,0.0,-10.951234211292103,yes,"2 2 3 3 3 4",0.25,300
Autotrans_shift,"□_[0.0, 10.0] (RPM < 4750.0)",adaptive,-8895151368333347972,6.0,1.0,-8.368134344407736,yes,"2 2 3 3 3 4",0.25,300
Autotrans_shift,"□_[0.0, 10.0] (RPM < 4750.0)",adaptive,-6333869239984855454,24.0,4.0,-8.368134344407736,yes,"2 2 3 3 3 4",0.25,300
Autotrans_shift,"□_[0.0, 10.0] (RPM < 4750.0)",adaptive,-7742764319305543322,1.0,0.0,-13.758039190960517,yes,"2 2 3 3 3 4",0.25,300
Autotrans_shift,"□_[0.0, 10.0] (RPM < 4750.0)",adaptive,-1469235186483746837,2.0,0.0,-8.368134344407736,yes,"2 2 3 3 3 4",0.25,300
Autotrans_shift,"□_[0.0, 10.0] (RPM < 4750.0)",adaptive,1464651142965045882,7.0,1.0,-13.758039190960517,yes,"2 2 3 3 3 4",0.25,300
Autotrans_shift,"□_[0.0, 10.0] (RPM < 4750.0)",adaptive,-4898591823156019280,2.0,0.0,-13.915763349854387,yes,"2 2 3 3 3 4",0.25,300
Autotrans_shift,"□_[0.0, 10.0] (RPM < 4750.0)",adaptive,4538901678278401702,11.0,2.0,-8.368134344407736,yes,"2 2 3 3 3 4",0.25,300
Autotrans_shift,"□_[0.0, 10.0] (RPM < 4750.0)",adaptive,-6198425356283634077,2.0,0.0,-10.951234211292103,yes,"2 2 3 3 3 4",0.25,300
Autotrans_shift,"□_[0.0, 10.0] (RPM < 4750.0)",adaptive,6771282013512740022,2.0,0.0,-9.632745201623038,yes,"2 2 3 3 3 4",0.25,300
Autotrans_shift,"□_[0.0, 10.0] (RPM < 4750.0)",adaptive,-2506880025727230570,3.0,0.0,-18.550352592799754,yes,"2 2 3 3 3 4",0.25,300
Autotrans_shift,"□_[0.0, 10.0] (RPM < 4750.0)",adaptive,-1763340073230530321,3.0,0.0,-13.57728640780806,yes,"2 2 3 3 3 4",0.25,300
Autotrans_shift,"□_[0.0, 10.0] (RPM < 4750.0)",adaptive,-2312832068740398094,1.0,0.0,-13.758039190960517,yes,"2 2 3 3 3 4",0.25,300
Autotrans_shift,"□_[0.0, 10.0] (RPM < 4750.0)",adaptive,960686067379547255,3.0,0.0,-21.018161762262935,yes,"2 2 3 3 3 4",0.25,300
Autotrans_shift,"□_[0.0, 10.0] (RPM < 4750.0)",adaptive,-2385774866012975701,1.0,0.0,-8.368134344407736,yes,"2 2 3 3 3 4",0.25,300
Autotrans_shift,"□_[0.0, 10.0] (RPM < 4750.0)",adaptive,-1359548806572268595,2.0,0.0,-10.604781730522518,yes,"2 2 3 3 3 4",0.25,300
Autotrans_shift,"□_[0.0, 10.0] (RPM < 4750.0)",adaptive,-8003394191372411771,2.0,0.0,-15.333196188931652,yes,"2 2 3 3 3 4",0.25,300
Autotrans_shift,"□_[0.0, 10.0] (RPM < 4750.0)",adaptive,8453127354025947674,2.0,0.0,-14.424230138041821,yes,"2 2 3 3 3 4",0.25,300
Autotrans_shift,"□_[0.0, 10.0] (RPM < 4750.0)",adaptive,-8279514686648367408,3.0,0.0,-15.333196188931652,yes,"2 2 3 3 3 4",0.25,300
Autotrans_shift,"□_[0.0, 10.0] (RPM < 4750.0)",adaptive,-1186949159698403552,6.0,1.0,-10.604781730522518,yes,"2 2 3 3 3 4",0.25,300
Autotrans_shift,"□_[0.0, 10.0] (RPM < 4750.0)",adaptive,895567938650437354,3.0,0.0,-24.47864690312599,yes,"2 2 3 3 3 4",0.25,300
Autotrans_shift,"□_[0.0, 10.0] (RPM < 4750.0)",adaptive,6917972298520039563,5.0,1.0,-18.277187862124265,yes,"2 2 3 3 3 4",0.25,300
Autotrans_shift,"□_[0.0, 10.0] (RPM < 4750.0)",adaptive,1975361475100569754,6.0,1.0,-10.604781730522518,yes,"2 2 3 3 3 4",0.25,300
Autotrans_shift,"□_[0.0, 10.0] (RPM < 4750.0)",adaptive,6953139598738523632,4.0,0.0,-15.333196188931652,yes,"2 2 3 3 3 4",0.25,300
Autotrans_shift,"□_[0.0, 30.0] (((gear != 1.0) && ◇_[0.001, 0.1] (gear == 1.0)) ==> ◇_[0.001, 0.1] □_[0.0, 2.5] (gear == 1.0))",adaptive,0,7.0,1.0,-Infinity,yes,"2 2 3 3 3 4",0.25,300
Autotrans_shift,"□_[0.0, 30.0] (((gear != 1.0) && ◇_[0.001, 0.1] (gear == 1.0)) ==> ◇_[0.001, 0.1] □_[0.0, 2.5] (gear == 1.0))",adaptive,-4279252706387493290,7.0,1.0,-Infinity,yes,"2 2 3 3 3 4",0.25,300
Autotrans_shift,"□_[0.0, 30.0] (((gear != 1.0) && ◇_[0.001, 0.1] (gear == 1.0)) ==> ◇_[0.001, 0.1] □_[0.0, 2.5] (gear == 1.0))",adaptive,-6122889597315263299,25.0,5.0,-Infinity,yes,"2 2 3 3 3 4",0.25,300
Autotrans_shift,"□_[0.0, 30.0] (((gear != 1.0) && ◇_[0.001, 0.1] (gear == 1.0)) ==> ◇_[0.001, 0.1] □_[0.0, 2.5] (gear == 1.0))",adaptive,937045810897734142,12.0,2.0,-Infinity,yes,"2 2 3 3 3 4",0.25,300
Autotrans_shift,"□_[0.0, 30.0] (((gear != 1.0) && ◇_[0.001, 0.1] (gear == 1.0)) ==> ◇_[0.001, 0.1] □_[0.0, 2.5] (gear == 1.0))",adaptive,-6494163744642878624,64.0,14.0,-Infinity,yes,"2 2 3 3 3 4",0.25,300
Autotrans_shift,"□_[0.0, 30.0] (((gear != 1.0) && ◇_[0.001, 0.1] (gear == 1.0)) ==> ◇_[0.001, 0.1] □_[0.0, 2.5] (gear == 1.0))",adaptive,-5171260340661368241,19.0,4.0,-Infinity,yes,"2 2 3 3 3 4",0.25,300
Autotrans_shift,"□_[0.0, 30.0] (((gear != 1.0) && ◇_[0.001, 0.1] (gear == 1.0)) ==> ◇_[0.001, 0.1] □_[0.0, 2.5] (gear == 1.0))",adaptive,-6393109570833684933,164.0,37.0,-Infinity,yes,"2 2 3 3 3 4",0.25,300
Autotrans_shift,"□_[0.0, 30.0] (((gear != 1.0) && ◇_[0.001, 0.1] (gear == 1.0)) ==> ◇_[0.001, 0.1] □_[0.0, 2.5] (gear == 1.0))",adaptive,-6942350096463080104,246.0,56.0,-Infinity,yes,"2 2 3 3 3 4",0.25,300
Autotrans_shift,"□_[0.0, 30.0] (((gear != 1.0) && ◇_[0.001, 0.1] (gear == 1.0)) ==> ◇_[0.001, 0.1] □_[0.0, 2.5] (gear == 1.0))",adaptive,4219075003620562996,4.0,0.0,-Infinity,yes,"2 2 3 3 3 4",0.25,300
Autotrans_shift,"□_[0.0, 30.0] (((gear != 1.0) && ◇_[0.001, 0.1] (gear == 1.0)) ==> ◇_[0.001, 0.1] □_[0.0, 2.5] (gear == 1.0))",adaptive,6211937737003058278,104.0,23.0,-Infinity,yes,"2 2 3 3 3 4",0.25,300
Autotrans_shift,"□_[0.0, 30.0] (((gear != 1.0) && ◇_[0.001, 0.1] (gear == 1.0)) ==> ◇_[0.001, 0.1] □_[0.0, 2.5] (gear == 1.0))",adaptive,-1387100697182176372,6.0,1.0,-Infinity,yes,"2 2 3 3 3 4",0.25,300
Autotrans_shift,"□_[0.0, 30.0] (((gear != 1.0) && ◇_[0.001, 0.1] (gear == 1.0)) ==> ◇_[0.001, 0.1] □_[0.0, 2.5] (gear == 1.0))",adaptive,7003157467857447527,63.0,14.0,-Infinity,yes,"2 2 3 3 3 4",0.25,300
Autotrans_shift,"□_[0.0, 30.0] (((gear != 1.0) && ◇_[0.001, 0.1] (gear == 1.0)) ==> ◇_[0.001, 0.1] □_[0.0, 2.5] (gear == 1.0))",adaptive,6060671176302887134,6.0,1.0,-Infinity,yes,"2 2 3 3 3 4",0.25,300
Autotrans_shift,"□_[0.0, 30.0] (((gear != 1.0) && ◇_[0.001, 0.1] (gear == 1.0)) ==> ◇_[0.001, 0.1] □_[0.0, 2.5] (gear == 1.0))",adaptive,-1227515945464742537,97.0,24.0,-Infinity,yes,"2 2 3 3 3 4",0.25,300
Autotrans_shift,"□_[0.0, 30.0] (((gear != 1.0) && ◇_[0.001, 0.1] (gear == 1.0)) ==> ◇_[0.001, 0.1] □_[0.0, 2.5] (gear == 1.0))",adaptive,-208465011693381544,86.0,19.0,-Infinity,yes,"2 2 3 3 3 4",0.25,300
Autotrans_shift,"□_[0.0, 30.0] (((gear != 1.0) && ◇_[0.001, 0.1] (gear == 1.0)) ==> ◇_[0.001, 0.1] □_[0.0, 2.5] (gear == 1.0))",adaptive,1671576937234077712,87.0,19.0,-Infinity,yes,"2 2 3 3 3 4",0.25,300
Autotrans_shift,"□_[0.0, 30.0] (((gear != 1.0) && ◇_[0.001, 0.1] (gear == 1.0)) ==> ◇_[0.001, 0.1] □_[0.0, 2.5] (gear == 1.0))",adaptive,8346134432568783085,111.0,25.0,-Infinity,yes,"2 2 3 3 3 4",0.25,300
Autotrans_shift,"□_[0.0, 30.0] (((gear != 1.0) && ◇_[0.001, 0.1] (gear == 1.0)) ==> ◇_[0.001, 0.1] □_[0.0, 2.5] (gear == 1.0))",adaptive,-3234021578994466240,7.0,1.0,-Infinity,yes,"2 2 3 3 3 4",0.25,300
Autotrans_shift,"□_[0.0, 30.0] (((gear != 1.0) && ◇_[0.001, 0.1] (gear == 1.0)) ==> ◇_[0.001, 0.1] □_[0.0, 2.5] (gear == 1.0))",adaptive,-8937518523623891691,30.0,6.0,-Infinity,yes,"2 2 3 3 3 4",0.25,300
Autotrans_shift,"□_[0.0, 30.0] (((gear != 1.0) && ◇_[0.001, 0.1] (gear == 1.0)) ==> ◇_[0.001, 0.1] □_[0.0, 2.5] (gear == 1.0))",adaptive,7409341152765970768,124.0,28.0,-Infinity,yes,"2 2 3 3 3 4",0.25,300
Autotrans_shift,"□_[0.0, 30.0] (((gear != 1.0) && ◇_[0.001, 0.1] (gear == 1.0)) ==> ◇_[0.001, 0.1] □_[0.0, 2.5] (gear == 1.0))",adaptive,-7297439231931893481,50.0,11.0,-Infinity,yes,"2 2 3 3 3 4",0.25,300
Autotrans_shift,"□_[0.0, 30.0] (((gear != 1.0) && ◇_[0.001, 0.1] (gear == 1.0)) ==> ◇_[0.001, 0.1] □_[0.0, 2.5] (gear == 1.0))",adaptive,-7084264562472582136,194.0,44.0,-Infinity,yes,"2 2 3 3 3 4",0.25,300
Autotrans_shift,"□_[0.0, 30.0] (((gear != 1.0) && ◇_[0.001, 0.1] (gear == 1.0)) ==> ◇_[0.001, 0.1] □_[0.0, 2.5] (gear == 1.0))",adaptive,-817584406228817669,151.0,34.0,-Infinity,yes,"2 2 3 3 3 4",0.25,300
Autotrans_shift,"□_[0.0, 30.0] (((gear != 1.0) && ◇_[0.001, 0.1] (gear == 1.0)) ==> ◇_[0.001, 0.1] □_[0.0, 2.5] (gear == 1.0))",adaptive,-7920712675912541093,52.0,11.0,-Infinity,yes,"2 2 3 3 3 4",0.25,300
Autotrans_shift,"□_[0.0, 30.0] (((gear != 1.0) && ◇_[0.001, 0.1] (gear == 1.0)) ==> ◇_[0.001, 0.1] □_[0.0, 2.5] (gear == 1.0))",adaptive,-7887688880510420293,61.0,13.0,-Infinity,yes,"2 2 3 3 3 4",0.25,300
Autotrans_shift,"□_[0.0, 30.0] (((gear != 1.0) && ◇_[0.001, 0.1] (gear == 1.0)) ==> ◇_[0.001, 0.1] □_[0.0, 2.5] (gear == 1.0))",adaptive,4953293590538833751,51.0,11.0,-Infinity,yes,"2 2 3 3 3 4",0.25,300
Autotrans_shift,"□_[0.0, 30.0] (((gear != 1.0) && ◇_[0.001, 0.1] (gear == 1.0)) ==> ◇_[0.001, 0.1] □_[0.0, 2.5] (gear == 1.0))",adaptive,-3909386695116977329,108.0,25.0,-Infinity,yes,"2 2 3 3 3 4",0.25,300
Autotrans_shift,"□_[0.0, 30.0] (((gear != 1.0) && ◇_[0.001, 0.1] (gear == 1.0)) ==> ◇_[0.001, 0.1] □_[0.0, 2.5] (gear == 1.0))",adaptive,-9006591100301024723,10.0,2.0,-Infinity,yes,"2 2 3 3 3 4",0.25,300
Autotrans_shift,"□_[0.0, 30.0] (((gear != 1.0) && ◇_[0.001, 0.1] (gear == 1.0)) ==> ◇_[0.001, 0.1] □_[0.0, 2.5] (gear == 1.0))",adaptive,3068982889993471495,218.0,50.0,-Infinity,yes,"2 2 3 3 3 4",0.25,300
Autotrans_shift,"□_[0.0, 30.0] (((gear != 1.0) && ◇_[0.001, 0.1] (gear == 1.0)) ==> ◇_[0.001, 0.1] □_[0.0, 2.5] (gear == 1.0))",adaptive,4961780807042122142,27.0,6.0,-Infinity,yes,"2 2 3 3 3 4",0.25,300
Autotrans_shift,"□_[0.0, 30.0] (((gear != 1.0) && ◇_[0.001, 0.1] (gear == 1.0)) ==> ◇_[0.001, 0.1] □_[0.0, 2.5] (gear == 1.0))",adaptive,-3449192813729161405,70.0,16.0,-Infinity,yes,"2 2 3 3 3 4",0.25,300
Autotrans_shift,"□_[0.0, 30.0] (((gear != 1.0) && ◇_[0.001, 0.1] (gear == 1.0)) ==> ◇_[0.001, 0.1] □_[0.0, 2.5] (gear == 1.0))",adaptive,-986592359950607795,1.0,0.0,-Infinity,yes,"2 2 3 3 3 4",0.25,300
Autotrans_shift,"□_[0.0, 30.0] (((gear != 1.0) && ◇_[0.001, 0.1] (gear == 1.0)) ==> ◇_[0.001, 0.1] □_[0.0, 2.5] (gear == 1.0))",adaptive,-1357848187888527585,48.0,11.0,-Infinity,yes,"2 2 3 3 3 4",0.25,300
Autotrans_shift,"□_[0.0, 30.0] (((gear != 1.0) && ◇_[0.001, 0.1] (gear == 1.0)) ==> ◇_[0.001, 0.1] □_[0.0, 2.5] (gear == 1.0))",adaptive,-5433356199183344668,103.0,24.0,-Infinity,yes,"2 2 3 3 3 4",0.25,300
Autotrans_shift,"□_[0.0, 30.0] (((gear != 1.0) && ◇_[0.001, 0.1] (gear == 1.0)) ==> ◇_[0.001, 0.1] □_[0.0, 2.5] (gear == 1.0))",adaptive,2825489838312601858,15.0,3.0,-Infinity,yes,"2 2 3 3 3 4",0.25,300
Autotrans_shift,"□_[0.0, 30.0] (((gear != 1.0) && ◇_[0.001, 0.1] (gear == 1.0)) ==> ◇_[0.001, 0.1] □_[0.0, 2.5] (gear == 1.0))",adaptive,196408337475490630,6.0,1.0,-Infinity,yes,"2 2 3 3 3 4",0.25,300
Autotrans_shift,"□_[0.0, 30.0] (((gear != 1.0) && ◇_[0.001, 0.1] (gear == 1.0)) ==> ◇_[0.001, 0.1] □_[0.0, 2.5] (gear == 1.0))",adaptive,-6182227480938481466,34.0,7.0,-Infinity,yes,"2 2 3 3 3 4",0.25,300
Autotrans_shift,"□_[0.0, 30.0] (((gear != 1.0) && ◇_[0.001, 0.1] (gear == 1.0)) ==> ◇_[0.001, 0.1] □_[0.0, 2.5] (gear == 1.0))",adaptive,-5051868801187837423,149.0,34.0,-Infinity,yes,"2 2 3 3 3 4",0.25,300
Autotrans_shift,"□_[0.0, 30.0] (((gear != 1.0) && ◇_[0.001, 0.1] (gear == 1.0)) ==> ◇_[0.001, 0.1] □_[0.0, 2.5] (gear == 1.0))",adaptive,7346589890319546763,31.0,7.0,-Infinity,yes,"2 2 3 3 3 4",0.25,300
Autotrans_shift,"□_[0.0, 30.0] (((gear != 1.0) && ◇_[0.001, 0.1] (gear == 1.0)) ==> ◇_[0.001, 0.1] □_[0.0, 2.5] (gear == 1.0))",adaptive,5684222787894303726,63.0,14.0,-Infinity,yes,"2 2 3 3 3 4",0.25,300
Autotrans_shift,"□_[0.0, 30.0] (((gear != 1.0) && ◇_[0.001, 0.1] (gear == 1.0)) ==> ◇_[0.001, 0.1] □_[0.0, 2.5] (gear == 1.0))",adaptive,1797927231350142880,149.0,35.0,-Infinity,yes,"2 2 3 3 3 4",0.25,300
Autotrans_shift,"□_[0.0, 30.0] (((gear != 1.0) && ◇_[0.001, 0.1] (gear == 1.0)) ==> ◇_[0.001, 0.1] □_[0.0, 2.5] (gear == 1.0))",adaptive,-9103804558365264132,3.0,0.0,-Infinity,yes,"2 2 3 3 3 4",0.25,300
Autotrans_shift,"□_[0.0, 30.0] (((gear != 1.0) && ◇_[0.001, 0.1] (gear == 1.0)) ==> ◇_[0.001, 0.1] □_[0.0, 2.5] (gear == 1.0))",adaptive,6776298545376926432,35.0,8.0,-Infinity,yes,"2 2 3 3 3 4",0.25,300
Autotrans_shift,"□_[0.0, 30.0] (((gear != 1.0) && ◇_[0.001, 0.1] (gear == 1.0)) ==> ◇_[0.001, 0.1] □_[0.0, 2.5] (gear == 1.0))",adaptive,-1495703879387951545,83.0,20.0,-Infinity,yes,"2 2 3 3 3 4",0.25,300
Autotrans_shift,"□_[0.0, 30.0] (((gear != 1.0) && ◇_[0.001, 0.1] (gear == 1.0)) ==> ◇_[0.001, 0.1] □_[0.0, 2.5] (gear == 1.0))",adaptive,-1402233050021958084,3.0,0.0,-Infinity,yes,"2 2 3 3 3 4",0.25,300
Autotrans_shift,"□_[0.0, 30.0] (((gear != 1.0) && ◇_[0.001, 0.1] (gear == 1.0)) ==> ◇_[0.001, 0.1] □_[0.0, 2.5] (gear == 1.0))",adaptive,1756375760733404277,180.0,43.0,-Infinity,yes,"2 2 3 3 3 4",0.25,300
Autotrans_shift,"□_[0.0, 30.0] (((gear != 1.0) && ◇_[0.001, 0.1] (gear == 1.0)) ==> ◇_[0.001, 0.1] □_[0.0, 2.5] (gear == 1.0))",adaptive,-176281436427124367,93.0,22.0,-Infinity,yes,"2 2 3 3 3 4",0.25,300
Autotrans_shift,"□_[0.0, 30.0] (((gear != 1.0) && ◇_[0.001, 0.1] (gear == 1.0)) ==> ◇_[0.001, 0.1] □_[0.0, 2.5] (gear == 1.0))",adaptive,-3271397020660416787,56.0,13.0,-Infinity,yes,"2 2 3 3 3 4",0.25,300
Autotrans_shift,"□_[0.0, 30.0] (((gear != 1.0) && ◇_[0.001, 0.1] (gear == 1.0)) ==> ◇_[0.001, 0.1] □_[0.0, 2.5] (gear == 1.0))",adaptive,3201489584327520478,153.0,37.0,-Infinity,yes,"2 2 3 3 3 4",0.25,300
Autotrans_shift,"□_[0.0, 30.0] (((gear != 1.0) && ◇_[0.001, 0.1] (gear == 1.0)) ==> ◇_[0.001, 0.1] □_[0.0, 2.5] (gear == 1.0))",adaptive,6525610358693291776,8.0,1.0,-Infinity,yes,"2 2 3 3 3 4",0.25,300
Autotrans_shift,"□_[0.0, 30.0] (((gear != 2.0) && ◇_[0.001, 0.1] (gear == 2.0)) ==> ◇_[0.001, 0.1] □_[0.0, 2.5] (gear == 2.0))",adaptive,0,300.0,72.0,Infinity,no,"2 2 3 3 3 4",0.25,300
Autotrans_shift,"□_[0.0, 30.0] (((gear != 2.0) && ◇_[0.001, 0.1] (gear == 2.0)) ==> ◇_[0.001, 0.1] □_[0.0, 2.5] (gear == 2.0))",adaptive,8153897639306007346,249.0,60.0,-Infinity,yes,"2 2 3 3 3 4",0.25,300
Autotrans_shift,"□_[0.0, 30.0] (((gear != 2.0) && ◇_[0.001, 0.1] (gear == 2.0)) ==> ◇_[0.001, 0.1] □_[0.0, 2.5] (gear == 2.0))",adaptive,2232502909137434546,153.0,37.0,-Infinity,yes,"2 2 3 3 3 4",0.25,300
Autotrans_shift,"□_[0.0, 30.0] (((gear != 2.0) && ◇_[0.001, 0.1] (gear == 2.0)) ==> ◇_[0.001, 0.1] □_[0.0, 2.5] (gear == 2.0))",adaptive,-5490748554548132374,267.0,64.0,-Infinity,yes,"2 2 3 3 3 4",0.25,300
Autotrans_shift,"□_[0.0, 30.0] (((gear != 2.0) && ◇_[0.001, 0.1] (gear == 2.0)) ==> ◇_[0.001, 0.1] □_[0.0, 2.5] (gear == 2.0))",adaptive,-4796142692124996062,90.0,21.0,-Infinity,yes,"2 2 3 3 3 4",0.25,300
Autotrans_shift,"□_[0.0, 30.0] (((gear != 2.0) && ◇_[0.001, 0.1] (gear == 2.0)) ==> ◇_[0.001, 0.1] □_[0.0, 2.5] (gear == 2.0))",adaptive,-1315181358999503282,300.0,72.0,Infinity,no,"2 2 3 3 3 4",0.25,300
Autotrans_shift,"□_[0.0, 30.0] (((gear != 2.0) && ◇_[0.001, 0.1] (gear == 2.0)) ==> ◇_[0.001, 0.1] □_[0.0, 2.5] (gear == 2.0))",adaptive,-7973976705921421142,300.0,72.0,Infinity,no,"2 2 3 3 3 4",0.25,300
Autotrans_shift,"□_[0.0, 30.0] (((gear != 2.0) && ◇_[0.001, 0.1] (gear == 2.0)) ==> ◇_[0.001, 0.1] □_[0.0, 2.5] (gear == 2.0))",adaptive,8973085515203197738,300.0,72.0,Infinity,no,"2 2 3 3 3 4",0.25,300
Autotrans_shift,"□_[0.0, 30.0] (((gear != 2.0) && ◇_[0.001, 0.1] (gear == 2.0)) ==> ◇_[0.001, 0.1] □_[0.0, 2.5] (gear == 2.0))",adaptive,-1625893600041493485,9.0,2.0,-Infinity,yes,"2 2 3 3 3 4",0.25,300
Autotrans_shift,"□_[0.0, 30.0] (((gear != 2.0) && ◇_[0.001, 0.1] (gear == 2.0)) ==> ◇_[0.001, 0.1] □_[0.0, 2.5] (gear == 2.0))",adaptive,-2645774753639267777,300.0,73.0,Infinity,no,"2 2 3 3 3 4",0.25,300
Autotrans_shift,"□_[0.0, 30.0] (((gear != 2.0) && ◇_[0.001, 0.1] (gear == 2.0)) ==> ◇_[0.001, 0.1] □_[0.0, 2.5] (gear == 2.0))",adaptive,-4602292238164798741,300.0,74.0,Infinity,no,"2 2 3 3 3 4",0.25,300
Autotrans_shift,"□_[0.0, 30.0] (((gear != 2.0) && ◇_[0.001, 0.1] (gear == 2.0)) ==> ◇_[0.001, 0.1] □_[0.0, 2.5] (gear == 2.0))",adaptive,8174253595011477582,300.0,73.0,Infinity,no,"2 2 3 3 3 4",0.25,300
Autotrans_shift,"□_[0.0, 30.0] (((gear != 2.0) && ◇_[0.001, 0.1] (gear == 2.0)) ==> ◇_[0.001, 0.1] □_[0.0, 2.5] (gear == 2.0))",adaptive,1533957436855231015,300.0,73.0,Infinity,no,"2 2 3 3 3 4",0.25,300
Autotrans_shift,"□_[0.0, 30.0] (((gear != 2.0) && ◇_[0.001, 0.1] (gear == 2.0)) ==> ◇_[0.001, 0.1] □_[0.0, 2.5] (gear == 2.0))",adaptive,1807215495112163850,300.0,73.0,Infinity,no,"2 2 3 3 3 4",0.25,300
Autotrans_shift,"□_[0.0, 30.0] (((gear != 2.0) && ◇_[0.001, 0.1] (gear == 2.0)) ==> ◇_[0.001, 0.1] □_[0.0, 2.5] (gear == 2.0))",adaptive,-8713495072840327830,300.0,73.0,Infinity,no,"2 2 3 3 3 4",0.25,300
Autotrans_shift,"□_[0.0, 30.0] (((gear != 2.0) && ◇_[0.001, 0.1] (gear == 2.0)) ==> ◇_[0.001, 0.1] □_[0.0, 2.5] (gear == 2.0))",adaptive,-3214147376599242247,196.0,48.0,-Infinity,yes,"2 2 3 3 3 4",0.25,300
Autotrans_shift,"□_[0.0, 30.0] (((gear != 2.0) && ◇_[0.001, 0.1] (gear == 2.0)) ==> ◇_[0.001, 0.1] □_[0.0, 2.5] (gear == 2.0))",adaptive,-6708507039391111103,300.0,74.0,Infinity,no,"2 2 3 3 3 4",0.25,300
Autotrans_shift,"□_[0.0, 30.0] (((gear != 2.0) && ◇_[0.001, 0.1] (gear == 2.0)) ==> ◇_[0.001, 0.1] □_[0.0, 2.5] (gear == 2.0))",adaptive,3222981585322423446,300.0,73.0,Infinity,no,"2 2 3 3 3 4",0.25,300
Autotrans_shift,"□_[0.0, 30.0] (((gear != 2.0) && ◇_[0.001, 0.1] (gear == 2.0)) ==> ◇_[0.001, 0.1] □_[0.0, 2.5] (gear == 2.0))",adaptive,7920989587907197728,73.0,18.0,-Infinity,yes,"2 2 3 3 3 4",0.25,300
Autotrans_shift,"□_[0.0, 30.0] (((gear != 2.0) && ◇_[0.001, 0.1] (gear == 2.0)) ==> ◇_[0.001, 0.1] □_[0.0, 2.5] (gear == 2.0))",adaptive,-4089015381791174577,300.0,77.0,Infinity,no,"2 2 3 3 3 4",0.25,300
Autotrans_shift,"□_[0.0, 30.0] (((gear != 2.0) && ◇_[0.001, 0.1] (gear == 2.0)) ==> ◇_[0.001, 0.1] □_[0.0, 2.5] (gear == 2.0))",adaptive,-6865267284692744535,300.0,75.0,Infinity,no,"2 2 3 3 3 4",0.25,300
Autotrans_shift,"□_[0.0, 30.0] (((gear != 2.0) && ◇_[0.001, 0.1] (gear == 2.0)) ==> ◇_[0.001, 0.1] □_[0.0, 2.5] (gear == 2.0))",adaptive,-8888805453537382684,300.0,78.0,Infinity,no,"2 2 3 3 3 4",0.25,300
Autotrans_shift,"□_[0.0, 30.0] (((gear != 2.0) && ◇_[0.001, 0.1] (gear == 2.0)) ==> ◇_[0.001, 0.1] □_[0.0, 2.5] (gear == 2.0))",adaptive,3317802497546654099,217.0,55.0,-Infinity,yes,"2 2 3 3 3 4",0.25,300
Autotrans_shift,"□_[0.0, 30.0] (((gear != 2.0) && ◇_[0.001, 0.1] (gear == 2.0)) ==> ◇_[0.001, 0.1] □_[0.0, 2.5] (gear == 2.0))",adaptive,-5401167448994532279,13.0,3.0,-Infinity,yes,"2 2 3 3 3 4",0.25,300
Autotrans_shift,"□_[0.0, 30.0] (((gear != 2.0) && ◇_[0.001, 0.1] (gear == 2.0)) ==> ◇_[0.001, 0.1] □_[0.0, 2.5] (gear == 2.0))",adaptive,-5762690360189268521,12.0,3.0,-Infinity,yes,"2 2 3 3 3 4",0.25,300
Autotrans_shift,"□_[0.0, 30.0] (((gear != 2.0) && ◇_[0.001, 0.1] (gear == 2.0)) ==> ◇_[0.001, 0.1] □_[0.0, 2.5] (gear == 2.0))",adaptive,8798396749230822261,300.0,79.0,Infinity,no,"2 2 3 3 3 4",0.25,300
Autotrans_shift,"□_[0.0, 30.0] (((gear != 2.0) && ◇_[0.001, 0.1] (gear == 2.0)) ==> ◇_[0.001, 0.1] □_[0.0, 2.5] (gear == 2.0))",adaptive,-8163561139624124414,9.0,2.0,-Infinity,yes,"2 2 3 3 3 4",0.25,300
Autotrans_shift,"□_[0.0, 30.0] (((gear != 2.0) && ◇_[0.001, 0.1] (gear == 2.0)) ==> ◇_[0.001, 0.1] □_[0.0, 2.5] (gear == 2.0))",adaptive,-8932755850829512703,300.0,77.0,Infinity,no,"2 2 3 3 3 4",0.25,300
Autotrans_shift,"□_[0.0, 30.0] (((gear != 2.0) && ◇_[0.001, 0.1] (gear == 2.0)) ==> ◇_[0.001, 0.1] □_[0.0, 2.5] (gear == 2.0))",adaptive,7062799951813326028,300.0,76.0,Infinity,no,"2 2 3 3 3 4",0.25,300
Autotrans_shift,"□_[0.0, 30.0] (((gear != 2.0) && ◇_[0.001, 0.1] (gear == 2.0)) ==> ◇_[0.001, 0.1] □_[0.0, 2.5] (gear == 2.0))",adaptive,6196945443485355752,157.0,40.0,-Infinity,yes,"2 2 3 3 3 4",0.25,300
Autotrans_shift,"□_[0.0, 30.0] (((gear != 2.0) && ◇_[0.001, 0.1] (gear == 2.0)) ==> ◇_[0.001, 0.1] □_[0.0, 2.5] (gear == 2.0))",adaptive,-2673374702068189526,53.0,13.0,-Infinity,yes,"2 2 3 3 3 4",0.25,300
Autotrans_shift,"□_[0.0, 30.0] (((gear != 2.0) && ◇_[0.001, 0.1] (gear == 2.0)) ==> ◇_[0.001, 0.1] □_[0.0, 2.5] (gear == 2.0))",adaptive,3784028397826349244,153.0,39.0,-Infinity,yes,"2 2 3 3 3 4",0.25,300
Autotrans_shift,"□_[0.0, 30.0] (((gear != 2.0) && ◇_[0.001, 0.1] (gear == 2.0)) ==> ◇_[0.001, 0.1] □_[0.0, 2.5] (gear == 2.0))",adaptive,-3050782116880592764,124.0,31.0,-Infinity,yes,"2 2 3 3 3 4",0.25,300
Autotrans_shift,"□_[0.0, 30.0] (((gear != 2.0) && ◇_[0.001, 0.1] (gear == 2.0)) ==> ◇_[0.001, 0.1] □_[0.0, 2.5] (gear == 2.0))",adaptive,5666406106266325572,107.0,27.0,-Infinity,yes,"2 2 3 3 3 4",0.25,300
Autotrans_shift,"□_[0.0, 30.0] (((gear != 2.0) && ◇_[0.001, 0.1] (gear == 2.0)) ==> ◇_[0.001, 0.1] □_[0.0, 2.5] (gear == 2.0))",adaptive,3663730703697330623,225.0,58.0,-Infinity,yes,"2 2 3 3 3 4",0.25,300
Autotrans_shift,"□_[0.0, 30.0] (((gear != 2.0) && ◇_[0.001, 0.1] (gear == 2.0)) ==> ◇_[0.001, 0.1] □_[0.0, 2.5] (gear == 2.0))",adaptive,515392795692681712,300.0,76.0,Infinity,no,"2 2 3 3 3 4",0.25,300
Autotrans_shift,"□_[0.0, 30.0] (((gear != 2.0) && ◇_[0.001, 0.1] (gear == 2.0)) ==> ◇_[0.001, 0.1] □_[0.0, 2.5] (gear == 2.0))",adaptive,5587063215024327260,300.0,77.0,Infinity,no,"2 2 3 3 3 4",0.25,300
Autotrans_shift,"□_[0.0, 30.0] (((gear != 2.0) && ◇_[0.001, 0.1] (gear == 2.0)) ==> ◇_[0.001, 0.1] □_[0.0, 2.5] (gear == 2.0))",adaptive,4258344726131085522,300.0,75.0,Infinity,no,"2 2 3 3 3 4",0.25,300
Autotrans_shift,"□_[0.0, 30.0] (((gear != 2.0) && ◇_[0.001, 0.1] (gear == 2.0)) ==> ◇_[0.001, 0.1] □_[0.0, 2.5] (gear == 2.0))",adaptive,6543738971792328052,48.0,12.0,-Infinity,yes,"2 2 3 3 3 4",0.25,300
Autotrans_shift,"□_[0.0, 30.0] (((gear != 2.0) && ◇_[0.001, 0.1] (gear == 2.0)) ==> ◇_[0.001, 0.1] □_[0.0, 2.5] (gear == 2.0))",adaptive,6080884351686603798,169.0,42.0,-Infinity,yes,"2 2 3 3 3 4",0.25,300
Autotrans_shift,"□_[0.0, 30.0] (((gear != 2.0) && ◇_[0.001, 0.1] (gear == 2.0)) ==> ◇_[0.001, 0.1] □_[0.0, 2.5] (gear == 2.0))",adaptive,8761873741797764627,184.0,47.0,-Infinity,yes,"2 2 3 3 3 4",0.25,300
Autotrans_shift,"□_[0.0, 30.0] (((gear != 2.0) && ◇_[0.001, 0.1] (gear == 2.0)) ==> ◇_[0.001, 0.1] □_[0.0, 2.5] (gear == 2.0))",adaptive,7611478196317984879,44.0,11.0,-Infinity,yes,"2 2 3 3 3 4",0.25,300
Autotrans_shift,"□_[0.0, 30.0] (((gear != 2.0) && ◇_[0.001, 0.1] (gear == 2.0)) ==> ◇_[0.001, 0.1] □_[0.0, 2.5] (gear == 2.0))",adaptive,4995083670963046973,129.0,33.0,-Infinity,yes,"2 2 3 3 3 4",0.25,300
Autotrans_shift,"□_[0.0, 30.0] (((gear != 2.0) && ◇_[0.001, 0.1] (gear == 2.0)) ==> ◇_[0.001, 0.1] □_[0.0, 2.5] (gear == 2.0))",adaptive,6625384499213689805,300.0,76.0,Infinity,no,"2 2 3 3 3 4",0.25,300
Autotrans_shift,"□_[0.0, 30.0] (((gear != 2.0) && ◇_[0.001, 0.1] (gear == 2.0)) ==> ◇_[0.001, 0.1] □_[0.0, 2.5] (gear == 2.0))",adaptive,5074552474548526670,118.0,30.0,-Infinity,yes,"2 2 3 3 3 4",0.25,300
Autotrans_shift,"□_[0.0, 30.0] (((gear != 2.0) && ◇_[0.001, 0.1] (gear == 2.0)) ==> ◇_[0.001, 0.1] □_[0.0, 2.5] (gear == 2.0))",adaptive,9162167528209782371,300.0,76.0,Infinity,no,"2 2 3 3 3 4",0.25,300
Autotrans_shift,"□_[0.0, 30.0] (((gear != 2.0) && ◇_[0.001, 0.1] (gear == 2.0)) ==> ◇_[0.001, 0.1] □_[0.0, 2.5] (gear == 2.0))",adaptive,4899233636531675781,156.0,40.0,-Infinity,yes,"2 2 3 3 3 4",0.25,300
Autotrans_shift,"□_[0.0, 30.0] (((gear != 2.0) && ◇_[0.001, 0.1] (gear == 2.0)) ==> ◇_[0.001, 0.1] □_[0.0, 2.5] (gear == 2.0))",adaptive,7750590322116989195,167.0,43.0,-Infinity,yes,"2 2 3 3 3 4",0.25,300
Autotrans_shift,"□_[0.0, 30.0] (((gear != 2.0) && ◇_[0.001, 0.1] (gear == 2.0)) ==> ◇_[0.001, 0.1] □_[0.0, 2.5] (gear == 2.0))",adaptive,8221466492400887575,300.0,77.0,Infinity,no,"2 2 3 3 3 4",0.25,300
Autotrans_shift,"□_[0.0, 30.0] (((gear != 2.0) && ◇_[0.001, 0.1] (gear == 2.0)) ==> ◇_[0.001, 0.1] □_[0.0, 2.5] (gear == 2.0))",adaptive,3324794137554359780,137.0,35.0,-Infinity,yes,"2 2 3 3 3 4",0.25,300
Autotrans_shift,"□_[0.0, 30.0] (((gear != 3.0) && ◇_[0.001, 0.1] (gear == 3.0)) ==> ◇_[0.001, 0.1] □_[0.0, 2.5] (gear == 3.0))",adaptive,0,232.0,60.0,-Infinity,yes,"2 2 3 3 3 4",0.25,300
Autotrans_shift,"□_[0.0, 30.0] (((gear != 3.0) && ◇_[0.001, 0.1] (gear == 3.0)) ==> ◇_[0.001, 0.1] □_[0.0, 2.5] (gear == 3.0))",adaptive,4116993357089802496,77.0,19.0,-Infinity,yes,"2 2 3 3 3 4",0.25,300
Autotrans_shift,"□_[0.0, 30.0] (((gear != 3.0) && ◇_[0.001, 0.1] (gear == 3.0)) ==> ◇_[0.001, 0.1] □_[0.0, 2.5] (gear == 3.0))",adaptive,-6553170031919855894,117.0,30.0,-Infinity,yes,"2 2 3 3 3 4",0.25,300
Autotrans_shift,"□_[0.0, 30.0] (((gear != 3.0) && ◇_[0.001, 0.1] (gear == 3.0)) ==> ◇_[0.001, 0.1] □_[0.0, 2.5] (gear == 3.0))",adaptive,875661506753565438,66.0,17.0,-Infinity,yes,"2 2 3 3 3 4",0.25,300
Autotrans_shift,"□_[0.0, 30.0] (((gear != 3.0) && ◇_[0.001, 0.1] (gear == 3.0)) ==> ◇_[0.001, 0.1] □_[0.0, 2.5] (gear == 3.0))",adaptive,8328850234826810509,45.0,11.0,-Infinity,yes,"2 2 3 3 3 4",0.25,300
Autotrans_shift,"□_[0.0, 30.0] (((gear != 3.0) && ◇_[0.001, 0.1] (gear == 3.0)) ==> ◇_[0.001, 0.1] □_[0.0, 2.5] (gear == 3.0))",adaptive,7153060092930209238,161.0,41.0,-Infinity,yes,"2 2 3 3 3 4",0.25,300
Autotrans_shift,"□_[0.0, 30.0] (((gear != 3.0) && ◇_[0.001, 0.1] (gear == 3.0)) ==> ◇_[0.001, 0.1] □_[0.0, 2.5] (gear == 3.0))",adaptive,1426430446620646753,18.0,4.0,-Infinity,yes,"2 2 3 3 3 4",0.25,300
Autotrans_shift,"□_[0.0, 30.0] (((gear != 3.0) && ◇_[0.001, 0.1] (gear == 3.0)) ==> ◇_[0.001, 0.1] □_[0.0, 2.5] (gear == 3.0))",adaptive,6907574742267593235,128.0,33.0,-Infinity,yes,"2 2 3 3 3 4",0.25,300
Autotrans_shift,"□_[0.0, 30.0] (((gear != 3.0) && ◇_[0.001, 0.1] (gear == 3.0)) ==> ◇_[0.001, 0.1] □_[0.0, 2.5] (gear == 3.0))",adaptive,-5537885311701910862,66.0,17.0,-Infinity,yes,"2 2 3 3 3 4",0.25,300
Autotrans_shift,"□_[0.0, 30.0] (((gear != 3.0) && ◇_[0.001, 0.1] (gear == 3.0)) ==> ◇_[0.001, 0.1] □_[0.0, 2.5] (gear == 3.0))",adaptive,-1715996193675978638,86.0,22.0,-Infinity,yes,"2 2 3 3 3 4",0.25,300
Autotrans_shift,"□_[0.0, 30.0] (((gear != 3.0) && ◇_[0.001, 0.1] (gear == 3.0)) ==> ◇_[0.001, 0.1] □_[0.0, 2.5] (gear == 3.0))",adaptive,-8014431843155798711,55.0,14.0,-Infinity,yes,"2 2 3 3 3 4",0.25,300
Autotrans_shift,"□_[0.0, 30.0] (((gear != 3.0) && ◇_[0.001, 0.1] (gear == 3.0)) ==> ◇_[0.001, 0.1] □_[0.0, 2.5] (gear == 3.0))",adaptive,-3005733220797700494,19.0,4.0,-Infinity,yes,"2 2 3 3 3 4",0.25,300
Autotrans_shift,"□_[0.0, 30.0] (((gear != 3.0) && ◇_[0.001, 0.1] (gear == 3.0)) ==> ◇_[0.001, 0.1] □_[0.0, 2.5] (gear == 3.0))",adaptive,3898269371724623681,7.0,1.0,-Infinity,yes,"2 2 3 3 3 4",0.25,300
Autotrans_shift,"□_[0.0, 30.0] (((gear != 3.0) && ◇_[0.001, 0.1] (gear == 3.0)) ==> ◇_[0.001, 0.1] □_[0.0, 2.5] (gear == 3.0))",adaptive,-7906706515948936692,164.0,42.0,-Infinity,yes,"2 2 3 3 3 4",0.25,300
Autotrans_shift,"□_[0.0, 30.0] (((gear != 3.0) && ◇_[0.001, 0.1] (gear == 3.0)) ==> ◇_[0.001, 0.1] □_[0.0, 2.5] (gear == 3.0))",adaptive,1203284671790743087,52.0,13.0,-Infinity,yes,"2 2 3 3 3 4",0.25,300
Autotrans_shift,"□_[0.0, 30.0] (((gear != 3.0) && ◇_[0.001, 0.1] (gear == 3.0)) ==> ◇_[0.001, 0.1] □_[0.0, 2.5] (gear == 3.0))",adaptive,-7046846621010606734,107.0,27.0,-Infinity,yes,"2 2 3 3 3 4",0.25,300
Autotrans_shift,"□_[0.0, 30.0] (((gear != 3.0) && ◇_[0.001, 0.1] (gear == 3.0)) ==> ◇_[0.001, 0.1] □_[0.0, 2.5] (gear == 3.0))",adaptive,-7100383233518645330,161.0,42.0,-Infinity,yes,"2 2 3 3 3 4",0.25,300
Autotrans_shift,"□_[0.0, 30.0] (((gear != 3.0) && ◇_[0.001, 0.1] (gear == 3.0)) ==> ◇_[0.001, 0.1] □_[0.0, 2.5] (gear == 3.0))",adaptive,5857956258015435743,12.0,3.0,-Infinity,yes,"2 2 3 3 3 4",0.25,300
Autotrans_shift,"□_[0.0, 30.0] (((gear != 3.0) && ◇_[0.001, 0.1] (gear == 3.0)) ==> ◇_[0.001, 0.1] □_[0.0, 2.5] (gear == 3.0))",adaptive,-6427450640436019553,85.0,22.0,-Infinity,yes,"2 2 3 3 3 4",0.25,300
Autotrans_shift,"□_[0.0, 30.0] (((gear != 3.0) && ◇_[0.001, 0.1] (gear == 3.0)) ==> ◇_[0.001, 0.1] □_[0.0, 2.5] (gear == 3.0))",adaptive,2830547645105206872,108.0,28.0,-Infinity,yes,"2 2 3 3 3 4",0.25,300
Autotrans_shift,"□_[0.0, 30.0] (((gear != 3.0) && ◇_[0.001, 0.1] (gear == 3.0)) ==> ◇_[0.001, 0.1] □_[0.0, 2.5] (gear == 3.0))",adaptive,-7801133083727264661,52.0,13.0,-Infinity,yes,"2 2 3 3 3 4",0.25,300
Autotrans_shift,"□_[0.0, 30.0] (((gear != 3.0) && ◇_[0.001, 0.1] (gear == 3.0)) ==> ◇_[0.001, 0.1] □_[0.0, 2.5] (gear == 3.0))",adaptive,-7888874512850654792,34.0,8.0,-Infinity,yes,"2 2 3 3 3 4",0.25,300
Autotrans_shift,"□_[0.0, 30.0] (((gear != 3.0) && ◇_[0.001, 0.1] (gear == 3.0)) ==> ◇_[0.001, 0.1] □_[0.0, 2.5] (gear == 3.0))",adaptive,-1555093739901901362,19.0,4.0,-Infinity,yes,"2 2 3 3 3 4",0.25,300
Autotrans_shift,"□_[0.0, 30.0] (((gear != 3.0) && ◇_[0.001, 0.1] (gear == 3.0)) ==> ◇_[0.001, 0.1] □_[0.0, 2.5] (gear == 3.0))",adaptive,-5078588898810465723,19.0,4.0,-Infinity,yes,"2 2 3 3 3 4",0.25,300
Autotrans_shift,"□_[0.0, 30.0] (((gear != 3.0) && ◇_[0.001, 0.1] (gear == 3.0)) ==> ◇_[0.001, 0.1] □_[0.0, 2.5] (gear == 3.0))",adaptive,-6547790891247515655,20.0,5.0,-Infinity,yes,"2 2 3 3 3 4",0.25,300
Autotrans_shift,"□_[0.0, 30.0] (((gear != 3.0) && ◇_[0.001, 0.1] (gear == 3.0)) ==> ◇_[0.001, 0.1] □_[0.0, 2.5] (gear == 3.0))",adaptive,8316174009605099208,68.0,17.0,-Infinity,yes,"2 2 3 3 3 4",0.25,300
Autotrans_shift,"□_[0.0, 30.0] (((gear != 3.0) && ◇_[0.001, 0.1] (gear == 3.0)) ==> ◇_[0.001, 0.1] □_[0.0, 2.5] (gear == 3.0))",adaptive,-7353519467682426587,94.0,24.0,-Infinity,yes,"2 2 3 3 3 4",0.25,300
Autotrans_shift,"□_[0.0, 30.0] (((gear != 3.0) && ◇_[0.001, 0.1] (gear == 3.0)) ==> ◇_[0.001, 0.1] □_[0.0, 2.5] (gear == 3.0))",adaptive,2911723390923926958,8.0,2.0,-Infinity,yes,"2 2 3 3 3 4",0.25,300
Autotrans_shift,"□_[0.0, 30.0] (((gear != 3.0) && ◇_[0.001, 0.1] (gear == 3.0)) ==> ◇_[0.001, 0.1] □_[0.0, 2.5] (gear == 3.0))",adaptive,5553873733556582663,71.0,18.0,-Infinity,yes,"2 2 3 3 3 4",0.25,300
Autotrans_shift,"□_[0.0, 30.0] (((gear != 3.0) && ◇_[0.001, 0.1] (gear == 3.0)) ==> ◇_[0.001, 0.1] □_[0.0, 2.5] (gear == 3.0))",adaptive,4210080962847223317,76.0,19.0,-Infinity,yes,"2 2 3 3 3 4",0.25,300
Autotrans_shift,"□_[0.0, 30.0] (((gear != 3.0) && ◇_[0.001, 0.1] (gear == 3.0)) ==> ◇_[0.001, 0.1] □_[0.0, 2.5] (gear == 3.0))",adaptive,-6706065419486263091,68.0,17.0,-Infinity,yes,"2 2 3 3 3 4",0.25,300
Autotrans_shift,"□_[0.0, 30.0] (((gear != 3.0) && ◇_[0.001, 0.1] (gear == 3.0)) ==> ◇_[0.001, 0.1] □_[0.0, 2.5] (gear == 3.0))",adaptive,-983396529435456460,79.0,19.0,-Infinity,yes,"2 2 3 3 3 4",0.25,300
Autotrans_shift,"□_[0.0, 30.0] (((gear != 3.0) && ◇_[0.001, 0.1] (gear == 3.0)) ==> ◇_[0.001, 0.1] □_[0.0, 2.5] (gear == 3.0))",adaptive,8744964501775659851,85.0,21.0,-Infinity,yes,"2 2 3 3 3 4",0.25,300
Autotrans_shift,"□_[0.0, 30.0] (((gear != 3.0) && ◇_[0.001, 0.1] (gear == 3.0)) ==> ◇_[0.001, 0.1] □_[0.0, 2.5] (gear == 3.0))",adaptive,-4114040916136997906,28.0,7.0,-Infinity,yes,"2 2 3 3 3 4",0.25,300
Autotrans_shift,"□_[0.0, 30.0] (((gear != 3.0) && ◇_[0.001, 0.1] (gear == 3.0)) ==> ◇_[0.001, 0.1] □_[0.0, 2.5] (gear == 3.0))",adaptive,1534224104769578526,33.0,8.0,-Infinity,yes,"2 2 3 3 3 4",0.25,300
Autotrans_shift,"□_[0.0, 30.0] (((gear != 3.0) && ◇_[0.001, 0.1] (gear == 3.0)) ==> ◇_[0.001, 0.1] □_[0.0, 2.5] (gear == 3.0))",adaptive,-6968761026655603448,45.0,11.0,-Infinity,yes,"2 2 3 3 3 4",0.25,300
Autotrans_shift,"□_[0.0, 30.0] (((gear != 3.0) && ◇_[0.001, 0.1] (gear == 3.0)) ==> ◇_[0.001, 0.1] □_[0.0, 2.5] (gear == 3.0))",adaptive,-2373450579823921325,115.0,29.0,-Infinity,yes,"2 2 3 3 3 4",0.25,300
Autotrans_shift,"□_[0.0, 30.0] (((gear != 3.0) && ◇_[0.001, 0.1] (gear == 3.0)) ==> ◇_[0.001, 0.1] □_[0.0, 2.5] (gear == 3.0))",adaptive,-6662743357544196214,73.0,18.0,-Infinity,yes,"2 2 3 3 3 4",0.25,300
Autotrans_shift,"□_[0.0, 30.0] (((gear != 3.0) && ◇_[0.001, 0.1] (gear == 3.0)) ==> ◇_[0.001, 0.1] □_[0.0, 2.5] (gear == 3.0))",adaptive,176676797141557028,49.0,12.0,-Infinity,yes,"2 2 3 3 3 4",0.25,300
Autotrans_shift,"□_[0.0, 30.0] (((gear != 3.0) && ◇_[0.001, 0.1] (gear == 3.0)) ==> ◇_[0.001, 0.1] □_[0.0, 2.5] (gear == 3.0))",adaptive,-2164315524592907737,76.0,19.0,-Infinity,yes,"2 2 3 3 3 4",0.25,300
Autotrans_shift,"□_[0.0, 30.0] (((gear != 3.0) && ◇_[0.001, 0.1] (gear == 3.0)) ==> ◇_[0.001, 0.1] □_[0.0, 2.5] (gear == 3.0))",adaptive,1850492100299878153,19.0,4.0,-Infinity,yes,"2 2 3 3 3 4",0.25,300
Autotrans_shift,"□_[0.0, 30.0] (((gear != 3.0) && ◇_[0.001, 0.1] (gear == 3.0)) ==> ◇_[0.001, 0.1] □_[0.0, 2.5] (gear == 3.0))",adaptive,-2365104555779263851,267.0,67.0,-Infinity,yes,"2 2 3 3 3 4",0.25,300
Autotrans_shift,"□_[0.0, 30.0] (((gear != 3.0) && ◇_[0.001, 0.1] (gear == 3.0)) ==> ◇_[0.001, 0.1] □_[0.0, 2.5] (gear == 3.0))",adaptive,7541857475641862637,74.0,19.0,-Infinity,yes,"2 2 3 3 3 4",0.25,300
Autotrans_shift,"□_[0.0, 30.0] (((gear != 3.0) && ◇_[0.001, 0.1] (gear == 3.0)) ==> ◇_[0.001, 0.1] □_[0.0, 2.5] (gear == 3.0))",adaptive,-4366726540864549178,84.0,21.0,-Infinity,yes,"2 2 3 3 3 4",0.25,300
Autotrans_shift,"□_[0.0, 30.0] (((gear != 3.0) && ◇_[0.001, 0.1] (gear == 3.0)) ==> ◇_[0.001, 0.1] □_[0.0, 2.5] (gear == 3.0))",adaptive,3433065488551867035,17.0,4.0,-Infinity,yes,"2 2 3 3 3 4",0.25,300
Autotrans_shift,"□_[0.0, 30.0] (((gear != 3.0) && ◇_[0.001, 0.1] (gear == 3.0)) ==> ◇_[0.001, 0.1] □_[0.0, 2.5] (gear == 3.0))",adaptive,4773728300485508061,125.0,31.0,-Infinity,yes,"2 2 3 3 3 4",0.25,300
Autotrans_shift,"□_[0.0, 30.0] (((gear != 3.0) && ◇_[0.001, 0.1] (gear == 3.0)) ==> ◇_[0.001, 0.1] □_[0.0, 2.5] (gear == 3.0))",adaptive,6843356899790711786,4.0,1.0,-Infinity,yes,"2 2 3 3 3 4",0.25,300
Autotrans_shift,"□_[0.0, 30.0] (((gear != 3.0) && ◇_[0.001, 0.1] (gear == 3.0)) ==> ◇_[0.001, 0.1] □_[0.0, 2.5] (gear == 3.0))",adaptive,6028387383473155254,24.0,6.0,-Infinity,yes,"2 2 3 3 3 4",0.25,300
Autotrans_shift,"□_[0.0, 30.0] (((gear != 3.0) && ◇_[0.001, 0.1] (gear == 3.0)) ==> ◇_[0.001, 0.1] □_[0.0, 2.5] (gear == 3.0))",adaptive,-6645690547183712352,9.0,2.0,-Infinity,yes,"2 2 3 3 3 4",0.25,300
Autotrans_shift,"□_[0.0, 30.0] (((gear != 3.0) && ◇_[0.001, 0.1] (gear == 3.0)) ==> ◇_[0.001, 0.1] □_[0.0, 2.5] (gear == 3.0))",adaptive,-5178121308670758771,40.0,10.0,-Infinity,yes,"2 2 3 3 3 4",0.25,300
Autotrans_shift,"□_[0.0, 30.0] (((gear != 4.0) && ◇_[0.001, 0.1] (gear == 4.0)) ==> ◇_[0.001, 0.1] □_[0.0, 2.5] (gear == 4.0))",adaptive,0,53.0,13.0,-Infinity,yes,"2 2 3 3 3 4",0.25,300
Autotrans_shift,"□_[0.0, 30.0] (((gear != 4.0) && ◇_[0.001, 0.1] (gear == 4.0)) ==> ◇_[0.001, 0.1] □_[0.0, 2.5] (gear == 4.0))",adaptive,-7154369092413191692,56.0,14.0,-Infinity,yes,"2 2 3 3 3 4",0.25,300
Autotrans_shift,"□_[0.0, 30.0] (((gear != 4.0) && ◇_[0.001, 0.1] (gear == 4.0)) ==> ◇_[0.001, 0.1] □_[0.0, 2.5] (gear == 4.0))",adaptive,6409196301906410132,204.0,51.0,-Infinity,yes,"2 2 3 3 3 4",0.25,300
Autotrans_shift,"□_[0.0, 30.0] (((gear != 4.0) && ◇_[0.001, 0.1] (gear == 4.0)) ==> ◇_[0.001, 0.1] □_[0.0, 2.5] (gear == 4.0))",adaptive,762219523808060718,1.0,0.0,-Infinity,yes,"2 2 3 3 3 4",0.25,300
Autotrans_shift,"□_[0.0, 30.0] (((gear != 4.0) && ◇_[0.001, 0.1] (gear == 4.0)) ==> ◇_[0.001, 0.1] □_[0.0, 2.5] (gear == 4.0))",adaptive,-7896045299126944631,52.0,13.0,-Infinity,yes,"2 2 3 3 3 4",0.25,300
Autotrans_shift,"□_[0.0, 30.0] (((gear != 4.0) && ◇_[0.001, 0.1] (gear == 4.0)) ==> ◇_[0.001, 0.1] □_[0.0, 2.5] (gear == 4.0))",adaptive,3712788961586275210,1.0,0.0,-Infinity,yes,"2 2 3 3 3 4",0.25,300
Autotrans_shift,"□_[0.0, 30.0] (((gear != 4.0) && ◇_[0.001, 0.1] (gear == 4.0)) ==> ◇_[0.001, 0.1] □_[0.0, 2.5] (gear == 4.0))",adaptive,7254023935810691537,285.0,72.0,-Infinity,yes,"2 2 3 3 3 4",0.25,300
Autotrans_shift,"□_[0.0, 30.0] (((gear != 4.0) && ◇_[0.001, 0.1] (gear == 4.0)) ==> ◇_[0.001, 0.1] □_[0.0, 2.5] (gear == 4.0))",adaptive,8965762828796996816,40.0,10.0,-Infinity,yes,"2 2 3 3 3 4",0.25,300
Autotrans_shift,"□_[0.0, 30.0] (((gear != 4.0) && ◇_[0.001, 0.1] (gear == 4.0)) ==> ◇_[0.001, 0.1] □_[0.0, 2.5] (gear == 4.0))",adaptive,1282928385551882803,30.0,7.0,-Infinity,yes,"2 2 3 3 3 4",0.25,300
Autotrans_shift,"□_[0.0, 30.0] (((gear != 4.0) && ◇_[0.001, 0.1] (gear == 4.0)) ==> ◇_[0.001, 0.1] □_[0.0, 2.5] (gear == 4.0))",adaptive,-5236735310778238753,141.0,35.0,-Infinity,yes,"2 2 3 3 3 4",0.25,300
Autotrans_shift,"□_[0.0, 30.0] (((gear != 4.0) && ◇_[0.001, 0.1] (gear == 4.0)) ==> ◇_[0.001, 0.1] □_[0.0, 2.5] (gear == 4.0))",adaptive,-6446798896716169129,6.0,1.0,-Infinity,yes,"2 2 3 3 3 4",0.25,300
Autotrans_shift,"□_[0.0, 30.0] (((gear != 4.0) && ◇_[0.001, 0.1] (gear == 4.0)) ==> ◇_[0.001, 0.1] □_[0.0, 2.5] (gear == 4.0))",adaptive,-1821477076229258861,14.0,3.0,-Infinity,yes,"2 2 3 3 3 4",0.25,300
Autotrans_shift,"□_[0.0, 30.0] (((gear != 4.0) && ◇_[0.001, 0.1] (gear == 4.0)) ==> ◇_[0.001, 0.1] □_[0.0, 2.5] (gear == 4.0))",adaptive,-4850965364572369765,187.0,43.0,-Infinity,yes,"2 2 3 3 3 4",0.25,300
Autotrans_shift,"□_[0.0, 30.0] (((gear != 4.0) && ◇_[0.001, 0.1] (gear == 4.0)) ==> ◇_[0.001, 0.1] □_[0.0, 2.5] (gear == 4.0))",adaptive,-7683341765695142373,58.0,13.0,-Infinity,yes,"2 2 3 3 3 4",0.25,300
Autotrans_shift,"□_[0.0, 30.0] (((gear != 4.0) && ◇_[0.001, 0.1] (gear == 4.0)) ==> ◇_[0.001, 0.1] □_[0.0, 2.5] (gear == 4.0))",adaptive,-3431780877719385986,7.0,1.0,-Infinity,yes,"2 2 3 3 3 4",0.25,300
Autotrans_shift,"□_[0.0, 30.0] (((gear != 4.0) && ◇_[0.001, 0.1] (gear == 4.0)) ==> ◇_[0.001, 0.1] □_[0.0, 2.5] (gear == 4.0))",adaptive,-5458290866924465701,34.0,7.0,-Infinity,yes,"2 2 3 3 3 4",0.25,300
Autotrans_shift,"□_[0.0, 30.0] (((gear != 4.0) && ◇_[0.001, 0.1] (gear == 4.0)) ==> ◇_[0.001, 0.1] □_[0.0, 2.5] (gear == 4.0))",adaptive,481830305930350155,46.0,10.0,-Infinity,yes,"2 2 3 3 3 4",0.25,300
Autotrans_shift,"□_[0.0, 30.0] (((gear != 4.0) && ◇_[0.001, 0.1] (gear == 4.0)) ==> ◇_[0.001, 0.1] □_[0.0, 2.5] (gear == 4.0))",adaptive,4081502511508221070,6.0,1.0,-Infinity,yes,"2 2 3 3 3 4",0.25,300
Autotrans_shift,"□_[0.0, 30.0] (((gear != 4.0) && ◇_[0.001, 0.1] (gear == 4.0)) ==> ◇_[0.001, 0.1] □_[0.0, 2.5] (gear == 4.0))",adaptive,-1353243512404509906,52.0,12.0,-Infinity,yes,"2 2 3 3 3 4",0.25,300
Autotrans_shift,"□_[0.0, 30.0] (((gear != 4.0) && ◇_[0.001, 0.1] (gear == 4.0)) ==> ◇_[0.001, 0.1] □_[0.0, 2.5] (gear == 4.0))",adaptive,8569552935050642624,147.0,35.0,-Infinity,yes,"2 2 3 3 3 4",0.25,300
Autotrans_shift,"□_[0.0, 30.0] (((gear != 4.0) && ◇_[0.001, 0.1] (gear == 4.0)) ==> ◇_[0.001, 0.1] □_[0.0, 2.5] (gear == 4.0))",adaptive,3051627850451801241,9.0,2.0,-Infinity,yes,"2 2 3 3 3 4",0.25,300
Autotrans_shift,"□_[0.0, 30.0] (((gear != 4.0) && ◇_[0.001, 0.1] (gear == 4.0)) ==> ◇_[0.001, 0.1] □_[0.0, 2.5] (gear == 4.0))",adaptive,-8855587485040489175,72.0,18.0,-Infinity,yes,"2 2 3 3 3 4",0.25,300
Autotrans_shift,"□_[0.0, 30.0] (((gear != 4.0) && ◇_[0.001, 0.1] (gear == 4.0)) ==> ◇_[0.001, 0.1] □_[0.0, 2.5] (gear == 4.0))",adaptive,-7434039765353414906,4.0,1.0,-Infinity,yes,"2 2 3 3 3 4",0.25,300
Autotrans_shift,"□_[0.0, 30.0] (((gear != 4.0) && ◇_[0.001, 0.1] (gear == 4.0)) ==> ◇_[0.001, 0.1] □_[0.0, 2.5] (gear == 4.0))",adaptive,-6885391200673132418,147.0,37.0,-Infinity,yes,"2 2 3 3 3 4",0.25,300
Autotrans_shift,"□_[0.0, 30.0] (((gear != 4.0) && ◇_[0.001, 0.1] (gear == 4.0)) ==> ◇_[0.001, 0.1] □_[0.0, 2.5] (gear == 4.0))",adaptive,7738441997293350172,172.0,43.0,-Infinity,yes,"2 2 3 3 3 4",0.25,300
Autotrans_shift,"□_[0.0, 30.0] (((gear != 4.0) && ◇_[0.001, 0.1] (gear == 4.0)) ==> ◇_[0.001, 0.1] □_[0.0, 2.5] (gear == 4.0))",adaptive,2944755420224172074,70.0,17.0,-Infinity,yes,"2 2 3 3 3 4",0.25,300
Autotrans_shift,"□_[0.0, 30.0] (((gear != 4.0) && ◇_[0.001, 0.1] (gear == 4.0)) ==> ◇_[0.001, 0.1] □_[0.0, 2.5] (gear == 4.0))",adaptive,-7015630983443584757,3.0,0.0,-Infinity,yes,"2 2 3 3 3 4",0.25,300
Autotrans_shift,"□_[0.0, 30.0] (((gear != 4.0) && ◇_[0.001, 0.1] (gear == 4.0)) ==> ◇_[0.001, 0.1] □_[0.0, 2.5] (gear == 4.0))",adaptive,6984550813018737348,104.0,27.0,-Infinity,yes,"2 2 3 3 3 4",0.25,300
Autotrans_shift,"□_[0.0, 30.0] (((gear != 4.0) && ◇_[0.001, 0.1] (gear == 4.0)) ==> ◇_[0.001, 0.1] □_[0.0, 2.5] (gear == 4.0))",adaptive,8295825896386465660,21.0,5.0,-Infinity,yes,"2 2 3 3 3 4",0.25,300
Autotrans_shift,"□_[0.0, 30.0] (((gear != 4.0) && ◇_[0.001, 0.1] (gear == 4.0)) ==> ◇_[0.001, 0.1] □_[0.0, 2.5] (gear == 4.0))",adaptive,-8214764242732924528,26.0,6.0,-Infinity,yes,"2 2 3 3 3 4",0.25,300
Autotrans_shift,"□_[0.0, 30.0] (((gear != 4.0) && ◇_[0.001, 0.1] (gear == 4.0)) ==> ◇_[0.001, 0.1] □_[0.0, 2.5] (gear == 4.0))",adaptive,7363895182826901287,38.0,9.0,-Infinity,yes,"2 2 3 3 3 4",0.25,300
Autotrans_shift,"□_[0.0, 30.0] (((gear != 4.0) && ◇_[0.001, 0.1] (gear == 4.0)) ==> ◇_[0.001, 0.1] □_[0.0, 2.5] (gear == 4.0))",adaptive,3611722536367963695,2.0,0.0,-Infinity,yes,"2 2 3 3 3 4",0.25,300
Autotrans_shift,"□_[0.0, 30.0] (((gear != 4.0) && ◇_[0.001, 0.1] (gear == 4.0)) ==> ◇_[0.001, 0.1] □_[0.0, 2.5] (gear == 4.0))",adaptive,2281991768519948571,46.0,12.0,-Infinity,yes,"2 2 3 3 3 4",0.25,300
Autotrans_shift,"□_[0.0, 30.0] (((gear != 4.0) && ◇_[0.001, 0.1] (gear == 4.0)) ==> ◇_[0.001, 0.1] □_[0.0, 2.5] (gear == 4.0))",adaptive,-7428549285524987996,14.0,3.0,-Infinity,yes,"2 2 3 3 3 4",0.25,300
Autotrans_shift,"□_[0.0, 30.0] (((gear != 4.0) && ◇_[0.001, 0.1] (gear == 4.0)) ==> ◇_[0.001, 0.1] □_[0.0, 2.5] (gear == 4.0))",adaptive,4098557903230312216,84.0,21.0,-Infinity,yes,"2 2 3 3 3 4",0.25,300
Autotrans_shift,"□_[0.0, 30.0] (((gear != 4.0) && ◇_[0.001, 0.1] (gear == 4.0)) ==> ◇_[0.001, 0.1] □_[0.0, 2.5] (gear == 4.0))",adaptive,3892935591071983348,7.0,1.0,-Infinity,yes,"2 2 3 3 3 4",0.25,300
Autotrans_shift,"□_[0.0, 30.0] (((gear != 4.0) && ◇_[0.001, 0.1] (gear == 4.0)) ==> ◇_[0.001, 0.1] □_[0.0, 2.5] (gear == 4.0))",adaptive,-8015651353888647603,61.0,15.0,-Infinity,yes,"2 2 3 3 3 4",0.25,300
Autotrans_shift,"□_[0.0, 30.0] (((gear != 4.0) && ◇_[0.001, 0.1] (gear == 4.0)) ==> ◇_[0.001, 0.1] □_[0.0, 2.5] (gear == 4.0))",adaptive,-5427109127805896325,137.0,35.0,-Infinity,yes,"2 2 3 3 3 4",0.25,300
Autotrans_shift,"□_[0.0, 30.0] (((gear != 4.0) && ◇_[0.001, 0.1] (gear == 4.0)) ==> ◇_[0.001, 0.1] □_[0.0, 2.5] (gear == 4.0))",adaptive,4575655484609411500,92.0,23.0,-Infinity,yes,"2 2 3 3 3 4",0.25,300
Autotrans_shift,"□_[0.0, 30.0] (((gear != 4.0) && ◇_[0.001, 0.1] (gear == 4.0)) ==> ◇_[0.001, 0.1] □_[0.0, 2.5] (gear == 4.0))",adaptive,6202220081222084453,250.0,64.0,-Infinity,yes,"2 2 3 3 3 4",0.25,300
Autotrans_shift,"□_[0.0, 30.0] (((gear != 4.0) && ◇_[0.001, 0.1] (gear == 4.0)) ==> ◇_[0.001, 0.1] □_[0.0, 2.5] (gear == 4.0))",adaptive,7778872766142475216,125.0,32.0,-Infinity,yes,"2 2 3 3 3 4",0.25,300
Autotrans_shift,"□_[0.0, 30.0] (((gear != 4.0) && ◇_[0.001, 0.1] (gear == 4.0)) ==> ◇_[0.001, 0.1] □_[0.0, 2.5] (gear == 4.0))",adaptive,-7611246414622693484,8.0,2.0,-Infinity,yes,"2 2 3 3 3 4",0.25,300
Autotrans_shift,"□_[0.0, 30.0] (((gear != 4.0) && ◇_[0.001, 0.1] (gear == 4.0)) ==> ◇_[0.001, 0.1] □_[0.0, 2.5] (gear == 4.0))",adaptive,-1379936228061427831,127.0,32.0,-Infinity,yes,"2 2 3 3 3 4",0.25,300
Autotrans_shift,"□_[0.0, 30.0] (((gear != 4.0) && ◇_[0.001, 0.1] (gear == 4.0)) ==> ◇_[0.001, 0.1] □_[0.0, 2.5] (gear == 4.0))",adaptive,-1102894015076120986,4.0,1.0,-Infinity,yes,"2 2 3 3 3 4",0.25,300
Autotrans_shift,"□_[0.0, 30.0] (((gear != 4.0) && ◇_[0.001, 0.1] (gear == 4.0)) ==> ◇_[0.001, 0.1] □_[0.0, 2.5] (gear == 4.0))",adaptive,-1651293858701355559,110.0,28.0,-Infinity,yes,"2 2 3 3 3 4",0.25,300
Autotrans_shift,"□_[0.0, 30.0] (((gear != 4.0) && ◇_[0.001, 0.1] (gear == 4.0)) ==> ◇_[0.001, 0.1] □_[0.0, 2.5] (gear == 4.0))",adaptive,-6807459501227570663,24.0,6.0,-Infinity,yes,"2 2 3 3 3 4",0.25,300
Autotrans_shift,"□_[0.0, 30.0] (((gear != 4.0) && ◇_[0.001, 0.1] (gear == 4.0)) ==> ◇_[0.001, 0.1] □_[0.0, 2.5] (gear == 4.0))",adaptive,3837104131630430552,12.0,3.0,-Infinity,yes,"2 2 3 3 3 4",0.25,300
Autotrans_shift,"□_[0.0, 30.0] (((gear != 4.0) && ◇_[0.001, 0.1] (gear == 4.0)) ==> ◇_[0.001, 0.1] □_[0.0, 2.5] (gear == 4.0))",adaptive,-3232925734005762496,3.0,0.0,-Infinity,yes,"2 2 3 3 3 4",0.25,300
Autotrans_shift,"□_[0.0, 30.0] (((gear != 4.0) && ◇_[0.001, 0.1] (gear == 4.0)) ==> ◇_[0.001, 0.1] □_[0.0, 2.5] (gear == 4.0))",adaptive,-6908199763322513542,189.0,48.0,-Infinity,yes,"2 2 3 3 3 4",0.25,300
Autotrans_shift,"□_[0.0, 30.0] (((gear != 4.0) && ◇_[0.001, 0.1] (gear == 4.0)) ==> ◇_[0.001, 0.1] □_[0.0, 2.5] (gear == 4.0))",adaptive,-6359253586045713219,174.0,45.0,-Infinity,yes,"2 2 3 3 3 4",0.25,300
Autotrans_shift,"(□_[0.0, 30.0] (RPM < 3000.0) ==> □_[0.0, 4.0] (speed < 35.0))",adaptive,0,83.0,21.0,-1.3704369780970111,yes,"2 2 3 3 3 4",0.25,300
Autotrans_shift,"(□_[0.0, 30.0] (RPM < 3000.0) ==> □_[0.0, 4.0] (speed < 35.0))",adaptive,1622417430311286869,107.0,27.0,-3.4756604241924123,yes,"2 2 3 3 3 4",0.25,300
Autotrans_shift,"(□_[0.0, 30.0] (RPM < 3000.0) ==> □_[0.0, 4.0] (speed < 35.0))",adaptive,-210690650018638908,75.0,18.0,-1.3704369780970111,yes,"2 2 3 3 3 4",0.25,300
Autotrans_shift,"(□_[0.0, 30.0] (RPM < 3000.0) ==> □_[0.0, 4.0] (speed < 35.0))",adaptive,-3007297601453189173,97.0,24.0,-1.3704369780970111,yes,"2 2 3 3 3 4",0.25,300
Autotrans_shift,"(□_[0.0, 30.0] (RPM < 3000.0) ==> □_[0.0, 4.0] (speed < 35.0))",adaptive,5162102935566454325,34.0,8.0,-1.3704369780970111,yes,"2 2 3 3 3 4",0.25,300
Autotrans_shift,"(□_[0.0, 30.0] (RPM < 3000.0) ==> □_[0.0, 4.0] (speed < 35.0))",adaptive,7289834100603697175,30.0,7.0,-1.3704369780970111,yes,"2 2 3 3 3 4",0.25,300
Autotrans_shift,"(□_[0.0, 30.0] (RPM < 3000.0) ==> □_[0.0, 4.0] (speed < 35.0))",adaptive,1314273099264200758,96.0,24.0,-1.3704369780970111,yes,"2 2 3 3 3 4",0.25,300
Autotrans_shift,"(□_[0.0, 30.0] (RPM < 3000.0) ==> □_[0.0, 4.0] (speed < 35.0))",adaptive,723614661558022522,68.0,17.0,-1.3704369780970111,yes,"2 2 3 3 3 4",0.25,300
Autotrans_shift,"(□_[0.0, 30.0] (RPM < 3000.0) ==> □_[0.0, 4.0] (speed < 35.0))",adaptive,-2071885468628841340,59.0,15.0,-1.3704369780970111,yes,"2 2 3 3 3 4",0.25,300
Autotrans_shift,"(□_[0.0, 30.0] (RPM < 3000.0) ==> □_[0.0, 4.0] (speed < 35.0))",adaptive,2288196359809012514,95.0,24.0,-1.3704369780970111,yes,"2 2 3 3 3 4",0.25,300
Autotrans_shift,"(□_[0.0, 30.0] (RPM < 3000.0) ==> □_[0.0, 4.0] (speed < 35.0))",adaptive,-7978627588467896043,70.0,17.0,-3.4756604241924123,yes,"2 2 3 3 3 4",0.25,300
Autotrans_shift,"(□_[0.0, 30.0] (RPM < 3000.0) ==> □_[0.0, 4.0] (speed < 35.0))",adaptive,-2062868880779000195,81.0,20.0,-1.3704369780970111,yes,"2 2 3 3 3 4",0.25,300
Autotrans_shift,"(□_[0.0, 30.0] (RPM < 3000.0) ==> □_[0.0, 4.0] (speed < 35.0))",adaptive,7267945883316164418,38.0,9.0,-1.3704369780970111,yes,"2 2 3 3 3 4",0.25,300
Autotrans_shift,"(□_[0.0, 30.0] (RPM < 3000.0) ==> □_[0.0, 4.0] (speed < 35.0))",adaptive,145312700824308090,53.0,13.0,-1.3704369780970111,yes,"2 2 3 3 3 4",0.25,300
Autotrans_shift,"(□_[0.0, 30.0] (RPM < 3000.0) ==> □_[0.0, 4.0] (speed < 35.0))",adaptive,7757832853158191444,51.0,13.0,-1.3704369780970111,yes,"2 2 3 3 3 4",0.25,300
Autotrans_shift,"(□_[0.0, 30.0] (RPM < 3000.0) ==> □_[0.0, 4.0] (speed < 35.0))",adaptive,-3796313945114286695,74.0,19.0,-3.4756604241924123,yes,"2 2 3 3 3 4",0.25,300
Autotrans_shift,"(□_[0.0, 30.0] (RPM < 3000.0) ==> □_[0.0, 4.0] (speed < 35.0))",adaptive,-6316228131199391637,65.0,16.0,-3.4756604241924123,yes,"2 2 3 3 3 4",0.25,300
Autotrans_shift,"(□_[0.0, 30.0] (RPM < 3000.0) ==> □_[0.0, 4.0] (speed < 35.0))",adaptive,-1120164810476170116,85.0,21.0,-1.3704369780970111,yes,"2 2 3 3 3 4",0.25,300
Autotrans_shift,"(□_[0.0, 30.0] (RPM < 3000.0) ==> □_[0.0, 4.0] (speed < 35.0))",adaptive,-1219428007583247046,26.0,6.0,-1.3704369780970111,yes,"2 2 3 3 3 4",0.25,300
Autotrans_shift,"(□_[0.0, 30.0] (RPM < 3000.0) ==> □_[0.0, 4.0] (speed < 35.0))",adaptive,-8632031087488057697,87.0,22.0,-1.3704369780970111,yes,"2 2 3 3 3 4",0.25,300
Autotrans_shift,"(□_[0.0, 30.0] (RPM < 3000.0) ==> □_[0.0, 4.0] (speed < 35.0))",adaptive,-5009535466218675689,60.0,15.0,-1.3704369780970111,yes,"2 2 3 3 3 4",0.25,300
Autotrans_shift,"(□_[0.0, 30.0] (RPM < 3000.0) ==> □_[0.0, 4.0] (speed < 35.0))",adaptive,7380550347694981249,49.0,12.0,-1.3704369780970111,yes,"2 2 3 3 3 4",0.25,300
Autotrans_shift,"(□_[0.0, 30.0] (RPM < 3000.0) ==> □_[0.0, 4.0] (speed < 35.0))",adaptive,-3907535920190602867,111.0,28.0,-3.4756604241924123,yes,"2 2 3 3 3 4",0.25,300
Autotrans_shift,"(□_[0.0, 30.0] (RPM < 3000.0) ==> □_[0.0, 4.0] (speed < 35.0))",adaptive,-6235689100090178981,170.0,43.0,-3.4756604241924123,yes,"2 2 3 3 3 4",0.25,300
Autotrans_shift,"(□_[0.0, 30.0] (RPM < 3000.0) ==> □_[0.0, 4.0] (speed < 35.0))",adaptive,-6344126935740741608,108.0,27.0,-3.4756604241924123,yes,"2 2 3 3 3 4",0.25,300
Autotrans_shift,"(□_[0.0, 30.0] (RPM < 3000.0) ==> □_[0.0, 4.0] (speed < 35.0))",adaptive,1072272307363654441,49.0,12.0,-3.4756604241924123,yes,"2 2 3 3 3 4",0.25,300
Autotrans_shift,"(□_[0.0, 30.0] (RPM < 3000.0) ==> □_[0.0, 4.0] (speed < 35.0))",adaptive,-6767395853241861487,78.0,19.0,-1.3704369780970111,yes,"2 2 3 3 3 4",0.25,300
Autotrans_shift,"(□_[0.0, 30.0] (RPM < 3000.0) ==> □_[0.0, 4.0] (speed < 35.0))",adaptive,-549604697536198141,66.0,16.0,-1.3704369780970111,yes,"2 2 3 3 3 4",0.25,300
Autotrans_shift,"(□_[0.0, 30.0] (RPM < 3000.0) ==> □_[0.0, 4.0] (speed < 35.0))",adaptive,-1691170657904842609,96.0,24.0,-3.4756604241924123,yes,"2 2 3 3 3 4",0.25,300
Autotrans_shift,"(□_[0.0, 30.0] (RPM < 3000.0) ==> □_[0.0, 4.0] (speed < 35.0))",adaptive,8077512639250820513,129.0,33.0,-1.3704369780970111,yes,"2 2 3 3 3 4",0.25,300
Autotrans_shift,"(□_[0.0, 30.0] (RPM < 3000.0) ==> □_[0.0, 4.0] (speed < 35.0))",adaptive,-4391553783481029331,60.0,15.0,-1.3704369780970111,yes,"2 2 3 3 3 4",0.25,300
Autotrans_shift,"(□_[0.0, 30.0] (RPM < 3000.0) ==> □_[0.0, 4.0] (speed < 35.0))",adaptive,1695865409267121320,51.0,13.0,-3.4756604241924123,yes,"2 2 3 3 3 4",0.25,300
Autotrans_shift,"(□_[0.0, 30.0] (RPM < 3000.0) ==> □_[0.0, 4.0] (speed < 35.0))",adaptive,-8336499899259412205,117.0,30.0,-3.4756604241924123,yes,"2 2 3 3 3 4",0.25,300
Autotrans_shift,"(□_[0.0, 30.0] (RPM < 3000.0) ==> □_[0.0, 4.0] (speed < 35.0))",adaptive,4531437655031640766,66.0,17.0,-1.3704369780970111,yes,"2 2 3 3 3 4",0.25,300
Autotrans_shift,"(□_[0.0, 30.0] (RPM < 3000.0) ==> □_[0.0, 4.0] (speed < 35.0))",adaptive,-3126483483342546135,128.0,33.0,-3.4756604241924123,yes,"2 2 3 3 3 4",0.25,300
Autotrans_shift,"(□_[0.0, 30.0] (RPM < 3000.0) ==> □_[0.0, 4.0] (speed < 35.0))",adaptive,-2455402770247731347,50.0,12.0,-1.3704369780970111,yes,"2 2 3 3 3 4",0.25,300
Autotrans_shift,"(□_[0.0, 30.0] (RPM < 3000.0) ==> □_[0.0, 4.0] (speed < 35.0))",adaptive,-3479929026484806956,123.0,31.0,-1.3704369780970111,yes,"2 2 3 3 3 4",0.25,300
Autotrans_shift,"(□_[0.0, 30.0] (RPM < 3000.0) ==> □_[0.0, 4.0] (speed < 35.0))",adaptive,2098441787039166585,58.0,15.0,-1.3704369780970111,yes,"2 2 3 3 3 4",0.25,300
Autotrans_shift,"(□_[0.0, 30.0] (RPM < 3000.0) ==> □_[0.0, 4.0] (speed < 35.0))",adaptive,-7716847914956233483,110.0,28.0,-1.3704369780970111,yes,"2 2 3 3 3 4",0.25,300
Autotrans_shift,"(□_[0.0, 30.0] (RPM < 3000.0) ==> □_[0.0, 4.0] (speed < 35.0))",adaptive,8753839295666985436,92.0,23.0,-1.3704369780970111,yes,"2 2 3 3 3 4",0.25,300
Autotrans_shift,"(□_[0.0, 30.0] (RPM < 3000.0) ==> □_[0.0, 4.0] (speed < 35.0))",adaptive,183419633034355150,46.0,11.0,-1.3704369780970111,yes,"2 2 3 3 3 4",0.25,300
Autotrans_shift,"(□_[0.0, 30.0] (RPM < 3000.0) ==> □_[0.0, 4.0] (speed < 35.0))",adaptive,8934142648386769222,72.0,18.0,-1.3704369780970111,yes,"2 2 3 3 3 4",0.25,300
Autotrans_shift,"(□_[0.0, 30.0] (RPM < 3000.0) ==> □_[0.0, 4.0] (speed < 35.0))",adaptive,-8928684460640542693,64.0,16.0,-3.4756604241924123,yes,"2 2 3 3 3 4",0.25,300
Autotrans_shift,"(□_[0.0, 30.0] (RPM < 3000.0) ==> □_[0.0, 4.0] (speed < 35.0))",adaptive,3180283972558212700,91.0,23.0,-1.3704369780970111,yes,"2 2 3 3 3 4",0.25,300
Autotrans_shift,"(□_[0.0, 30.0] (RPM < 3000.0) ==> □_[0.0, 4.0] (speed < 35.0))",adaptive,1159041532597085408,53.0,13.0,-1.3704369780970111,yes,"2 2 3 3 3 4",0.25,300
Autotrans_shift,"(□_[0.0, 30.0] (RPM < 3000.0) ==> □_[0.0, 4.0] (speed < 35.0))",adaptive,7699556029693104323,51.0,13.0,-1.3704369780970111,yes,"2 2 3 3 3 4",0.25,300
Autotrans_shift,"(□_[0.0, 30.0] (RPM < 3000.0) ==> □_[0.0, 4.0] (speed < 35.0))",adaptive,-938015454966270164,56.0,14.0,-1.3704369780970111,yes,"2 2 3 3 3 4",0.25,300
Autotrans_shift,"(□_[0.0, 30.0] (RPM < 3000.0) ==> □_[0.0, 4.0] (speed < 35.0))",adaptive,-4113028116465071637,63.0,16.0,-3.4756604241924123,yes,"2 2 3 3 3 4",0.25,300
Autotrans_shift,"(□_[0.0, 30.0] (RPM < 3000.0) ==> □_[0.0, 4.0] (speed < 35.0))",adaptive,1942032824428023715,49.0,12.0,-3.4756604241924123,yes,"2 2 3 3 3 4",0.25,300
Autotrans_shift,"(□_[0.0, 30.0] (RPM < 3000.0) ==> □_[0.0, 4.0] (speed < 35.0))",adaptive,-5259689940990740843,113.0,28.0,-1.3704369780970111,yes,"2 2 3 3 3 4",0.25,300
Autotrans_shift,"(□_[0.0, 30.0] (RPM < 3000.0) ==> □_[0.0, 8.0] (speed < 50.0))",adaptive,0,131.0,33.0,-2.0308819120779873,yes,"2 2 3 3 3 4",0.25,300
Autotrans_shift,"(□_[0.0, 30.0] (RPM < 3000.0) ==> □_[0.0, 8.0] (speed < 50.0))",adaptive,4427671755357772393,48.0,12.0,-2.0308819120779873,yes,"2 2 3 3 3 4",0.25,300
Autotrans_shift,"(□_[0.0, 30.0] (RPM < 3000.0) ==> □_[0.0, 8.0] (speed < 50.0))",adaptive,-422302625793907748,30.0,7.0,-2.0308819120779873,yes,"2 2 3 3 3 4",0.25,300
Autotrans_shift,"(□_[0.0, 30.0] (RPM < 3000.0) ==> □_[0.0, 8.0] (speed < 50.0))",adaptive,-1877124453175798721,111.0,28.0,-2.0308819120779873,yes,"2 2 3 3 3 4",0.25,300
Autotrans_shift,"(□_[0.0, 30.0] (RPM < 3000.0) ==> □_[0.0, 8.0] (speed < 50.0))",adaptive,-5281367268475317360,154.0,39.0,-2.0308819120779873,yes,"2 2 3 3 3 4",0.25,300
Autotrans_shift,"(□_[0.0, 30.0] (RPM < 3000.0) ==> □_[0.0, 8.0] (speed < 50.0))",adaptive,3990962774680348118,153.0,39.0,-2.0308819120779873,yes,"2 2 3 3 3 4",0.25,300
Autotrans_shift,"(□_[0.0, 30.0] (RPM < 3000.0) ==> □_[0.0, 8.0] (speed < 50.0))",adaptive,-9168583376942823152,79.0,20.0,-2.0308819120779873,yes,"2 2 3 3 3 4",0.25,300
Autotrans_shift,"(□_[0.0, 30.0] (RPM < 3000.0) ==> □_[0.0, 8.0] (speed < 50.0))",adaptive,-5725330936222447689,56.0,14.0,-2.0308819120779873,yes,"2 2 3 3 3 4",0.25,300
Autotrans_shift,"(□_[0.0, 30.0] (RPM < 3000.0) ==> □_[0.0, 8.0] (speed < 50.0))",adaptive,-2821758373311873461,83.0,19.0,-2.0308819120779873,yes,"2 2 3 3 3 4",0.25,300
Autotrans_shift,"(□_[0.0, 30.0] (RPM < 3000.0) ==> □_[0.0, 8.0] (speed < 50.0))",adaptive,911406777524867427,75.0,17.0,-2.0308819120779873,yes,"2 2 3 3 3 4",0.25,300
Autotrans_shift,"(□_[0.0, 30.0] (RPM < 3000.0) ==> □_[0.0, 8.0] (speed < 50.0))",adaptive,-5528301411929802287,77.0,17.0,-2.0308819120779873,yes,"2 2 3 3 3 4",0.25,300
Autotrans_shift,"(□_[0.0, 30.0] (RPM < 3000.0) ==> □_[0.0, 8.0] (speed < 50.0))",adaptive,6872871961544703532,39.0,9.0,-2.0308819120779873,yes,"2 2 3 3 3 4",0.25,300
Autotrans_shift,"(□_[0.0, 30.0] (RPM < 3000.0) ==> □_[0.0, 8.0] (speed < 50.0))",adaptive,-528005180341966074,30.0,6.0,-2.0308819120779873,yes,"2 2 3 3 3 4",0.25,300
Autotrans_shift,"(□_[0.0, 30.0] (RPM < 3000.0) ==> □_[0.0, 8.0] (speed < 50.0))",adaptive,959400634056738141,195.0,45.0,-2.0308819120779873,yes,"2 2 3 3 3 4",0.25,300
Autotrans_shift,"(□_[0.0, 30.0] (RPM < 3000.0) ==> □_[0.0, 8.0] (speed < 50.0))",adaptive,-7600861406460126313,31.0,7.0,-2.0308819120779873,yes,"2 2 3 3 3 4",0.25,300
Autotrans_shift,"(□_[0.0, 30.0] (RPM < 3000.0) ==> □_[0.0, 8.0] (speed < 50.0))",adaptive,3722466064901639206,134.0,31.0,-2.0308819120779873,yes,"2 2 3 3 3 4",0.25,300
Autotrans_shift,"(□_[0.0, 30.0] (RPM < 3000.0) ==> □_[0.0, 8.0] (speed < 50.0))",adaptive,-1059688131396475115,75.0,17.0,-2.0308819120779873,yes,"2 2 3 3 3 4",0.25,300
Autotrans_shift,"(□_[0.0, 30.0] (RPM < 3000.0) ==> □_[0.0, 8.0] (speed < 50.0))",adaptive,-8867790358890280454,52.0,12.0,-2.0308819120779873,yes,"2 2 3 3 3 4",0.25,300
Autotrans_shift,"(□_[0.0, 30.0] (RPM < 3000.0) ==> □_[0.0, 8.0] (speed < 50.0))",adaptive,-4193709026557326943,123.0,28.0,-2.0308819120779873,yes,"2 2 3 3 3 4",0.25,300
Autotrans_shift,"(□_[0.0, 30.0] (RPM < 3000.0) ==> □_[0.0, 8.0] (speed < 50.0))",adaptive,-8921997270877803358,14.0,3.0,-2.0308819120779873,yes,"2 2 3 3 3 4",0.25,300
Autotrans_shift,"(□_[0.0, 30.0] (RPM < 3000.0) ==> □_[0.0, 8.0] (speed < 50.0))",adaptive,5098273113407440940,69.0,16.0,-2.0308819120779873,yes,"2 2 3 3 3 4",0.25,300
Autotrans_shift,"(□_[0.0, 30.0] (RPM < 3000.0) ==> □_[0.0, 8.0] (speed < 50.0))",adaptive,6457391336556427150,189.0,45.0,-2.0308819120779873,yes,"2 2 3 3 3 4",0.25,300
Autotrans_shift,"(□_[0.0, 30.0] (RPM < 3000.0) ==> □_[0.0, 8.0] (speed < 50.0))",adaptive,6634973892295880015,29.0,6.0,-2.0308819120779873,yes,"2 2 3 3 3 4",0.25,300
Autotrans_shift,"(□_[0.0, 30.0] (RPM < 3000.0) ==> □_[0.0, 8.0] (speed < 50.0))",adaptive,-9107918670949752964,64.0,15.0,-2.0308819120779873,yes,"2 2 3 3 3 4",0.25,300
Autotrans_shift,"(□_[0.0, 30.0] (RPM < 3000.0) ==> □_[0.0, 8.0] (speed < 50.0))",adaptive,-4868236087977183446,74.0,17.0,-2.0308819120779873,yes,"2 2 3 3 3 4",0.25,300
Autotrans_shift,"(□_[0.0, 30.0] (RPM < 3000.0) ==> □_[0.0, 8.0] (speed < 50.0))",adaptive,68288323846190191,75.0,17.0,-2.0308819120779873,yes,"2 2 3 3 3 4",0.25,300
Autotrans_shift,"(□_[0.0, 30.0] (RPM < 3000.0) ==> □_[0.0, 8.0] (speed < 50.0))",adaptive,-2189274102143958210,95.0,22.0,-2.0308819120779873,yes,"2 2 3 3 3 4",0.25,300
Autotrans_shift,"(□_[0.0, 30.0] (RPM < 3000.0) ==> □_[0.0, 8.0] (speed < 50.0))",adaptive,-4009060332145194166,63.0,15.0,-2.0308819120779873,yes,"2 2 3 3 3 4",0.25,300
Autotrans_shift,"(□_[0.0, 30.0] (RPM < 3000.0) ==> □_[0.0, 8.0] (speed < 50.0))",adaptive,-8234339360453495145,109.0,25.0,-2.0308819120779873,yes,"2 2 3 3 3 4",0.25,300
Autotrans_shift,"(□_[0.0, 30.0] (RPM < 3000.0) ==> □_[0.0, 8.0] (speed < 50.0))",adaptive,-304978954715779379,57.0,13.0,-2.0308819120779873,yes,"2 2 3 3 3 4",0.25,300
Autotrans_shift,"(□_[0.0, 30.0] (RPM < 3000.0) ==> □_[0.0, 8.0] (speed < 50.0))",adaptive,6230852677116143363,68.0,16.0,-2.0308819120779873,yes,"2 2 3 3 3 4",0.25,300
Autotrans_shift,"(□_[0.0, 30.0] (RPM < 3000.0) ==> □_[0.0, 8.0] (speed < 50.0))",adaptive,-6915394586378911739,93.0,22.0,-2.0308819120779873,yes,"2 2 3 3 3 4",0.25,300
Autotrans_shift,"(□_[0.0, 30.0] (RPM < 3000.0) ==> □_[0.0, 8.0] (speed < 50.0))",adaptive,7750830188263040358,85.0,20.0,-2.0308819120779873,yes,"2 2 3 3 3 4",0.25,300
Autotrans_shift,"(□_[0.0, 30.0] (RPM < 3000.0) ==> □_[0.0, 8.0] (speed < 50.0))",adaptive,4510778455551331930,65.0,15.0,-2.0308819120779873,yes,"2 2 3 3 3 4",0.25,300
Autotrans_shift,"(□_[0.0, 30.0] (RPM < 3000.0) ==> □_[0.0, 8.0] (speed < 50.0))",adaptive,-7933366351182275566,60.0,14.0,-2.0308819120779873,yes,"2 2 3 3 3 4",0.25,300
Autotrans_shift,"(□_[0.0, 30.0] (RPM < 3000.0) ==> □_[0.0, 8.0] (speed < 50.0))",adaptive,2695342460733625224,133.0,31.0,-2.0308819120779873,yes,"2 2 3 3 3 4",0.25,300
Autotrans_shift,"(□_[0.0, 30.0] (RPM < 3000.0) ==> □_[0.0, 8.0] (speed < 50.0))",adaptive,-7587938880609530340,51.0,12.0,-2.0308819120779873,yes,"2 2 3 3 3 4",0.25,300
Autotrans_shift,"(□_[0.0, 30.0] (RPM < 3000.0) ==> □_[0.0, 8.0] (speed < 50.0))",adaptive,3581650300215782215,57.0,13.0,-2.0308819120779873,yes,"2 2 3 3 3 4",0.25,300
Autotrans_shift,"(□_[0.0, 30.0] (RPM < 3000.0) ==> □_[0.0, 8.0] (speed < 50.0))",adaptive,242345185314638521,86.0,20.0,-2.0308819120779873,yes,"2 2 3 3 3 4",0.25,300
Autotrans_shift,"(□_[0.0, 30.0] (RPM < 3000.0) ==> □_[0.0, 8.0] (speed < 50.0))",adaptive,-1416746313627751314,99.0,23.0,-3.414274625847341,yes,"2 2 3 3 3 4",0.25,300
Autotrans_shift,"(□_[0.0, 30.0] (RPM < 3000.0) ==> □_[0.0, 8.0] (speed < 50.0))",adaptive,-3504258893353103541,60.0,14.0,-2.0308819120779873,yes,"2 2 3 3 3 4",0.25,300
Autotrans_shift,"(□_[0.0, 30.0] (RPM < 3000.0) ==> □_[0.0, 8.0] (speed < 50.0))",adaptive,3425177951359892307,90.0,21.0,-2.0308819120779873,yes,"2 2 3 3 3 4",0.25,300
Autotrans_shift,"(□_[0.0, 30.0] (RPM < 3000.0) ==> □_[0.0, 8.0] (speed < 50.0))",adaptive,-2273771858008357302,26.0,6.0,-2.0308819120779873,yes,"2 2 3 3 3 4",0.25,300
Autotrans_shift,"(□_[0.0, 30.0] (RPM < 3000.0) ==> □_[0.0, 8.0] (speed < 50.0))",adaptive,3003736327565162365,108.0,25.0,-2.0308819120779873,yes,"2 2 3 3 3 4",0.25,300
Autotrans_shift,"(□_[0.0, 30.0] (RPM < 3000.0) ==> □_[0.0, 8.0] (speed < 50.0))",adaptive,8148154177542375031,48.0,11.0,-2.0308819120779873,yes,"2 2 3 3 3 4",0.25,300
Autotrans_shift,"(□_[0.0, 30.0] (RPM < 3000.0) ==> □_[0.0, 8.0] (speed < 50.0))",adaptive,5392907049113263272,108.0,25.0,-2.0308819120779873,yes,"2 2 3 3 3 4",0.25,300
Autotrans_shift,"(□_[0.0, 30.0] (RPM < 3000.0) ==> □_[0.0, 8.0] (speed < 50.0))",adaptive,708801433276609917,106.0,25.0,-2.0308819120779873,yes,"2 2 3 3 3 4",0.25,300
Autotrans_shift,"(□_[0.0, 30.0] (RPM < 3000.0) ==> □_[0.0, 8.0] (speed < 50.0))",adaptive,6482348075263502639,75.0,17.0,-2.0308819120779873,yes,"2 2 3 3 3 4",0.25,300
Autotrans_shift,"(□_[0.0, 30.0] (RPM < 3000.0) ==> □_[0.0, 8.0] (speed < 50.0))",adaptive,-1885215521167199294,96.0,22.0,-2.0308819120779873,yes,"2 2 3 3 3 4",0.25,300
Autotrans_shift,"(□_[0.0, 30.0] (RPM < 3000.0) ==> □_[0.0, 8.0] (speed < 50.0))",adaptive,-1753116900136019762,91.0,21.0,-2.0308819120779873,yes,"2 2 3 3 3 4",0.25,300
Autotrans_shift,"(□_[0.0, 30.0] (RPM < 3000.0) ==> □_[0.0, 4.0] (speed < 70.0))",adaptive,0,177.0,42.0,Infinity,no,"2 2 3 3 3 4",0.25,300
Autotrans_shift,"(□_[0.0, 30.0] (RPM < 3000.0) ==> □_[0.0, 4.0] (speed < 70.0))",adaptive,-7284007177032248329,177.0,41.0,Infinity,no,"2 2 3 3 3 4",0.25,300
Autotrans_shift,"(□_[0.0, 30.0] (RPM < 3000.0) ==> □_[0.0, 4.0] (speed < 70.0))",adaptive,8822472091754382230,177.0,42.0,Infinity,no,"2 2 3 3 3 4",0.25,300
Autotrans_shift,"(□_[0.0, 30.0] (RPM < 3000.0) ==> □_[0.0, 4.0] (speed < 70.0))",adaptive,-8597079880599136432,177.0,41.0,Infinity,no,"2 2 3 3 3 4",0.25,300
Autotrans_shift,"(□_[0.0, 30.0] (RPM < 3000.0) ==> □_[0.0, 4.0] (speed < 70.0))",adaptive,-8035933554798289878,177.0,42.0,Infinity,no,"2 2 3 3 3 4",0.25,300
Autotrans_shift,"(□_[0.0, 30.0] (RPM < 3000.0) ==> □_[0.0, 4.0] (speed < 70.0))",adaptive,3802881968486381509,177.0,42.0,Infinity,no,"2 2 3 3 3 4",0.25,300
Autotrans_shift,"(□_[0.0, 30.0] (RPM < 3000.0) ==> □_[0.0, 4.0] (speed < 70.0))",adaptive,-5945708512449768389,177.0,43.0,Infinity,no,"2 2 3 3 3 4",0.25,300
Autotrans_shift,"(□_[0.0, 30.0] (RPM < 3000.0) ==> □_[0.0, 4.0] (speed < 70.0))",adaptive,4920502643500207930,177.0,42.0,Infinity,no,"2 2 3 3 3 4",0.25,300
Autotrans_shift,"(□_[0.0, 30.0] (RPM < 3000.0) ==> □_[0.0, 4.0] (speed < 70.0))",adaptive,-8933049946749658918,177.0,42.0,Infinity,no,"2 2 3 3 3 4",0.25,300
Autotrans_shift,"(□_[0.0, 30.0] (RPM < 3000.0) ==> □_[0.0, 4.0] (speed < 70.0))",adaptive,6466639652246821129,177.0,42.0,Infinity,no,"2 2 3 3 3 4",0.25,300
Autotrans_shift,"(□_[0.0, 30.0] (RPM < 3000.0) ==> □_[0.0, 4.0] (speed < 70.0))",adaptive,-8966789652720861824,177.0,42.0,Infinity,no,"2 2 3 3 3 4",0.25,300
Autotrans_shift,"(□_[0.0, 30.0] (RPM < 3000.0) ==> □_[0.0, 4.0] (speed < 70.0))",adaptive,-4608747874400119535,177.0,42.0,Infinity,no,"2 2 3 3 3 4",0.25,300
Autotrans_shift,"(□_[0.0, 30.0] (RPM < 3000.0) ==> □_[0.0, 4.0] (speed < 70.0))",adaptive,6864917683288296297,177.0,42.0,Infinity,no,"2 2 3 3 3 4",0.25,300
Autotrans_shift,"(□_[0.0, 30.0] (RPM < 3000.0) ==> □_[0.0, 4.0] (speed < 70.0))",adaptive,-2205117868517249633,177.0,42.0,Infinity,no,"2 2 3 3 3 4",0.25,300
Autotrans_shift,"(□_[0.0, 30.0] (RPM < 3000.0) ==> □_[0.0, 4.0] (speed < 70.0))",adaptive,4470950063319247749,177.0,42.0,Infinity,no,"2 2 3 3 3 4",0.25,300
Autotrans_shift,"(□_[0.0, 30.0] (RPM < 3000.0) ==> □_[0.0, 4.0] (speed < 70.0))",adaptive,-4054877927259931239,177.0,42.0,Infinity,no,"2 2 3 3 3 4",0.25,300
Autotrans_shift,"(□_[0.0, 30.0] (RPM < 3000.0) ==> □_[0.0, 4.0] (speed < 70.0))",adaptive,-4691648951759858952,177.0,42.0,Infinity,no,"2 2 3 3 3 4",0.25,300
Autotrans_shift,"(□_[0.0, 30.0] (RPM < 3000.0) ==> □_[0.0, 4.0] (speed < 70.0))",adaptive,-6187580036672615978,177.0,42.0,Infinity,no,"2 2 3 3 3 4",0.25,300
Autotrans_shift,"(□_[0.0, 30.0] (RPM < 3000.0) ==> □_[0.0, 4.0] (speed < 70.0))",adaptive,-7756025529710934302,177.0,42.0,Infinity,no,"2 2 3 3 3 4",0.25,300
Autotrans_shift,"(□_[0.0, 30.0] (RPM < 3000.0) ==> □_[0.0, 4.0] (speed < 70.0))",adaptive,-874733279546157565,177.0,42.0,Infinity,no,"2 2 3 3 3 4",0.25,300
Autotrans_shift,"(□_[0.0, 30.0] (RPM < 3000.0) ==> □_[0.0, 4.0] (speed < 70.0))",adaptive,-484929468028284116,177.0,42.0,Infinity,no,"2 2 3 3 3 4",0.25,300
Autotrans_shift,"(□_[0.0, 30.0] (RPM < 3000.0) ==> □_[0.0, 4.0] (speed < 70.0))",adaptive,1959147407745907673,177.0,42.0,Infinity,no,"2 2 3 3 3 4",0.25,300
Autotrans_shift,"(□_[0.0, 30.0] (RPM < 3000.0) ==> □_[0.0, 4.0] (speed < 70.0))",adaptive,1369258201309542561,177.0,42.0,Infinity,no,"2 2 3 3 3 4",0.25,300
Autotrans_shift,"(□_[0.0, 30.0] (RPM < 3000.0) ==> □_[0.0, 4.0] (speed < 70.0))",adaptive,4339674274358356044,177.0,42.0,Infinity,no,"2 2 3 3 3 4",0.25,300
Autotrans_shift,"(□_[0.0, 30.0] (RPM < 3000.0) ==> □_[0.0, 4.0] (speed < 70.0))",adaptive,7495272030556092031,177.0,43.0,Infinity,no,"2 2 3 3 3 4",0.25,300
Autotrans_shift,"(□_[0.0, 30.0] (RPM < 3000.0) ==> □_[0.0, 4.0] (speed < 70.0))",adaptive,-7917804758112010660,177.0,43.0,Infinity,no,"2 2 3 3 3 4",0.25,300
Autotrans_shift,"(□_[0.0, 30.0] (RPM < 3000.0) ==> □_[0.0, 4.0] (speed < 70.0))",adaptive,7597743278643621437,177.0,43.0,Infinity,no,"2 2 3 3 3 4",0.25,300
Autotrans_shift,"(□_[0.0, 30.0] (RPM < 3000.0) ==> □_[0.0, 4.0] (speed < 70.0))",adaptive,-4368224547297287942,177.0,43.0,Infinity,no,"2 2 3 3 3 4",0.25,300
Autotrans_shift,"(□_[0.0, 30.0] (RPM < 3000.0) ==> □_[0.0, 4.0] (speed < 70.0))",adaptive,-959471501421847629,177.0,43.0,Infinity,no,"2 2 3 3 3 4",0.25,300
Autotrans_shift,"(□_[0.0, 30.0] (RPM < 3000.0) ==> □_[0.0, 4.0] (speed < 70.0))",adaptive,-7642781386518802371,177.0,42.0,Infinity,no,"2 2 3 3 3 4",0.25,300
Autotrans_shift,"(□_[0.0, 30.0] (RPM < 3000.0) ==> □_[0.0, 4.0] (speed < 70.0))",adaptive,7950294890313115779,177.0,43.0,Infinity,no,"2 2 3 3 3 4",0.25,300
Autotrans_shift,"(□_[0.0, 30.0] (RPM < 3000.0) ==> □_[0.0, 4.0] (speed < 70.0))",adaptive,6410085487001012702,177.0,43.0,Infinity,no,"2 2 3 3 3 4",0.25,300
Autotrans_shift,"(□_[0.0, 30.0] (RPM < 3000.0) ==> □_[0.0, 4.0] (speed < 70.0))",adaptive,5841840428573507685,177.0,43.0,Infinity,no,"2 2 3 3 3 4",0.25,300
Autotrans_shift,"(□_[0.0, 30.0] (RPM < 3000.0) ==> □_[0.0, 4.0] (speed < 70.0))",adaptive,-1978682475471892,177.0,43.0,Infinity,no,"2 2 3 3 3 4",0.25,300
Autotrans_shift,"(□_[0.0, 30.0] (RPM < 3000.0) ==> □_[0.0, 4.0] (speed < 70.0))",adaptive,-8010176033079493184,177.0,43.0,Infinity,no,"2 2 3 3 3 4",0.25,300
Autotrans_shift,"(□_[0.0, 30.0] (RPM < 3000.0) ==> □_[0.0, 4.0] (speed < 70.0))",adaptive,-764553153002186968,177.0,43.0,Infinity,no,"2 2 3 3 3 4",0.25,300
Autotrans_shift,"(□_[0.0, 30.0] (RPM < 3000.0) ==> □_[0.0, 4.0] (speed < 70.0))",adaptive,5157597511446026701,177.0,43.0,Infinity,no,"2 2 3 3 3 4",0.25,300
Autotrans_shift,"(□_[0.0, 30.0] (RPM < 3000.0) ==> □_[0.0, 4.0] (speed < 70.0))",adaptive,1898263060908597877,177.0,43.0,Infinity,no,"2 2 3 3 3 4",0.25,300
Autotrans_shift,"(□_[0.0, 30.0] (RPM < 3000.0) ==> □_[0.0, 4.0] (speed < 70.0))",adaptive,-5914543860822094095,177.0,43.0,Infinity,no,"2 2 3 3 3 4",0.25,300
Autotrans_shift,"(□_[0.0, 30.0] (RPM < 3000.0) ==> □_[0.0, 4.0] (speed < 70.0))",adaptive,568778566010907388,177.0,43.0,Infinity,no,"2 2 3 3 3 4",0.25,300
Autotrans_shift,"(□_[0.0, 30.0] (RPM < 3000.0) ==> □_[0.0, 4.0] (speed < 70.0))",adaptive,-8242184479929812227,177.0,43.0,Infinity,no,"2 2 3 3 3 4",0.25,300
Autotrans_shift,"(□_[0.0, 30.0] (RPM < 3000.0) ==> □_[0.0, 4.0] (speed < 70.0))",adaptive,6563592474140143015,177.0,43.0,Infinity,no,"2 2 3 3 3 4",0.25,300
Autotrans_shift,"(□_[0.0, 30.0] (RPM < 3000.0) ==> □_[0.0, 4.0] (speed < 70.0))",adaptive,-3904413519021995134,177.0,43.0,Infinity,no,"2 2 3 3 3 4",0.25,300
Autotrans_shift,"(□_[0.0, 30.0] (RPM < 3000.0) ==> □_[0.0, 4.0] (speed < 70.0))",adaptive,-7974825473560259845,177.0,43.0,Infinity,no,"2 2 3 3 3 4",0.25,300
Autotrans_shift,"(□_[0.0, 30.0] (RPM < 3000.0) ==> □_[0.0, 4.0] (speed < 70.0))",adaptive,7750925225279823022,177.0,43.0,Infinity,no,"2 2 3 3 3 4",0.25,300
Autotrans_shift,"(□_[0.0, 30.0] (RPM < 3000.0) ==> □_[0.0, 4.0] (speed < 70.0))",adaptive,-4362259813943301268,177.0,43.0,Infinity,no,"2 2 3 3 3 4",0.25,300
Autotrans_shift,"(□_[0.0, 30.0] (RPM < 3000.0) ==> □_[0.0, 4.0] (speed < 70.0))",adaptive,6982696221403997336,177.0,43.0,Infinity,no,"2 2 3 3 3 4",0.25,300
Autotrans_shift,"(□_[0.0, 30.0] (RPM < 3000.0) ==> □_[0.0, 4.0] (speed < 70.0))",adaptive,3493817853821010001,177.0,43.0,Infinity,no,"2 2 3 3 3 4",0.25,300
Autotrans_shift,"(□_[0.0, 30.0] (RPM < 3000.0) ==> □_[0.0, 4.0] (speed < 70.0))",adaptive,-4766198430089033357,177.0,43.0,Infinity,no,"2 2 3 3 3 4",0.25,300
Autotrans_shift,"(□_[0.0, 30.0] (RPM < 3000.0) ==> □_[0.0, 4.0] (speed < 70.0))",adaptive,359110716197400366,177.0,43.0,Infinity,no,"2 2 3 3 3 4",0.25,300

