benchmark,model,property,algorithm,seed,simulations,time,robustness,falsified,input,control points,exploration ratio,budget
SC,steamcondense_RNN_22,"□_[30.0, 35.0] ((87.0 <= pressure) && (pressure <= 87.5))",adaptive,0,300,57,0.118917671855172,no,[0.0 4.01; 1.75 4.01; 3.5 4.01; 5.25 4.01; 7.0 3.99; 8.75 3.99; 10.5 4.0; 12.25 3.99; 14.0 4.01; 15.75 4.0; 17.5 3.995; 19.25 4.01; 21.0 3.9925; 22.75 4.0; 24.5 4.0075; 26.25 3.99; 28.0 4.0; 29.75 4.005; 31.5 4.01; 33.25 4.01; 35.0 4.01],20 20 20 20 20 20,0.25,300
SC,steamcondense_RNN_22,"□_[30.0, 35.0] ((87.0 <= pressure) && (pressure <= 87.5))",adaptive,-7.96002862118566E+018,300,36,0.107961584381755,no,[0.0 4.01; 1.75 3.99; 3.5 4.01; 5.25 4.01; 7.0 3.99; 8.75 4.0; 10.5 4.0; 12.25 4.0; 14.0 4.01; 15.75 4.01; 17.5 4.005; 19.25 4.01; 21.0 4.0075; 22.75 4.0; 24.5 4.0075; 26.25 4.0; 28.0 3.99; 29.75 4.005; 31.5 3.99125; 33.25 4.0; 35.0 4.0],20 20 20 20 20 20,0.25,300
SC,steamcondense_RNN_22,"□_[30.0, 35.0] ((87.0 <= pressure) && (pressure <= 87.5))",adaptive,-6.33906468692427E+018,300,36,0.124970443868207,no,[0.0 3.99; 1.75 4.0024999999999995; 3.5 4.0024999999999995; 5.25 3.99; 7.0 3.99; 8.75 4.01; 10.5 3.99; 12.25 4.01; 14.0 4.0; 15.75 3.9975; 17.5 4.0; 19.25 3.99; 21.0 3.99; 22.75 3.99125; 24.5 3.99; 26.25 4.01; 28.0 4.01; 29.75 3.99; 31.5 4.0; 33.25 3.99; 35.0 3.99],20 20 20 20 20 20,0.25,300
SC,steamcondense_RNN_22,"□_[30.0, 35.0] ((87.0 <= pressure) && (pressure <= 87.5))",adaptive,-1.20273284344189E+018,300,38,0.130943688599459,no,[0.0 4.01; 1.75 4.0; 3.5 4.01; 5.25 4.01; 7.0 4.005; 8.75 4.0; 10.5 3.99; 12.25 3.99; 14.0 3.99; 15.75 4.01; 17.5 4.0; 19.25 3.99; 21.0 4.0; 22.75 4.01; 24.5 4.01; 26.25 4.00875; 28.0 4.0; 29.75 4.0; 31.5 4.0; 33.25 4.01; 35.0 4.01],20 20 20 20 20 20,0.25,300
SC,steamcondense_RNN_22,"□_[30.0, 35.0] ((87.0 <= pressure) && (pressure <= 87.5))",adaptive,3.61321455337862E+018,300,35,0.09264698171188,no,[0.0 4.01; 1.75 4.0; 3.5 3.995; 5.25 4.005; 7.0 3.99; 8.75 4.01; 10.5 4.01; 12.25 4.005; 14.0 4.0; 15.75 4.01; 17.5 4.01; 19.25 4.01; 21.0 4.0; 22.75 4.006875; 24.5 4.01; 26.25 3.990625; 28.0 3.99; 29.75 4.01; 31.5 3.99; 33.25 3.9975; 35.0 3.9975],20 20 20 20 20 20,0.25,300
SC,steamcondense_RNN_22,"□_[30.0, 35.0] ((87.0 <= pressure) && (pressure <= 87.5))",adaptive,9.10493023610815E+018,300,36,0.143783094298016,no,[0.0 4.01; 1.75 3.99; 3.5 4.01; 5.25 4.005; 7.0 3.99; 8.75 3.99; 10.5 4.0; 12.25 3.99; 14.0 4.01; 15.75 4.01; 17.5 4.0; 19.25 3.9925; 21.0 4.0; 22.75 4.0; 24.5 4.005; 26.25 3.99; 28.0 4.0; 29.75 3.99; 31.5 4.0; 33.25 3.99; 35.0 3.99],20 20 20 20 20 20,0.25,300
SC,steamcondense_RNN_22,"□_[30.0, 35.0] ((87.0 <= pressure) && (pressure <= 87.5))",adaptive,-6.59756784861143E+018,300,36,0.111596940610056,no,[0.0 4.0; 1.75 3.99; 3.5 4.0; 5.25 4.01; 7.0 3.9925; 8.75 3.99; 10.5 3.9925; 12.25 4.0; 14.0 4.01; 15.75 3.99; 17.5 3.99; 19.25 3.99; 21.0 4.0; 22.75 4.00375; 24.5 3.99; 26.25 3.9925; 28.0 4.005; 29.75 4.01; 31.5 4.0; 33.25 4.01; 35.0 4.01],20 20 20 20 20 20,0.25,300
SC,steamcondense_RNN_22,"□_[30.0, 35.0] ((87.0 <= pressure) && (pressure <= 87.5))",adaptive,1.95098400692374E+018,300,36,0.100614518337466,no,[0.0 3.9975; 1.75 3.99; 3.5 4.01; 5.25 4.0; 7.0 4.01; 8.75 4.0; 10.5 4.01; 12.25 4.0; 14.0 4.0; 15.75 3.9975; 17.5 3.99; 19.25 4.01; 21.0 4.01; 22.75 4.01; 24.5 4.0; 26.25 3.99; 28.0 4.0075; 29.75 4.005; 31.5 3.99; 33.25 4.0; 35.0 4.0],20 20 20 20 20 20,0.25,300
SC,steamcondense_RNN_22,"□_[30.0, 35.0] ((87.0 <= pressure) && (pressure <= 87.5))",adaptive,1.25156819691712E+018,300,37,0.109877768798867,no,[0.0 3.995; 1.75 4.01; 3.5 4.005; 5.25 4.0; 7.0 3.99; 8.75 3.99; 10.5 4.0; 12.25 4.005; 14.0 4.0; 15.75 3.99; 17.5 4.0; 19.25 4.01; 21.0 3.99; 22.75 4.0; 24.5 4.01; 26.25 4.01; 28.0 4.005; 29.75 3.99; 31.5 3.99; 33.25 4.0075; 35.0 4.0075],20 20 20 20 20 20,0.25,300
SC,steamcondense_RNN_22,"□_[30.0, 35.0] ((87.0 <= pressure) && (pressure <= 87.5))",adaptive,-2.12240467001591E+018,300,36,0.059668833348354,no,[0.0 3.998125; 1.75 4.0; 3.5 4.01; 5.25 4.005; 7.0 3.99; 8.75 3.99; 10.5 3.9975; 12.25 3.995; 14.0 3.99; 15.75 3.99; 17.5 4.01; 19.25 4.005; 21.0 3.99; 22.75 4.01; 24.5 4.01; 26.25 4.01; 28.0 3.99; 29.75 4.01; 31.5 3.995; 33.25 4.01; 35.0 4.01],20 20 20 20 20 20,0.25,300
SC,steamcondense_RNN_22,"□_[30.0, 35.0] ((87.0 <= pressure) && (pressure <= 87.5))",adaptive,1.02367329714267E+018,300,37,0.085002090570299,no,[0.0 4.0; 1.75 4.01; 3.5 3.99; 5.25 4.01; 7.0 3.99; 8.75 4.0; 10.5 4.0075; 12.25 3.995; 14.0 3.99; 15.75 3.99; 17.5 3.99125; 19.25 4.0; 21.0 4.005; 22.75 4.005; 24.5 4.01; 26.25 4.0; 28.0 3.995; 29.75 3.99; 31.5 4.01; 33.25 4.0; 35.0 4.0],20 20 20 20 20 20,0.25,300
SC,steamcondense_RNN_22,"□_[30.0, 35.0] ((87.0 <= pressure) && (pressure <= 87.5))",adaptive,-9.49322994288148E+017,300,36,0.203447507198817,no,[0.0 3.99; 1.75 4.01; 3.5 3.99; 5.25 4.0; 7.0 3.99; 8.75 4.0; 10.5 3.99; 12.25 3.99; 14.0 4.01; 15.75 4.01; 17.5 4.0; 19.25 4.01; 21.0 3.99; 22.75 3.99; 24.5 4.0; 26.25 4.0; 28.0 3.99; 29.75 3.99; 31.5 3.99; 33.25 3.995; 35.0 3.995],20 20 20 20 20 20,0.25,300
SC,steamcondense_RNN_22,"□_[30.0, 35.0] ((87.0 <= pressure) && (pressure <= 87.5))",adaptive,-5.58731118187322E+018,300,37,0.129816249258624,no,[0.0 3.99; 1.75 3.995; 3.5 3.99; 5.25 3.99; 7.0 4.01; 8.75 4.01; 10.5 4.0; 12.25 4.0; 14.0 4.0; 15.75 4.01; 17.5 4.01; 19.25 3.9918750000000003; 21.0 4.01; 22.75 4.01; 24.5 4.01; 26.25 3.99; 28.0 4.0; 29.75 4.005; 31.5 4.0; 33.25 3.99; 35.0 3.99],20 20 20 20 20 20,0.25,300
SC,steamcondense_RNN_22,"□_[30.0, 35.0] ((87.0 <= pressure) && (pressure <= 87.5))",adaptive,-3.84542424487376E+018,300,37,0.122587279087512,no,[0.0 4.01; 1.75 4.00875; 3.5 4.01; 5.25 3.99; 7.0 3.99; 8.75 3.99; 10.5 4.0; 12.25 3.99; 14.0 3.99; 15.75 4.0; 17.5 4.01; 19.25 3.99; 21.0 4.01; 22.75 4.005; 24.5 4.0; 26.25 4.01; 28.0 4.0; 29.75 4.0; 31.5 4.01; 33.25 3.99; 35.0 3.99],20 20 20 20 20 20,0.25,300
SC,steamcondense_RNN_22,"□_[30.0, 35.0] ((87.0 <= pressure) && (pressure <= 87.5))",adaptive,3.05692391704947E+018,300,36,0.201884980218054,no,[0.0 3.99; 1.75 3.99; 3.5 4.01; 5.25 3.99; 7.0 4.0; 8.75 4.0; 10.5 4.0024999999999995; 12.25 3.99; 14.0 4.01; 15.75 4.005; 17.5 4.01; 19.25 3.99; 21.0 3.995; 22.75 4.0; 24.5 4.0; 26.25 3.99; 28.0 3.99; 29.75 3.995; 31.5 3.99; 33.25 3.99; 35.0 3.99],20 20 20 20 20 20,0.25,300
SC,steamcondense_RNN_22,"□_[30.0, 35.0] ((87.0 <= pressure) && (pressure <= 87.5))",adaptive,5.35809076078757E+018,300,35,0.067263191909817,no,[0.0 3.99; 1.75 3.99; 3.5 4.0; 5.25 4.01; 7.0 4.01; 8.75 4.0; 10.5 4.01; 12.25 4.005; 14.0 4.01; 15.75 3.9987500000000002; 17.5 3.9975; 19.25 3.995; 21.0 4.0; 22.75 4.01; 24.5 4.01; 26.25 3.99; 28.0 4.01; 29.75 4.0; 31.5 4.01; 33.25 4.01; 35.0 4.01],20 20 20 20 20 20,0.25,300
SC,steamcondense_RNN_22,"□_[30.0, 35.0] ((87.0 <= pressure) && (pressure <= 87.5))",adaptive,8.7936492040371E+018,300,36,0.092112432573742,no,[0.0 3.99; 1.75 3.99; 3.5 3.99; 5.25 3.99; 7.0 4.0; 8.75 4.0024999999999995; 10.5 4.0; 12.25 3.99; 14.0 4.005; 15.75 4.01; 17.5 4.0; 19.25 3.99; 21.0 4.003125; 22.75 4.01; 24.5 4.005; 26.25 3.99; 28.0 3.995; 29.75 4.0; 31.5 3.995; 33.25 4.01; 35.0 4.01],20 20 20 20 20 20,0.25,300
SC,steamcondense_RNN_22,"□_[30.0, 35.0] ((87.0 <= pressure) && (pressure <= 87.5))",adaptive,-3.77850005251224E+018,300,37,0.134413513823716,no,[0.0 4.005; 1.75 4.0; 3.5 3.99; 5.25 3.99; 7.0 3.99; 8.75 3.99; 10.5 3.995; 12.25 4.01; 14.0 4.0024999999999995; 15.75 3.99; 17.5 4.0; 19.25 4.01; 21.0 4.01; 22.75 4.01; 24.5 4.0; 26.25 4.01; 28.0 4.01; 29.75 4.0; 31.5 4.00625; 33.25 3.99; 35.0 3.99],20 20 20 20 20 20,0.25,300
SC,steamcondense_RNN_22,"□_[30.0, 35.0] ((87.0 <= pressure) && (pressure <= 87.5))",adaptive,4.15025054264218E+018,300,35,0.075248453407099,no,[0.0 4.01; 1.75 4.0075; 3.5 3.9975; 5.25 3.99; 7.0 4.0; 8.75 4.00875; 10.5 3.99; 12.25 3.99; 14.0 3.99; 15.75 4.0; 17.5 3.995; 19.25 3.9975; 21.0 4.005; 22.75 3.99; 24.5 3.99; 26.25 4.01; 28.0 4.0024999999999995; 29.75 4.0; 31.5 3.99; 33.25 4.01; 35.0 4.01],20 20 20 20 20 20,0.25,300
SC,steamcondense_RNN_22,"□_[30.0, 35.0] ((87.0 <= pressure) && (pressure <= 87.5))",adaptive,5.95220152794002E+018,300,36,0.084585856185143,no,[0.0 4.0; 1.75 4.01; 3.5 3.99; 5.25 3.995; 7.0 4.0075; 8.75 4.0; 10.5 3.99; 12.25 4.01; 14.0 4.01; 15.75 4.01; 17.5 4.01; 19.25 4.005; 21.0 4.0; 22.75 3.99; 24.5 4.005; 26.25 3.99; 28.0 4.005; 29.75 4.01; 31.5 3.9925; 33.25 3.99; 35.0 3.99],20 20 20 20 20 20,0.25,300
SC,steamcondense_RNN_22,"□_[30.0, 35.0] ((87.0 <= pressure) && (pressure <= 87.5))",adaptive,4.83200702993866E+018,300,36,0.141251881480144,no,[0.0 3.99; 1.75 3.99; 3.5 3.99; 5.25 3.99; 7.0 4.01; 8.75 4.0; 10.5 4.0; 12.25 3.99; 14.0 4.0; 15.75 3.995; 17.5 3.9925; 19.25 4.01; 21.0 4.0; 22.75 4.01; 24.5 4.00375; 26.25 4.005; 28.0 4.005; 29.75 4.005; 31.5 4.01; 33.25 3.99; 35.0 3.99],20 20 20 20 20 20,0.25,300
SC,steamcondense_RNN_22,"□_[30.0, 35.0] ((87.0 <= pressure) && (pressure <= 87.5))",adaptive,4.53663709264237E+018,300,36,0.156812363338801,no,[0.0 3.995; 1.75 3.99; 3.5 3.9925; 5.25 4.01; 7.0 4.01; 8.75 4.01; 10.5 3.99; 12.25 4.01; 14.0 4.0; 15.75 3.99; 17.5 4.01; 19.25 4.01; 21.0 4.005; 22.75 3.99; 24.5 3.99; 26.25 4.0; 28.0 4.01; 29.75 4.01; 31.5 4.0; 33.25 4.0; 35.0 4.0],20 20 20 20 20 20,0.25,300
SC,steamcondense_RNN_22,"□_[30.0, 35.0] ((87.0 <= pressure) && (pressure <= 87.5))",adaptive,1.32693700881886E+018,300,35,0.122677996792902,no,[0.0 4.0; 1.75 3.99; 3.5 4.005; 5.25 4.0; 7.0 3.99; 8.75 4.005; 10.5 3.995; 12.25 4.0; 14.0 3.99; 15.75 3.995; 17.5 4.005; 19.25 4.0; 21.0 4.0; 22.75 4.01; 24.5 4.0; 26.25 3.99; 28.0 4.005; 29.75 4.01; 31.5 4.0; 33.25 4.001875; 35.0 4.001875],20 20 20 20 20 20,0.25,300
SC,steamcondense_RNN_22,"□_[30.0, 35.0] ((87.0 <= pressure) && (pressure <= 87.5))",adaptive,7.79388306999839E+018,300,36,0.135794953655406,no,[0.0 3.99; 1.75 3.99; 3.5 3.99; 5.25 4.01; 7.0 3.99; 8.75 3.99; 10.5 3.99; 12.25 4.0; 14.0 4.005; 15.75 3.99; 17.5 4.01; 19.25 3.99; 21.0 4.01; 22.75 3.99; 24.5 3.99; 26.25 3.99; 28.0 3.99; 29.75 4.00125; 31.5 4.0; 33.25 3.99; 35.0 3.99],20 20 20 20 20 20,0.25,300
SC,steamcondense_RNN_22,"□_[30.0, 35.0] ((87.0 <= pressure) && (pressure <= 87.5))",adaptive,5.27022761909959E+018,300,35,0.145316092948349,no,[0.0 4.01; 1.75 4.01; 3.5 3.99; 5.25 3.99; 7.0 4.01; 8.75 3.99; 10.5 4.01; 12.25 3.99; 14.0 3.9975; 15.75 4.0093749999999995; 17.5 4.01; 19.25 3.995; 21.0 3.995; 22.75 3.9925; 24.5 4.01; 26.25 3.99125; 28.0 3.995; 29.75 4.0; 31.5 4.0; 33.25 3.995; 35.0 3.995],20 20 20 20 20 20,0.25,300
SC,steamcondense_RNN_22,"□_[30.0, 35.0] ((87.0 <= pressure) && (pressure <= 87.5))",adaptive,9.06519163016124E+018,300,35,0.127442353620182,no,[0.0 4.0; 1.75 3.995; 3.5 4.01; 5.25 4.0; 7.0 4.0; 8.75 3.99125; 10.5 4.0; 12.25 4.01; 14.0 4.01; 15.75 4.0024999999999995; 17.5 4.0; 19.25 4.01; 21.0 4.0; 22.75 4.01; 24.5 4.0; 26.25 4.0075; 28.0 3.99; 29.75 4.0; 31.5 4.0024999999999995; 33.25 4.0; 35.0 4.0],20 20 20 20 20 20,0.25,300
SC,steamcondense_RNN_22,"□_[30.0, 35.0] ((87.0 <= pressure) && (pressure <= 87.5))",adaptive,2.77175770473484E+018,300,35,0.194233039217281,no,[0.0 4.0024999999999995; 1.75 4.01; 3.5 3.995; 5.25 3.99; 7.0 4.0; 8.75 3.99; 10.5 4.01; 12.25 4.01; 14.0 4.0075; 15.75 4.0; 17.5 4.01; 19.25 4.01; 21.0 4.01; 22.75 3.99125; 24.5 3.99; 26.25 4.0; 28.0 4.00625; 29.75 3.990625; 31.5 3.99; 33.25 3.99; 35.0 3.99],20 20 20 20 20 20,0.25,300
SC,steamcondense_RNN_22,"□_[30.0, 35.0] ((87.0 <= pressure) && (pressure <= 87.5))",adaptive,3.74694853858136E+018,300,35,0.053767094353603,no,[0.0 4.005; 1.75 3.99; 3.5 4.00375; 5.25 3.99; 7.0 4.0; 8.75 3.99; 10.5 4.0; 12.25 3.99; 14.0 3.99; 15.75 4.0; 17.5 4.01; 19.25 4.01; 21.0 3.99; 22.75 3.99; 24.5 3.99; 26.25 4.01; 28.0 3.995625; 29.75 4.01; 31.5 3.99; 33.25 4.01; 35.0 4.01],20 20 20 20 20 20,0.25,300
SC,steamcondense_RNN_22,"□_[30.0, 35.0] ((87.0 <= pressure) && (pressure <= 87.5))",adaptive,-7.7494137397008E+018,300,35,0.111008799177284,no,[0.0 4.0; 1.75 4.00875; 3.5 3.99; 5.25 4.01; 7.0 3.99; 8.75 4.0; 10.5 4.0; 12.25 4.005; 14.0 3.99; 15.75 4.01; 17.5 3.99; 19.25 3.99; 21.0 3.99; 22.75 4.0; 24.5 3.99; 26.25 4.01; 28.0 4.00125; 29.75 4.01; 31.5 4.0; 33.25 3.9925; 35.0 3.9925],20 20 20 20 20 20,0.25,300
SC,steamcondense_RNN_22,"□_[30.0, 35.0] ((87.0 <= pressure) && (pressure <= 87.5))",adaptive,-4.08280235843528E+018,300,36,0.112425841399244,no,[0.0 4.01; 1.75 4.01; 3.5 4.0; 5.25 3.99; 7.0 3.9925; 8.75 4.01; 10.5 4.01; 12.25 4.0; 14.0 4.0; 15.75 4.0075; 17.5 4.01; 19.25 4.01; 21.0 4.01; 22.75 3.99; 24.5 3.99; 26.25 4.01; 28.0 4.01; 29.75 4.0; 31.5 4.01; 33.25 3.99; 35.0 3.99],20 20 20 20 20 20,0.25,300
SC,steamcondense_RNN_22,"□_[30.0, 35.0] ((87.0 <= pressure) && (pressure <= 87.5))",adaptive,-3.85836292831872E+018,300,36,0.106049599302338,no,[0.0 4.01; 1.75 3.99; 3.5 4.01; 5.25 4.01; 7.0 4.005; 8.75 3.99; 10.5 4.0; 12.25 4.01; 14.0 4.01; 15.75 4.0; 17.5 3.99; 19.25 3.99; 21.0 4.01; 22.75 4.01; 24.5 3.99; 26.25 3.99; 28.0 4.0; 29.75 4.01; 31.5 3.99; 33.25 4.0024999999999995; 35.0 4.0024999999999995],20 20 20 20 20 20,0.25,300
SC,steamcondense_RNN_22,"□_[30.0, 35.0] ((87.0 <= pressure) && (pressure <= 87.5))",adaptive,8.79937462633252E+018,300,36,0.113810523135172,no,[0.0 4.01; 1.75 4.01; 3.5 4.0024999999999995; 5.25 3.99; 7.0 4.01; 8.75 4.0; 10.5 3.99; 12.25 3.99; 14.0 4.01; 15.75 4.0; 17.5 3.995; 19.25 4.0; 21.0 3.99; 22.75 4.01; 24.5 4.01; 26.25 3.99; 28.0 4.0; 29.75 3.9975; 31.5 3.9987500000000002; 33.25 4.01; 35.0 4.01],20 20 20 20 20 20,0.25,300
SC,steamcondense_RNN_22,"□_[30.0, 35.0] ((87.0 <= pressure) && (pressure <= 87.5))",adaptive,5.53328591536222E+018,300,36,0.106586033429991,no,[0.0 4.0; 1.75 4.01; 3.5 4.0; 5.25 4.01; 7.0 4.0; 8.75 4.01; 10.5 4.0; 12.25 4.005; 14.0 4.0; 15.75 3.99; 17.5 3.9925; 19.25 3.99; 21.0 4.01; 22.75 3.99; 24.5 4.01; 26.25 4.0; 28.0 4.01; 29.75 4.0; 31.5 4.005; 33.25 3.99; 35.0 3.99],20 20 20 20 20 20,0.25,300
SC,steamcondense_RNN_22,"□_[30.0, 35.0] ((87.0 <= pressure) && (pressure <= 87.5))",adaptive,8.94900620737947E+018,300,35,0.042280083550182,no,[0.0 4.0; 1.75 4.005; 3.5 4.0; 5.25 3.9975; 7.0 3.99; 8.75 3.99; 10.5 4.01; 12.25 3.9925; 14.0 4.01; 15.75 3.99; 17.5 3.998125; 19.25 3.99; 21.0 3.99625; 22.75 4.01; 24.5 4.01; 26.25 3.99; 28.0 4.01; 29.75 4.01; 31.5 3.99; 33.25 4.01; 35.0 4.01],20 20 20 20 20 20,0.25,300
SC,steamcondense_RNN_22,"□_[30.0, 35.0] ((87.0 <= pressure) && (pressure <= 87.5))",adaptive,1.21589754600601E+018,300,36,0.077889269197158,no,[0.0 4.0; 1.75 3.99; 3.5 3.995; 5.25 4.01; 7.0 4.01; 8.75 3.995; 10.5 4.0; 12.25 4.01; 14.0 4.01; 15.75 4.0; 17.5 4.01; 19.25 3.99; 21.0 3.99; 22.75 4.01; 24.5 4.0; 26.25 4.0; 28.0 3.99; 29.75 3.99; 31.5 4.01; 33.25 4.005; 35.0 4.005],20 20 20 20 20 20,0.25,300
SC,steamcondense_RNN_22,"□_[30.0, 35.0] ((87.0 <= pressure) && (pressure <= 87.5))",adaptive,6.89214271543339E+018,300,35,0.154135386709115,no,[0.0 4.005; 1.75 4.01; 3.5 4.0; 5.25 3.99; 7.0 3.99; 8.75 3.99; 10.5 3.99; 12.25 4.01; 14.0 4.00625; 15.75 4.01; 17.5 4.005; 19.25 4.0; 21.0 4.0; 22.75 3.99; 24.5 3.9975; 26.25 4.0; 28.0 3.9925; 29.75 4.0; 31.5 3.9987500000000002; 33.25 4.005; 35.0 4.005],20 20 20 20 20 20,0.25,300
SC,steamcondense_RNN_22,"□_[30.0, 35.0] ((87.0 <= pressure) && (pressure <= 87.5))",adaptive,3.86085328795427E+018,300,35,0.08323681970279,no,[0.0 4.0; 1.75 4.0; 3.5 4.005; 5.25 4.01; 7.0 3.99625; 8.75 4.0; 10.5 4.01; 12.25 4.005; 14.0 3.99; 15.75 3.99; 17.5 3.99; 19.25 3.9943750000000002; 21.0 3.9925; 22.75 4.005; 24.5 3.99; 26.25 3.995; 28.0 3.99; 29.75 4.01; 31.5 3.9975; 33.25 4.0; 35.0 4.0],20 20 20 20 20 20,0.25,300
SC,steamcondense_RNN_22,"□_[30.0, 35.0] ((87.0 <= pressure) && (pressure <= 87.5))",adaptive,-8.5411899467679E+018,300,35,0.133848910111553,no,[0.0 3.99; 1.75 3.995; 3.5 4.0; 5.25 4.0; 7.0 4.0; 8.75 3.99; 10.5 4.0075; 12.25 4.0; 14.0 4.01; 15.75 4.01; 17.5 3.99; 19.25 3.995; 21.0 4.0; 22.75 4.0; 24.5 3.995; 26.25 3.995; 28.0 3.99; 29.75 4.0; 31.5 4.01; 33.25 4.01; 35.0 4.01],20 20 20 20 20 20,0.25,300
SC,steamcondense_RNN_22,"□_[30.0, 35.0] ((87.0 <= pressure) && (pressure <= 87.5))",adaptive,1.84389231586425E+018,300,35,0.109346437916685,no,[0.0 4.005; 1.75 4.01; 3.5 3.995; 5.25 3.99; 7.0 4.01; 8.75 4.01; 10.5 4.01; 12.25 4.01; 14.0 4.0; 15.75 4.01; 17.5 4.01; 19.25 3.99; 21.0 3.9975; 22.75 3.99; 24.5 3.9975; 26.25 4.0; 28.0 3.99; 29.75 3.99625; 31.5 3.99; 33.25 4.005; 35.0 4.005],20 20 20 20 20 20,0.25,300
SC,steamcondense_RNN_22,"□_[30.0, 35.0] ((87.0 <= pressure) && (pressure <= 87.5))",adaptive,5.66319789662591E+018,300,36,0.19481714483733,no,[0.0 4.01; 1.75 3.99; 3.5 4.0; 5.25 3.99; 7.0 3.99; 8.75 4.01; 10.5 3.99; 12.25 4.0; 14.0 3.995; 15.75 3.99; 17.5 3.99; 19.25 4.0; 21.0 4.01; 22.75 4.01; 24.5 3.99; 26.25 3.995; 28.0 4.0; 29.75 4.0; 31.5 4.0; 33.25 3.99; 35.0 3.99],20 20 20 20 20 20,0.25,300
SC,steamcondense_RNN_22,"□_[30.0, 35.0] ((87.0 <= pressure) && (pressure <= 87.5))",adaptive,-9.15981054166268E+018,300,36,0.150714748746026,no,[0.0 4.01; 1.75 3.99; 3.5 3.995; 5.25 4.00375; 7.0 3.995; 8.75 3.99; 10.5 4.0; 12.25 3.99; 14.0 4.0; 15.75 4.0; 17.5 3.99; 19.25 3.99; 21.0 3.99; 22.75 3.995; 24.5 4.01; 26.25 4.01; 28.0 3.9937500000000004; 29.75 4.0; 31.5 4.0; 33.25 4.0; 35.0 4.0],20 20 20 20 20 20,0.25,300
SC,steamcondense_RNN_22,"□_[30.0, 35.0] ((87.0 <= pressure) && (pressure <= 87.5))",adaptive,6.31707514982999E+018,300,36,0.117324554096655,no,[0.0 4.01; 1.75 4.0; 3.5 4.01; 5.25 3.99; 7.0 4.005; 8.75 4.0075; 10.5 3.99; 12.25 4.0; 14.0 4.005; 15.75 4.0; 17.5 4.0; 19.25 3.9937500000000004; 21.0 4.005; 22.75 4.01; 24.5 3.9975; 26.25 4.01; 28.0 4.0; 29.75 4.0; 31.5 3.99; 33.25 4.005; 35.0 4.005],20 20 20 20 20 20,0.25,300
SC,steamcondense_RNN_22,"□_[30.0, 35.0] ((87.0 <= pressure) && (pressure <= 87.5))",adaptive,-5.5010124393104E+018,300,36,0.138047540939411,no,[0.0 4.01; 1.75 4.01; 3.5 4.0; 5.25 4.0; 7.0 4.0; 8.75 4.0; 10.5 3.995; 12.25 4.0; 14.0 4.005; 15.75 4.01; 17.5 3.99; 19.25 4.01; 21.0 4.01; 22.75 4.0; 24.5 4.01; 26.25 4.01; 28.0 4.0; 29.75 4.0; 31.5 4.01; 33.25 4.01; 35.0 4.01],20 20 20 20 20 20,0.25,300
SC,steamcondense_RNN_22,"□_[30.0, 35.0] ((87.0 <= pressure) && (pressure <= 87.5))",adaptive,-4.17532364217735E+018,300,36,0.109577410546535,no,[0.0 4.0; 1.75 3.995; 3.5 3.99; 5.25 4.0; 7.0 4.0; 8.75 4.0; 10.5 3.99; 12.25 3.995; 14.0 3.99; 15.75 4.01; 17.5 3.99; 19.25 4.0; 21.0 4.0; 22.75 4.01; 24.5 3.995; 26.25 3.99; 28.0 4.01; 29.75 3.99; 31.5 3.99; 33.25 3.99; 35.0 3.99],20 20 20 20 20 20,0.25,300
SC,steamcondense_RNN_22,"□_[30.0, 35.0] ((87.0 <= pressure) && (pressure <= 87.5))",adaptive,7.9445181191688E+018,300,35,0.15236666168056,no,[0.0 4.0; 1.75 4.0; 3.5 4.005; 5.25 4.005; 7.0 4.0; 8.75 4.0; 10.5 3.99; 12.25 3.99; 14.0 4.0; 15.75 3.99; 17.5 3.99; 19.25 4.01; 21.0 3.99; 22.75 4.0; 24.5 4.01; 26.25 4.01; 28.0 3.9925; 29.75 4.0; 31.5 4.0; 33.25 3.9975; 35.0 3.9975],20 20 20 20 20 20,0.25,300
SC,steamcondense_RNN_22,"□_[30.0, 35.0] ((87.0 <= pressure) && (pressure <= 87.5))",adaptive,6.2764512849884E+018,300,35,0.083545472678196,no,[0.0 3.99; 1.75 4.0075; 3.5 4.0; 5.25 4.01; 7.0 4.01; 8.75 4.01; 10.5 3.9975; 12.25 4.0; 14.0 3.9925; 15.75 3.99; 17.5 4.005; 19.25 4.01; 21.0 3.99; 22.75 4.0075; 24.5 3.99; 26.25 4.0; 28.0 4.005; 29.75 4.0; 31.5 3.99; 33.25 4.01; 35.0 4.01],20 20 20 20 20 20,0.25,300
SC,steamcondense_RNN_22,"□_[30.0, 35.0] ((87.0 <= pressure) && (pressure <= 87.5))",adaptive,3.94970586171901E+018,300,35,0.131832356021548,no,[0.0 3.9975; 1.75 4.01; 3.5 3.99; 5.25 3.9925; 7.0 3.99; 8.75 4.0; 10.5 3.9925; 12.25 3.99; 14.0 4.01; 15.75 4.0; 17.5 3.99; 19.25 3.99; 21.0 4.01; 22.75 3.995; 24.5 3.99; 26.25 4.01; 28.0 3.995; 29.75 4.0; 31.5 4.0; 33.25 3.9925; 35.0 3.9925],20 20 20 20 20 20,0.25,300
SC,steamcondense_RNN_22,"□_[30.0, 35.0] ((87.0 <= pressure) && (pressure <= 87.5))",adaptive,7.3167429133668E+018,300,35,0.226352752089994,no,[0.0 4.0; 1.75 4.01; 3.5 4.01; 5.25 3.9975; 7.0 3.99; 8.75 4.01; 10.5 4.01; 12.25 3.99; 14.0 3.99; 15.75 4.0024999999999995; 17.5 4.0; 19.25 4.00875; 21.0 4.005; 22.75 4.01; 24.5 4.01; 26.25 3.995; 28.0 3.99; 29.75 3.99; 31.5 3.99; 33.25 3.99; 35.0 3.99],20 20 20 20 20 20,0.25,300
SC,steamcondense_RNN_22,"□_[30.0, 35.0] ((87.0 <= pressure) && (pressure <= 87.5))",adaptive,-5.59528545120197E+018,300,35,0.118725758610324,no,[0.0 4.0; 1.75 4.0075; 3.5 4.01; 5.25 4.005; 7.0 4.0024999999999995; 8.75 3.99; 10.5 3.99; 12.25 4.0; 14.0 3.99; 15.75 4.0024999999999995; 17.5 4.01; 19.25 4.01; 21.0 3.995; 22.75 3.99; 24.5 4.005; 26.25 4.0093749999999995; 28.0 4.01; 29.75 3.99; 31.5 4.00125; 33.25 4.005; 35.0 4.005],20 20 20 20 20 20,0.25,300
SC,steamcondense_RNN_22,"□_[30.0, 35.0] ((87.0 <= pressure) && (pressure <= 87.5))",adaptive,-5.31715589888649E+018,300,36,0.085835273403973,no,[0.0 3.99; 1.75 3.99; 3.5 4.01; 5.25 3.99; 7.0 3.99125; 8.75 4.0; 10.5 3.99; 12.25 4.0; 14.0 4.01; 15.75 4.0; 17.5 4.01; 19.25 4.01; 21.0 3.99; 22.75 4.01; 24.5 4.01; 26.25 4.0; 28.0 3.99; 29.75 4.01; 31.5 4.0; 33.25 3.995; 35.0 3.995],20 20 20 20 20 20,0.25,300
