2020-07-06 12:25:42.369221, ACC, 1,  0.028384, True
2020-07-06 12:25:42.411821, ACC, 2,  0.041765, True
2020-07-06 12:25:42.501771, ACC, 3,  0.088762, True
2020-07-06 12:25:42.587781, ACC, 4,  0.084510, True
2020-07-06 12:25:42.694822, ACC, 5,  0.105130, True
2020-07-06 12:25:42.850336, ACC, 6,  0.153031, True
2020-07-06 12:25:42.998721, ACC, 7,  0.145664, True
2020-07-06 12:25:43.167484, ACC, 8,  0.165441, True
2020-07-06 12:25:43.381902, ACC, 9,  0.210796, True
2020-07-06 12:25:43.595967, ACC, 10,  0.210046, True
2020-07-06 12:25:43.856609, ACC, 11,  0.256161, True
2020-07-06 12:25:44.140730, ACC, 12,  0.279180, True
2020-07-06 12:25:44.442806, ACC, 13,  0.296723, True
2020-07-06 12:25:44.738622, ACC, 14,  0.290089, True
2020-07-06 12:25:45.079850, ACC, 15,  0.335111, True
2020-07-06 12:25:45.443951, ACC, 16,  0.357613, True
2020-07-06 12:25:45.828528, ACC, 17,  0.377544, True
2020-07-06 12:25:46.242749, ACC, 18,  0.406736, True
2020-07-06 12:25:46.671060, ACC, 19,  0.420539, True
2020-07-06 12:25:47.157554, ACC, 20,  0.478191, True
2020-07-06 12:25:47.638329, ACC, 21,  0.472098, True
2020-07-06 12:25:48.131068, ACC, 22,  0.483802, True
2020-07-06 12:25:48.642001, ACC, 23,  0.501516, True
2020-07-06 12:25:49.204880, ACC, 24,  0.553125, True
2020-07-06 12:25:49.771426, ACC, 25,  0.556259, True
2020-07-06 12:25:50.381555, ACC, 26,  0.599309, True
2020-07-06 12:25:50.980056, ACC, 27,  0.587447, True
2020-07-06 12:25:51.628789, ACC, 28,  0.637351, True
2020-07-06 12:25:52.299448, ACC, 29,  0.658901, True
2020-07-06 12:25:52.999313, ACC, 30,  0.687518, True
2020-07-06 12:25:53.684214, ACC, 31,  0.672142, True
2020-07-06 12:25:54.423968, ACC, 32,  0.726750, True
2020-07-06 12:25:55.191189, ACC, 33,  0.753745, True
2020-07-06 12:25:55.984252, ACC, 34,  0.778949, True
2020-07-06 12:25:56.804777, ACC, 35,  0.806186, True
2020-07-06 12:25:57.624880, ACC, 36,  0.805430, True
2020-07-06 12:25:58.487073, ACC, 37,  0.846425, True
2020-07-06 12:25:59.377169, ACC, 38,  0.874465, True
2020-07-06 12:26:00.310722, ACC, 39,  0.917452, True
2020-07-06 12:26:01.236434, ACC, 40,  0.909387, True
2020-07-06 12:26:02.181217, ACC, 41,  0.927889, True
2020-07-06 12:26:03.133848, ACC, 42,  0.935385, True
2020-07-06 12:26:04.126199, ACC, 43,  0.974569, True
2020-07-06 12:26:05.152911, ACC, 44,  1.008587, True
2020-07-06 12:26:06.167691, ACC, 45,  0.996178, True
2020-07-06 12:26:07.239796, ACC, 46,  1.053120, True
2020-07-06 12:26:08.297752, ACC, 47,  1.038722, True
2020-07-06 12:26:09.422924, ACC, 48,  1.105420, True
2020-07-06 12:26:10.535598, ACC, 49,  1.092533, True
2020-07-06 12:26:11.700356, ACC, 50,  1.144191, True
2020-07-06 15:44:37.944892, Single Pendulum, 10,  0.270512, False
2020-07-06 15:44:38.983523, Single Pendulum, 11,  1.035818, True
2020-07-06 15:44:40.654901, Single Pendulum, 12,  1.668390, True
2020-07-06 15:44:46.388402, Single Pendulum, 13,  5.730094, True
2020-07-06 15:44:51.783219, Single Pendulum, 14,  5.391204, True
2020-07-06 15:44:59.501216, Single Pendulum, 15,  7.713743, True
2020-07-06 15:45:24.422098, Single Pendulum, 16, 24.916300, True
2020-07-06 15:46:19.097404, Single Pendulum, 17, 54.669475, True
2020-07-06 15:47:53.038612, Single Pendulum, 18, 93.933617, True
2020-07-06 15:48:58.506100, Single Pendulum, 19, 65.460026, True
2020-07-06 15:51:00.977228, Single Pendulum, 20, 122.463138, True
2020-07-06 15:52:22.720914, Tora, 1,  0.186355, True
2020-07-06 15:52:23.049522, Tora, 2,  0.326690, True
2020-07-06 15:52:23.511452, Tora, 3,  0.458832, True
2020-07-06 15:52:24.138193, Tora, 4,  0.622535, True
2020-07-06 15:52:24.963400, Tora, 5,  0.819650, True
2020-07-06 15:52:25.948764, Tora, 6,  0.978942, True
2020-07-06 15:52:27.110699, Tora, 7,  1.154477, True
2020-07-06 15:52:28.433555, Tora, 8,  1.314273, True
2020-07-06 15:52:29.928282, Tora, 9,  1.485147, True
2020-07-06 15:52:31.577177, Tora, 10,  1.638310, True
2020-07-06 15:52:33.401131, Tora, 11,  1.811793, True
2020-07-06 15:52:35.419188, Tora, 12,  2.005103, True
2020-07-06 15:52:37.613316, Tora, 13,  2.180100, True
2020-07-06 15:52:39.961394, Tora, 14,  2.332983, True
2020-07-06 15:52:42.483933, Tora, 15,  2.506348, True
2020-07-06 15:52:45.167366, Tora, 16,  2.666243, True
2020-07-06 15:52:48.020547, Tora, 17,  2.834892, True
2020-07-06 15:52:51.030345, Tora, 18,  2.990291, True
2020-07-06 15:52:54.222533, Tora, 19,  3.171451, True
2020-07-06 15:52:57.606371, Tora, 20,  3.362060, True
2020-07-06 12:41:00.431802, VCAS_-19.5, 1,  0.074503, True
2020-07-06 12:41:00.538756, VCAS_-19.5, 2,  0.041190, True
2020-07-06 12:41:00.763120, VCAS_-19.5, 3,  0.089840, True
2020-07-06 12:41:01.095708, VCAS_-19.5, 4,  0.112096, True
2020-07-06 12:41:01.497072, VCAS_-19.5, 5,  0.131208, True
2020-07-06 12:41:01.984397, VCAS_-19.5, 6,  0.124735, True
2020-07-06 12:41:02.572392, VCAS_-19.5, 7,  0.173970, True
2020-07-06 12:41:03.249660, VCAS_-19.5, 8,  0.196995, True
2020-07-06 12:41:04.162044, VCAS_-19.5, 9,  0.257441, True
2020-07-06 12:41:05.643892, VCAS_-19.5, 10,  0.427604, True
2020-07-06 12:41:00.455001, VCAS_-22.5, 1,  0.022711, True
2020-07-06 12:41:00.580058, VCAS_-22.5, 2,  0.040408, True
2020-07-06 12:41:00.841579, VCAS_-22.5, 3,  0.076766, False
2020-07-06 12:41:01.178851, VCAS_-22.5, 4,  0.081358, True
2020-07-06 12:41:01.600875, VCAS_-22.5, 5,  0.101578, True
2020-07-06 12:41:02.141846, VCAS_-22.5, 6,  0.154752, True
2020-07-06 12:41:02.720359, VCAS_-22.5, 7,  0.144862, True
2020-07-06 12:41:03.418745, VCAS_-22.5, 8,  0.165542, True
2020-07-06 12:41:04.354516, VCAS_-22.5, 9,  0.188347, True
2020-07-06 12:41:06.000327, VCAS_-22.5, 10,  0.349911, True
2020-07-06 12:41:00.475968, VCAS_-25.5, 1,  0.020511, True
2020-07-06 12:41:00.625776, VCAS_-25.5, 2,  0.044590, False
2020-07-06 12:41:00.911541, VCAS_-25.5, 3,  0.068277, False
2020-07-06 12:41:01.271422, VCAS_-25.5, 4,  0.090396, False
2020-07-06 12:41:01.706827, VCAS_-25.5, 5,  0.103744, True
2020-07-06 12:41:02.268867, VCAS_-25.5, 6,  0.124393, True
2020-07-06 12:41:02.899039, VCAS_-25.5, 7,  0.175550, True
2020-07-06 12:41:03.659890, VCAS_-25.5, 8,  0.236617, True
2020-07-06 12:41:04.767641, VCAS_-25.5, 9,  0.405712, True
2020-07-06 12:41:06.619888, VCAS_-25.5, 10,  0.608975, True
2020-07-06 12:41:00.496695, VCAS_-28.5, 1,  0.020287, True
2020-07-06 12:41:00.671924, VCAS_-28.5, 2,  0.044996, False
2020-07-06 12:41:00.981831, VCAS_-28.5, 3,  0.068638, False
2020-07-06 12:41:01.363586, VCAS_-28.5, 4,  0.090024, False
2020-07-06 12:41:01.856971, VCAS_-28.5, 5,  0.147531, False
2020-07-06 12:41:02.395284, VCAS_-28.5, 6,  0.123731, True
2020-07-06 12:41:03.049055, VCAS_-28.5, 7,  0.146842, True
2020-07-06 12:41:03.899614, VCAS_-28.5, 8,  0.235237, True
2020-07-06 12:41:05.208380, VCAS_-28.5, 9,  0.433260, True
2020-07-06 12:41:09.566683, VCAS_-28.5, 10,  2.934206, True
2020-07-06 12:41:16.499330, Unicycle, 1,  0.056514, False
2020-07-06 12:41:16.638053, Unicycle, 2,  0.135691, False
2020-07-06 12:41:16.869279, Unicycle, 3,  0.226711, False
2020-07-06 12:41:17.224812, Unicycle, 4,  0.349865, False
2020-07-06 12:41:17.633878, Unicycle, 5,  0.401933, False
2020-07-06 12:41:18.158708, Unicycle, 6,  0.516224, False
2020-07-06 12:41:18.892629, Unicycle, 7,  0.723885, False
2020-07-06 12:41:19.941786, Unicycle, 8,  1.037646, False
2020-07-06 12:41:22.691726, Unicycle, 9,  2.735632, False
2020-07-06 12:41:37.725277, Unicycle, 10, 15.016992, False
2020-07-06 12:43:40.853308, Unicycle, 11, 123.108749, False
2020-07-06 12:48:28.432918, Unicycle, 12, 287.559251, False
2020-07-06 13:01:58.232297, Unicycle, 13, 809.774982, False
2020-07-06 14:01:59.178515, Unicycle, 14, 3600.910482, Timeout
2020-07-06 14:18:15.024787, Unicycle, 15, 975.812985, False
2020-07-06 15:18:16.154082, Unicycle, 16, 1801.092969, Timeout
2020-07-06 15:48:17.244018, Unicycle, 17, 1801.092969, Timeout
2020-07-06 16:27:54.222537, Unicycle, 18, 1801.259165, Timeout
2020-07-06 16:57:55.648645, Unicycle, 19, 1801.388601, Timeout
2020-07-06 17:27:57.219531, Unicycle, 20, 1801.531633, Timeout
2020-07-06 17:57:58.781004, Unicycle, 21, 1801.515946, Timeout
2020-07-06 18:28:00.455460, Unicycle, 22, 1801.618370, Timeout
2020-07-06 18:58:02.187217, Unicycle, 23, 1801.675720, Timeout
2020-07-06 18:58:39.584951, Unicycle, 24, 37.359764, True
